%time,field.header.seq,field.header.frame_id,field.point_id,field.x,field.y,field.z,field.velocity,field.intensity,normalized_x,normalized_y,normalized_z,normalized_intensity,normalized_velocity,normalized_range,range
1648466135320638497,114380,0,0,0.0132478391752,0.0439508594573,0.00952034443617,0.0,15.8000001907,0.004430715443210702,0.014699284099431437,0.0031840616843377923,15.8000001907,0.0,0.015979093582340943,0.046880915605719706
1648466135320644060,114381,0,1,0.0336747989058,0.0146502861753,-0.0291409865022,0.0,15.8000001907,0.011262474550434783,0.0048997612626421405,-0.009746149331839465,15.8000001907,0.0,0.016664162938151764,0.04688091360762563
1648466135320663622,114382,0,2,0.686645925045,0.117202289402,0.278249889612,0.0,15.8000001907,0.2296474665702341,0.03919809010100334,0.09306016374983277,15.8000001907,0.0,0.3271275104172988,0.7500946634199339
1648466135320692922,114383,0,3,0.619025945663,0.421928226948,0.0377548001707,0.0,15.8000001907,0.20703208885050164,0.14111311938060198,0.012627023468461538,15.8000001907,0.0,0.3250192057231819,0.7500946440519248
1648466135320697456,114384,0,4,2.04045248032,-1.0987714529,0.351861029863,0.0,15.8000001907,0.6824255787023411,-0.3674820912709029,0.11767927420167223,15.8000001907,0.0,1.03269183609598,2.3440459070778177
1648466135320705201,114385,0,5,0.365213513374,-0.082041606307,0.0234257020056,0.242756426334,15.8000001907,0.12214498775050166,-0.027438664316722407,0.007834682945016722,15.8000001907,0.03280492247756756,0.17490476369906616,0.37504732905443927
1648466135320717417,114386,0,6,0.221221730113,0.00732514308766,0.0771543607116,0.566431701183,15.8000001907,0.07398720070668896,0.0024498806313244144,0.025804134017257525,15.8000001907,0.07654482448418919,0.10466237935347872,0.23440457967424483
1648466135320813976,114387,0,7,0.144424766302,0.0952268615365,-0.158173441887,0.566431701183,15.8000001907,0.04830259742541805,0.03184844867441471,-0.05290081668461538,15.8000001907,0.07654482448418919,0.07536979182040264,0.23440457759578676
1648466135515984767,114388,2,0,0.0133034354076,0.0439508594573,0.00944249983877,0.0,32.0,0.004449309500869565,0.014699284099431437,0.0031580267019297656,32.0,0.0,0.01598942347631253,0.046880915561502146
1648466135515991077,114389,2,1,0.0337118916214,0.0146502861753,-0.0290980711579,0.0,32.0,0.011274880140936454,0.0048997612626421405,-0.009731796373879597,32.0,0.0,0.016680932372498097,0.04688091580612966
1648466135515995972,114390,2,2,0.689347743988,0.131852582097,-0.0438651107252,0.0,32.0,0.23055108494581938,0.04409785354414715,-0.014670605593712374,32.0,0.0,0.3290170606922837,0.7032137395457553
1648466135515999182,114391,2,3,0.64840811491,0.423393249512,-0.188348278403,0.0,32.0,0.2168589013076923,0.14160309348227423,-0.06299273525183946,32.0,0.0,0.33779727979441837,0.7969755336212302
1648466135516067880,114392,2,4,0.726225137711,0.149432912469,0.292295902967,0.0,32.0,0.24288466144180598,0.04997756269866221,0.0977578270792642,32.0,0.0,0.34710758317948076,0.7969755585108131
1648466135516085237,114393,2,5,2.03097271919,-1.0987714529,0.402992218733,0.0,32.0,0.6792550900301003,-0.3674820912709029,0.13478000626521738,32.0,0.0,1.028502815780509,2.3440459936104805
1648466135516089942,114394,2,6,0.349615812302,0.046880915761,0.12740278244,-0.647350490093,32.0,0.11692836531839464,0.015679236040468225,0.04260962623411371,32.0,-0.08747979595851352,0.16610335238903706,0.3750473376090427
1648466135516092461,114395,2,7,0.234524250031,-0.093761831522,-0.277250051498,-0.647350490093,32.0,0.0784362040237458,-0.03135847208093645,-0.09272576973177257,32.0,-0.08747979595851352,0.11527285011901209,0.3750473249586065
1648466135620914282,114396,3,0,0.0132299559191,0.0439508594573,0.00954518001527,0.0,36.0,0.004424734421103679,0.014699284099431437,0.0031923678980836116,36.0,0.0,0.01597577861734436,0.04688091554332718
1648466135620928565,114397,3,1,0.0336091145873,0.0146502861753,-0.0292167179286,0.0,36.0,0.011240506550936455,0.0048997612626421405,-0.009771477568093644,36.0,0.0,0.016634471301312202,0.046880913759010975
1648466135621076540,114398,3,2,0.645184993744,0.082041606307,-0.0881949663162,0.0,36.0,0.21578093436254178,0.027438664316722407,-0.029496644252909696,36.0,0.0,0.30639142215184306,0.65633288307184
1648466135621093377,114399,3,3,0.703943669796,0.373582303524,0.00834323186427,0.0,36.0,0.23543266548361202,0.12494391422207357,0.0027903785499230767,36.0,0.0,0.35562348299088686,0.7969755562563378
1648466135621098625,114400,3,4,0.57899171114,0.124527432024,0.533321201801,0.0,36.0,0.19364271275585285,0.04164797057658863,0.17836829491672238,36.0,0.0,0.27700099974556025,0.7969755248348471
1648466135621143100,114401,3,5,2.02813720703,-1.0987714529,0.417027592659,0.0,36.0,0.6783067582040133,-0.3674820912709029,0.13947411125719064,36.0,0.0,1.0272503121709489,2.344045914500479
1648466135621162850,114402,3,6,0.302592426538,-0.102552004158,-0.343078613281,-0.647350490093,36.0,0.10120148044749164,-0.034298329149832774,-0.11474201113076922,36.0,-0.08747979595851352,0.14717287342441313,0.46880915631607634
1648466135621164656,114403,3,7,0.443935632706,0.0879017189145,0.122378416359,-0.647350490093,36.0,0.14847345575451504,0.02939856819882943,0.04092923624046822,36.0,-0.08747979595851352,0.21202124879246678,0.46880916689494995
1648466135816062409,114404,5,0,0.0133034354076,0.0439508594573,0.00944249983877,0.0,33.0999984741,0.004449309500869565,0.014699284099431437,0.0031580267019297656,33.0999984741,0.0,0.01598942347631253,0.046880915561502146
1648466135816069143,114405,5,1,0.0336321368814,0.0146502861753,-0.0291902143508,0.0,33.0999984741,0.011248206314849497,0.0048997612626421405,-0.009762613495250835,33.0999984741,0.0,0.016644877621470478,0.04688091434766458
1648466135816072182,114406,5,2,0.634849071503,0.210964113474,0.339267969131,0.0,33.0999984741,0.21232410418160533,0.07055655969030099,0.11346754820434782,33.0999984741,0.0,0.3084497990733231,0.7500946311235437
1648466135816225917,114407,5,3,0.749686360359,0.0234404578805,-0.00793076306581,0.0,33.0999984741,0.25073122420033445,0.007839618020234113,-0.002652429119,33.0999984741,0.0,0.35467415071964287,0.7500946546781799
1648466135816228407,114408,5,4,2.02815198898,-1.0987714529,0.416955053806,0.0,33.0999984741,0.6783117019999999,-0.3674820912709029,0.13944985077123745,33.0999984741,0.0,1.027256841079732,2.3440458001084092
1648466135816235663,114409,5,5,0.738317251205,-0.0703213736415,0.112180806696,0.242756426334,33.0999984741,0.24692884655685618,-0.023518854060702338,0.03751866444682274,33.0999984741,0.03280492247756756,0.35000121002666185,0.7500946556326741
1648466135816257088,114410,5,6,0.541976630688,-0.0527410283685,0.141300529242,0.485512852669,33.0999984741,0.18126308718662204,-0.017639139922575247,0.04725770208762542,33.0999984741,0.06560984495527027,0.25695087625859164,0.5625709944970082
1648466135921026924,114411,6,0,0.0133434562013,0.0439508594573,0.00938585959375,0.0,41.7000007629,0.004462694381705685,0.014699284099431437,0.0031390834761705687,41.7000007629,0.0,0.01599688205010004,0.04688091542136242
1648466135921033804,114412,6,1,0.0336977690458,0.0146502861753,-0.0291144233197,0.0,41.7000007629,0.011270156871505016,0.0048997612626421405,-0.009737265324314381,41.7000007629,0.0,0.016674547437563397,0.04688091476198981
1648466135921163114,114413,6,2,0.715189516544,0.187523663044,0.126415133476,0.0,41.7000007629,0.23919381824214045,0.0627169441618729,0.0422793088548495,41.7000007629,0.0,0.34403601621852287,0.7500946305284654
1648466135921168119,114414,6,3,2.02638053894,-1.0987714529,0.425480723381,0.0,41.7000007629,0.677719243792642,-0.3674820912709029,0.14230124527792642,41.7000007629,0.0,1.0264744683715117,2.344045784593714
1648466135921174069,114415,6,4,0.740948796272,-0.0234404578805,0.114400170743,0.161837622523,41.7000007629,0.2478089619638796,-0.007839618020234113,0.038260926669899664,41.7000007629,0.021869948989594594,0.3505424694240831,0.7500946425809218
1648466135921178339,114416,6,5,0.868371129036,-0.194848805666,0.0371308401227,0.242756426334,41.7000007629,0.29042512676789295,-0.06516682463745818,0.012418341178160534,41.7000007629,0.03280492247756756,0.41586082233076804,0.8907374327493718
1648466135921181211,114417,6,6,0.0868224650621,0.167013257742,-0.87062138319,0.242756426334,41.7000007629,0.02903761373314381,0.05585727683678929,-0.2911777201304348,41.7000007629,0.03280492247756756,0.06932821502283354,0.8907374257146289
1648466135921184327,114418,6,7,0.568302154541,0.0190453715622,0.219320610166,0.485512852669,41.7000007629,0.19006761021438126,0.006369689485685618,0.07335137463745818,41.7000007629,0.06560984495527027,0.26887165311604716,0.6094518808548148
