%time,field.header.seq,field.header.frame_id,field.point_id,field.x,field.y,field.z,field.velocity,field.intensity,normalized_x,normalized_y,normalized_z,normalized_intensity,normalized_velocity,normalized_range,range
1648465909414968025,106938,0,0,0.013252383098,0.0439508594573,0.00951401796192,0.0,20.5,0.004432235149832775,0.014699284099431437,0.003181945806662207,20.5,0.0,0.015979936479305047,0.046880915547706924
1648465909414978728,106939,0,1,0.0336747989058,0.0146502861753,-0.0291409865022,0.0,20.5,0.011262474550434783,0.0048997612626421405,-0.009746149331839465,20.5,0.0,0.016664162938151764,0.04688091360762563
1648465909610019080,106940,2,0,0.0132406326011,0.0439508594573,0.00953036453575,0.0,12.8999996185,0.004428305217759197,0.014699284099431437,0.0031874128882107017,12.8999996185,0.0,0.015977757265619744,0.04688091559362861
1648465909610022050,106941,2,1,0.0337503887713,0.0146502861753,-0.0290534067899,0.0,12.8999996185,0.011287755441906355,0.0048997612626421405,-0.009716858458160534,12.8999996185,0.0,0.01669833842822278,0.04688091374249746
1648465909715096357,106942,3,0,0.0133139379323,0.0439508594573,0.00942768435925,0.0,12.6000003815,0.004452822050936455,0.014699284099431437,0.0031530716920568557,12.6000003815,0.0,0.015991378973384682,0.04688091533532723
1648465909715100549,106943,3,1,0.0337503887713,0.0146502861753,-0.0290534067899,0.0,12.6000003815,0.011287755441906355,0.0048997612626421405,-0.009716858458160534,12.6000003815,0.0,0.01669833842822278,0.04688091374249746
1648465909715102540,106944,3,2,0.316560894251,0.574291229248,0.0274152457714,0.0,12.6000003815,0.10587320877959865,0.1920706452334448,0.009168978518862876,12.6000003815,0.0,0.24353522421811752,0.656332851121196
1648465909715104287,106945,3,3,0.257125198841,-0.0263705141842,0.110962890089,0.242756426334,12.6000003815,0.08599504977959865,-0.008819569961270902,0.037111334477926416,12.6000003815,0.03280492247756756,0.12193474479201181,0.2812855042021653
1648465909715132457,106946,3,4,0.133121475577,0.079111546278,-0.234822407365,0.242756426334,12.6000003815,0.044522232634448156,0.026458711129765885,-0.07853592219565217,12.6000003815,0.03280492247756756,0.06829730442821472,0.28128549023187804
1648465909910039785,106947,5,0,0.0132406326011,0.0439508594573,0.00953036453575,0.0,21.1000003815,0.004428305217759197,0.014699284099431437,0.0031874128882107017,21.1000003815,0.0,0.015977757265619744,0.04688091559362861
1648465909910051291,106948,5,1,0.033727504313,0.0146502861753,-0.0290799699724,0.0,21.1000003815,0.011280101776923075,0.0048997612626421405,-0.00972574246568562,21.1000003815,0.0,0.0166879912699634,0.04688091387544942
1648465909910054228,106949,5,2,0.316504210234,0.574291229248,0.0280620642006,0.0,21.1000003815,0.10585425091438126,0.1920706452334448,0.009385305752709029,21.1000003815,0.0,0.24351874185302738,0.6563328504152642
1648465909910056489,106950,5,3,0.831476986408,-0.234404578805,0.364456564188,0.0,21.1000003815,0.27808594863143815,-0.07839618020234114,0.1218918274876254,21.1000003815,0.0,0.4010106616074087,0.9376182979606364
1648465909910064051,106951,5,4,0.785578429699,-0.0996219441295,0.090066999197,0.0809188112617,21.1000003815,0.2627352607688963,-0.033318375963043476,0.03012274220635451,21.1000003815,0.010934974494824324,0.3730546188956982,0.7969755738445441
1648465909910147368,106952,5,5,0.291644841433,0.199243888259,-0.71443349123,0.0809188112617,21.1000003815,0.09754008074682274,0.06663675192608695,-0.23894096696655517,21.1000003815,0.010934974494824324,0.15319461939458662,0.7969755667108818
1648465909910219772,106953,5,6,0.307052820921,-0.0205104015768,0.113978482783,0.404594063759,21.1000003815,0.10269325114414715,-0.006859666079197324,0.03811989390735786,21.1000003815,0.05467487348094594,0.14539209978478146,0.32816643025437553
1648465909910234674,106954,5,7,0.314780294895,0.0922968089581,0.00937366858125,0.404594063759,21.1000003815,0.10527769060033443,0.030868497979297655,0.0031350062144648826,21.1000003815,0.05467487348094594,0.15205146643086803,0.3281664222017577
1648465909910238979,106955,5,8,0.500371992588,0.0483459457755,0.115007854998,0.485512852669,21.1000003815,0.16734849250434783,0.016169212633946488,0.03846416555117056,21.1000003815,0.06560984495527027,0.23721821035527035,0.5156900892499817
1648465910015049819,106956,6,0,0.0132584534585,0.0439508594573,0.00950555689633,0.0,20.6000003815,0.0044342653707357856,0.014699284099431437,0.0031791160188394648,20.6000003815,0.0,0.015981062911834463,0.04688091559532422
1648465910015059527,106957,6,1,0.033713478595,0.0146502861753,-0.0290962327272,0.0,20.6000003815,0.011275410901337792,0.0048997612626421405,-0.009731181514113712,20.6000003815,0.0,0.016681649871008047,0.04688091597770988
1648465910015068841,106958,6,2,0.316656917334,0.574291229248,0.0262830983847,0.0,20.6000003815,0.10590532352307691,0.1920706452334448,0.00879033390792642,20.6000003815,0.0,0.24356314963772124,0.6563328580433486
1648465910015078230,106959,6,3,0.869287729263,-0.234404578805,0.261766046286,0.0,20.6000003815,0.2907316820277592,-0.07839618020234114,0.08754717267090299,20.6000003815,0.0,0.4185639532254278,0.9376183262928347
1648465910015082960,106960,6,4,0.792203724384,-0.0249054860324,0.0834445506334,0.0809188112617,20.6000003815,0.26495107838929766,-0.00832959399076923,0.027907876466020068,20.6000003815,0.010934974494824324,0.37478998120994983,0.7969755436604066
1648465910015090146,106961,6,5,0.120937615633,0.249054864049,-0.747339129448,0.0809188112617,20.6000003815,0.04044736308795986,0.0832959411535117,-0.2499461971397993,20.6000003815,0.010934974494824324,0.10104549556604589,0.7969755370057199
1648465910015104848,106962,6,6,0.344587802887,0.131852567196,0.204688966274,0.485512852669,20.6000003815,0.11524675681839465,0.04409784856053511,0.06845784825217391,20.6000003815,0.06560984495527027,0.16884386326421308,0.4219282240962133
1648465910015489191,106963,6,7,0.264051377773,0.105482056737,0.244562670588,0.566431701183,20.6000003815,0.08831149758294313,0.035278279845150494,0.08179353531371236,20.6000003815,0.07654482448418919,0.1297782656669332,0.3750473226706489
1648465910015493458,106964,6,8,0.370110630989,-0.0234404578805,0.0559389963746,0.566431701183,20.6000003815,0.12378281972876252,-0.007839618020234113,0.018708694439665552,20.6000003815,0.07654482448418919,0.17523079789440502,0.37504733774834437
