%time,field.header.seq,field.header.frame_id,field.point_id,field.x,field.y,field.z,field.velocity,field.intensity,normalized_x,normalized_y,normalized_z,normalized_intensity,normalized_velocity,normalized_range,range
1648465896314626264,106530,0,0,0.0133259519935,0.0439508594573,0.00941069517285,0.0,16.7000007629,0.004456840131605351,0.014699284099431437,0.003147389689916388,16.7000007629,0.0,0.015993617506779818,0.04688091538360472
1648465896314631065,106531,0,1,0.0336747989058,0.0146502861753,-0.0291409865022,0.0,16.7000007629,0.011262474550434783,0.0048997612626421405,-0.009746149331839465,16.7000007629,0.0,0.016664162938151764,0.04688091360762563
1648465896314634541,106532,0,2,0.795118629932,-0.250519901514,0.313750356436,0.0,16.7000007629,0.26592596318795986,-0.08378592023879598,0.10493322957725752,16.7000007629,0.0,0.3852964004829921,0.8907374152258577
1648465896314640056,106533,0,3,2.22473144531,0.990359306335,0.112536691129,0.0,16.7000007629,0.7440573395685619,0.3312238482725752,0.03763768934080267,16.7000007629,0.0,1.1031554227742284,2.4378076352012945
1648465896314644026,106534,0,4,0.182221308351,0.0351606868207,0.0269118081778,0.566431701183,16.7000007629,0.06094358138829431,0.011759427030334446,0.009000604741739129,16.7000007629,0.07654482448418919,0.08698577095677813,0.18752366393138833
1648465896314665591,106535,0,5,0.181404620409,0.0234404578805,0.0413283631206,0.566431701183,16.7000007629,0.06067044160836119,0.007839618020234113,0.01382219502361204,16.7000007629,0.07654482448418919,0.08615836918495097,0.1875236650921932
1648465896411264233,106536,1,0,0.0133364023641,0.0439508594573,0.00939587969333,0.0,25.6000003815,0.004460335238829431,0.014699284099431437,0.003142434680043478,25.6000003815,0.0,0.01599556607067362,0.0468809154162335
1648465896411274669,106537,1,1,0.0336977690458,0.0146502861753,-0.0291144233197,0.0,25.6000003815,0.011270156871505016,0.0048997612626421405,-0.009737265324314381,25.6000003815,0.0,0.016674547437563397,0.04688091476198981
1648465896411285866,106538,1,2,0.261014997959,0.00879017170519,0.104476958513,0.242756426334,25.6000003815,0.08729598593946489,0.0029398567575886284,0.03494212659297659,25.6000003815,0.03280492247756756,0.12349016592442348,0.2812854975612334
1648465896411296904,106539,1,3,0.379260212183,0.0659262835979,0.172739177942,0.566431701183,25.6000003815,0.12684288032876254,0.02204892428023411,0.057772300315050165,25.6000003815,0.07654482448418919,0.18073291798150398,0.4219282012501687
1648465896411311393,106540,1,4,0.258551001549,0.224149376154,-0.246843799949,0.566431701183,25.6000003815,0.08647190687257525,0.07496634653979932,-0.08255645483244146,25.6000003815,0.07654482448418919,0.14343895729502476,0.42192822233820804
1648465896514679546,106541,2,0,0.0133139379323,0.0439508594573,0.00942768435925,0.0,23.0,0.004452822050936455,0.014699284099431437,0.0031530716920568557,23.0,0.0,0.015991378973384682,0.04688091533532723
1648465896514686849,106542,2,1,0.0336977690458,0.0146502861753,-0.0291144233197,0.0,23.0,0.011270156871505016,0.0048997612626421405,-0.009737265324314381,23.0,0.0,0.016674547437563397,0.04688091476198981
1648465896514692852,106543,2,2,0.316560357809,0.574291229248,0.027421426028,0.0,23.0,0.10587302936755852,0.1920706452334448,0.00917104549431438,23.0,0.0,0.24353506822492654,0.6563328505665019
1648465896514698042,106544,2,3,0.78256291151,-0.0996219441295,0.113317258656,0.0809188112617,23.0,0.2617267262575251,-0.033318375963043476,0.037898748714381265,23.0,0.010934974494824324,0.3716340574433103,0.7969755600596923
1648465896514777621,106545,2,4,0.465258866549,-0.0146502861753,0.0556917823851,0.242756426334,23.0,0.15560497208996654,-0.0048997612626421405,0.018626014175618728,23.0,0.03280492247756756,0.2201132034628305,0.46880914924167993
1648465896514780970,106546,2,5,0.309412568808,-0.0922968089581,0.0586376339197,0.323675245047,23.0,0.10348246448428093,-0.030868497979297655,0.01961124880257525,23.0,0.04373989797932432,0.14956639020508194,0.3281664376378457
1648465896514785902,106547,2,6,0.260355174541,-0.079111546278,0.0712606236339,0.404594063759,23.0,0.08707530921103677,-0.026458711129765885,0.023832984492943143,23.0,0.05467487348094594,0.12595349277826212,0.2812854957964649
1648465896514791433,106548,2,7,0.15514087677,0.061531201005,0.226421624422,0.404594063759,23.0,0.05188658085953177,0.020578996991638794,0.07572629579331103,23.0,0.05467487348094594,0.07620977406978278,0.2812854997115551
1648465896514803389,106549,2,8,0.276686638594,-0.0351606868207,-0.0364659689367,-0.647350490093,23.0,0.09253733732240801,-0.011759427030334446,-0.012195976233010032,23.0,-0.08747979595851352,0.13139483141099584,0.2812855075624098
1648465896514816605,106550,2,9,0.16805511713,0.0703213736415,0.21432197094,-0.647350490093,23.0,0.05620572479264213,0.023518854060702338,0.0716795889431438,23.0,-0.08747979595851352,0.08289332599951016,0.28128548702699124
1648465896709646494,106551,4,0,0.0133139379323,0.0439508594573,0.00942768435925,0.0,20.3999996185,0.004452822050936455,0.014699284099431437,0.0031530716920568557,20.3999996185,0.0,0.015991378973384682,0.04688091533532723
1648465896709658345,106552,4,1,0.0336836874485,0.0146502861753,-0.0291307158768,0.0,20.3999996185,0.011265447307190634,0.0048997612626421405,-0.009742714340066889,20.3999996185,0.0,0.016668181259305585,0.046880916081506664
1648465896709833385,106553,4,2,0.316800564528,0.574291229248,0.0244909897447,0.0,20.3999996185,0.10595336606287624,0.1920706452334448,0.00819096646979933,20.3999996185,0.0,0.2436049349264081,0.6563328593443372
1648465896709838342,106554,4,3,0.452838540077,0.0146502861753,0.120435237885,0.485512852669,20.3999996185,0.15145101674816053,0.0048997612626421405,0.04027934377424749,20.3999996185,0.06560984495527027,0.21424011904527615,0.4688091517755423
1648465896709843245,106555,4,4,1.15533089638,-0.131852582097,-0.79111546278,-0.647350490093,20.3999996185,0.3863982931036789,-0.04409785354414715,-0.26458711129765883,20.3999996185,-0.08747979595851352,0.5482261417645771,1.4064274808839146
1648465896709845874,106556,4,5,1.24993312359,0.439508587122,0.471739113331,-0.647350490093,20.3999996185,0.4180378339765886,0.14699283850234113,0.15777227870602006,20.3999996185,-0.08747979595851352,0.6091946781141896,1.4064275319573878
1648465896709849329,106557,4,6,0.324324756861,0.0703213736415,0.174725055695,-0.566431701183,20.3999996185,0.10846981834816052,0.023518854060702338,0.058436473476588625,20.3999996185,-0.07654482448418919,0.15519194399611888,0.37504731513689715
1648465896709940027,106558,4,7,0.304856359959,-0.0703213736415,-0.206828415394,-0.566431701183,20.3999996185,0.10195864881571906,-0.023518854060702338,-0.06917338307491638,20.3999996185,-0.07654482448418919,0.14609677831144283,0.3750473159651617
1648465896814690856,106559,5,0,0.0133139379323,0.0439508594573,0.00942768435925,0.0,35.5999984741,0.004452822050936455,0.014699284099431437,0.0031530716920568557,35.5999984741,0.0,0.015991378973384682,0.04688091533532723
1648465896814696096,106560,5,1,0.0336977690458,0.0146502861753,-0.0291144233197,0.0,35.5999984741,0.011270156871505016,0.0048997612626421405,-0.009737265324314381,35.5999984741,0.0,0.016674547437563397,0.04688091476198981
1648465896814698385,106561,5,2,0.316755473614,0.574291229248,0.025067390874,0.0,35.5999984741,0.1059382854896321,0.1920706452334448,0.008383742767224079,35.5999984741,0.0,0.24359181723809484,0.6563328577336642
1648465896814702088,106562,5,3,0.852431535721,-0.263705164194,0.288007229567,0.0,35.5999984741,0.28509415910401337,-0.0881957070882943,0.09632348814949832,35.5999984741,0.0,0.41271762969281206,0.9376183130661995
1648465896814822473,106563,5,4,0.724961578846,0.556710898876,0.208882257342,0.0,35.5999984741,0.2424620665036789,0.18619093607892975,0.06986028673645485,35.5999984741,0.0,0.39018299817446805,0.9376183195535902
1648465896814832575,106564,5,5,0.732653439045,-0.0703213736415,0.144623070955,0.0809188112617,35.5999984741,0.24503459499832775,-0.023518854060702338,0.04836892005183946,35.5999984741,0.010934974494824324,0.3473284353293258,0.7500946540189098
1648465896814838857,106565,5,6,0.452707797289,-0.0293005723506,0.118233419955,0.566431701183,35.5999984741,0.1514072900632107,-0.009799522525284281,0.03954294981772575,35.5999984741,0.07654482448418919,0.2143463683160832,0.4688091454532286
1648465896814939810,106566,5,7,0.379376858473,-0.0879017189145,-0.261014401913,-0.566431701183,35.5999984741,0.12688189246588627,-0.02939856819882943,-0.08729578659297658,35.5999984741,-0.07654482448418919,0.18183042947645114,0.46880916260133776
1648465896814945297,106567,5,8,0.413281679153,0.0732514336705,0.208840861917,-0.566431701183,35.5999984741,0.13822129737558528,0.02449880724765886,0.06984644211270902,35.5999984741,-0.07654482448418919,0.1970036691357242,0.46880915569615567
