%time,field.header.seq,field.header.frame_id,field.point_id,field.x,field.y,field.z,field.velocity,field.intensity,normalized_x,normalized_y,normalized_z,normalized_intensity,normalized_velocity,normalized_range,range
1648466180921936458,116216,0,0,0.0132584534585,0.0439508594573,0.00950555689633,0.0,28.6000003815,0.0044342653707357856,0.014699284099431437,0.0031791160188394648,28.6000003815,0.0,0.015981062911834463,0.04688091559532422
1648466180921945904,116217,0,1,0.0336624495685,0.0146502861753,-0.029155254364,0.0,28.6000003815,0.01125834433729097,0.0048997612626421405,-0.009750921191973244,28.6000003815,0.0,0.016658580217560913,0.04688091565871483
1648466180921948707,116218,0,2,0.626280665398,0.304725944996,-0.278489947319,0.0,28.6000003815,0.20945841652107022,0.10191503177123744,-0.0931404506083612,28.6000003815,0.0,0.3132608022143221,0.7500946767994066
1648466180921954064,116219,0,3,2.02258443832,-1.0987714529,0.443175911903,0.0,28.6000003815,0.6764496449230769,-0.3674820912709029,0.14821936852943143,28.6000003815,0.0,1.024798190688269,2.3440459476582927
1648466180922123459,116220,0,4,0.22972407937,0.0366257168353,0.0288254693151,0.323675245047,28.6000003815,0.07683079577591972,0.012249403623846153,0.009640625188996655,28.6000003815,0.04373989797932432,0.10934345087046624,0.23440457217667365
1648466180922129097,116221,0,5,0.194293305278,-0.0439508594573,0.123547323048,0.323675245047,28.6000003815,0.06498103855451505,-0.014699284099431437,0.041320174932441465,28.6000003815,0.04373989797932432,0.09306524429819404,0.2344045809177208
1648466181116971469,116222,2,0,0.0133139379323,0.0439508594573,0.00942768435925,0.0,24.7000007629,0.004452822050936455,0.014699284099431437,0.0031530716920568557,24.7000007629,0.0,0.015991378973384682,0.04688091533532723
1648466181116978301,116223,2,1,0.0336977690458,0.0146502861753,-0.0291144233197,0.0,24.7000007629,0.011270156871505016,0.0048997612626421405,-0.009737265324314381,24.7000007629,0.0,0.016674547437563397,0.04688091476198981
1648466181116984208,116224,2,2,0.691626906395,0.0439508594573,-0.119290053844,0.0,24.7000007629,0.23131334662040132,0.014699284099431437,-0.039896339078260866,24.7000007629,0.0,0.32745655834399723,0.7032137460563878
1648466181117091371,116225,2,3,0.604314863682,0.28568059206,0.218402713537,0.0,24.7000007629,0.20211199454247492,0.09554534851505017,0.07304438579832775,24.7000007629,0.0,0.30137589535119963,0.7032137658116991
1648466181117095777,116226,2,4,2.02896499634,-1.0987714529,0.412980884314,0.0,24.7000007629,0.6785836108160535,-0.3674820912709029,0.13812069709498326,24.7000007629,0.0,1.0276159404861052,2.34404583421266
1648466181117097283,116227,2,5,0.361744731665,0.0351606868207,0.0925471261144,-0.566431701183,24.7000007629,0.12098486008862874,0.011759427030334446,0.030952216091772573,24.7000007629,-0.07654482448418919,0.17150206081972283,0.37504732413006336
1648466181117098711,116228,2,6,0.248381197453,-0.093761831522,-0.264907509089,-0.566431701183,24.7000007629,0.08307063459966554,-0.03135847208093645,-0.08859782912675584,24.7000007629,-0.07654482448418919,0.12159282230803417,0.3750473152420701
1648466181117100239,116229,2,7,0.21916872263,0.0205104015768,-0.243387758732,-0.485512852669,24.7000007629,0.07330057613043478,0.006859666079197324,-0.08140058820468227,24.7000007629,-0.06560984495527027,0.10388938319590418,0.32816643133125867
1648466181117106485,116230,2,8,0.268022060394,0.123062409461,0.143920198083,-0.485512852669,24.7000007629,0.08963948508160535,0.041157996475250834,0.04813384551270902,24.7000007629,-0.06560984495527027,0.13328336447301836,0.3281664286554031
1648466181222121594,116231,3,0,0.0132478391752,0.0439508594573,0.00952034443617,0.0,28.7999992371,0.004430715443210702,0.014699284099431437,0.0031840616843377923,28.7999992371,0.0,0.015979093582340943,0.046880915605719706
1648466181222130109,116232,3,1,0.0337503887713,0.0146502861753,-0.0290534067899,0.0,28.7999992371,0.011287755441906355,0.0048997612626421405,-0.009716858458160534,28.7999992371,0.0,0.01669833842822278,0.04688091374249746
1648466181222132754,116233,3,2,0.72486770153,0.224149376154,0.243913769722,0.0,28.7999992371,0.24243066940802674,0.07496634653979932,0.08157651161270903,28.7999992371,0.0,0.35094901631543746,0.7969755671359124
1648466181222270167,116234,3,3,2.02508425713,-1.0987714529,0.43160867691,0.0,28.7999992371,0.6772857047257524,-0.3674820912709029,0.14435072806354513,28.7999992371,0.0,1.0259020124049638,2.3440458622151024
1648466181222273891,116235,3,4,0.503157138824,0.0805765762925,0.0792247876525,-0.647350490093,28.7999992371,0.16827997953979934,0.026948687723244144,0.02649658449916388,28.7999992371,-0.08747979595851352,0.2395047698853522,0.5156900793840801
1648466181222275649,116236,3,5,0.258003890514,-0.128922522068,-0.427491784096,-0.647350490093,28.7999992371,0.08628892659331104,-0.04311790035719063,-0.1429738408347826,28.7999992371,-0.08747979595851352,0.12942453799981,0.5156900713474278
1648466181417000066,116237,5,0,0.0133139379323,0.0439508594573,0.00942768435925,0.0,24.1000003815,0.004452822050936455,0.014699284099431437,0.0031530716920568557,24.1000003815,0.0,0.015991378973384682,0.04688091533532723
1648466181417002896,116238,5,1,0.0336977690458,0.0146502861753,-0.0291144233197,0.0,24.1000003815,0.011270156871505016,0.0048997612626421405,-0.009737265324314381,24.1000003815,0.0,0.016674547437563397,0.04688091476198981
1648466181417005737,116239,5,2,0.701369404793,0.298865824938,0.232228755951,0.0,24.1000003815,0.23457170728862875,0.09995512539732442,0.07766848025117057,24.1000003815,0.0,0.34646615825185456,0.7969755444090536
1648466181417123751,116240,5,3,2.01008749008,-1.0987714529,0.496790647507,0.0,24.1000003815,0.6722700635719063,-0.3674820912709029,0.16615071822976588,24.1000003815,0.0,1.0192826713698149,2.344045940448803
1648466181417131389,116241,5,4,0.529928684235,-0.0703213736415,0.175261572003,0.404594063759,24.1000003815,0.17723367365719062,-0.023518854060702338,0.058615910368896317,24.1000003815,0.05467487348094594,0.25174726741789216,0.5625709951524595
1648466181522047732,116242,6,0,0.0132584534585,0.0439508594573,0.00950555689633,0.0,42.7999992371,0.0044342653707357856,0.014699284099431437,0.0031791160188394648,42.7999992371,0.0,0.015981062911834463,0.04688091559532422
1648466181522054962,116243,6,1,0.0337118916214,0.0146502861753,-0.0290980711579,0.0,42.7999992371,0.011274880140936454,0.0048997612626421405,-0.009731796373879597,42.7999992371,0.0,0.016680932372498097,0.04688091580612966
1648466181522058501,116244,6,2,0.74889421463,-0.0,0.0424196198583,0.0,42.7999992371,0.25046629251839464,-0.0,0.014187163832207356,42.7999992371,0.0,0.35421282779682056,0.750094639932327
1648466181522061460,116245,6,3,0.580828726292,0.234404578805,0.412715911865,0.0,42.7999992371,0.19425709909431438,0.07839618020234114,0.13803207754682273,42.7999992371,0.0,0.28568794543591525,0.750094620536166
1648466181522063438,116246,6,4,2.03532767296,-1.0987714529,0.380386650562,0.0,42.7999992371,0.6807115963076922,-0.3674820912709029,0.12721961557257525,42.7999992371,0.0,1.03042692225134,2.3440459564501976
1648466181522065159,116247,6,5,0.574946165085,-0.0952268540859,0.178326621652,0.323675245047,42.7999992371,0.19228968731939797,-0.03184844618257525,0.059641010585953176,42.7999992371,0.04373989797932432,0.27379731777909744,0.6094519098951622
