%time,field.header.seq,field.header.frame_id,field.point_id,field.x,field.y,field.z,field.velocity,field.intensity,normalized_x,normalized_y,normalized_z,normalized_intensity,normalized_velocity,normalized_range,range
1648465540300027281,98457,0,0,0.0133139379323,0.0439508594573,0.00942768435925,0.0,20.6000003815,0.004452822050936455,0.014699284099431437,0.0031530716920568557,20.6000003815,0.0,0.015991378973384682,0.04688091533532723
1648465540300031407,98458,0,1,0.033736359328,0.0146502861753,-0.029069699347,0.0,20.6000003815,0.011283063320401339,0.0048997612626421405,-0.009722307473913042,20.6000003815,0.0,0.016691994974096437,0.046880915582474404
1648465540300038628,98459,0,2,2.09836149216,-1.02552008629,0.199346527457,0.0,20.6000003815,0.7017931411906354,-0.342983306451505,0.06667107941705684,20.6000003815,0.0,1.0500784611393785,2.3440459545779717
1648465540300042581,98460,0,3,0.395294874907,-0.0483459457755,-0.327629178762,-0.566431701183,20.6000003815,0.13220564378160535,-0.016169212633946488,-0.10957497617458192,20.6000003815,-0.07654482448418919,0.18766488199079556,0.5156900691083074
1648465540300046481,98461,0,4,0.469984829426,0.145037829876,0.154966294765,-0.566431701183,20.6000003815,0.15718556168093645,0.048507635410033445,0.051828192229096993,20.6000003815,-0.07654482448418919,0.2275249267552364,0.5156900857093519
1648465540600010793,98462,3,0,0.0132584534585,0.0439508594573,0.00950555689633,0.0,31.2999992371,0.0044342653707357856,0.014699284099431437,0.0031791160188394648,31.2999992371,0.0,0.015981062911834463,0.04688091559532422
1648465540600017462,98463,3,1,0.033736359328,0.0146502861753,-0.029069699347,0.0,31.2999992371,0.011283063320401339,0.0048997612626421405,-0.009722307473913042,31.2999992371,0.0,0.016691994974096437,0.046880915582474404
1648465540600019470,98464,3,2,0.746661186218,-0.0703213736415,-0.0139263961464,0.0,31.2999992371,0.24971946027357858,-0.023518854060702338,-0.004657657574046822,31.2999992371,0.0,0.35393891305560543,0.7500946387656193
1648465540600029106,98465,3,3,0.749591886997,-0.0234404578805,-0.0143025554717,0.0,31.2999992371,0.25069962775819393,-0.007839618020234113,-0.004783463368461538,31.2999992371,0.0,0.3546294775211124,0.7500946708318836
1648465540600159438,98466,3,4,0.852238118649,-0.111342176795,0.233893871307,0.0,31.2999992371,0.2850294711200669,-0.037238186219063545,0.07822537501906354,31.2999992371,0.0,0.4048089442278366,0.8907374665112114
1648465540600162533,98467,3,5,2.17187476158,-0.9713139534,0.236726373434,0.0,31.2999992371,0.7263795189230768,-0.3248541650167224,0.07917270014515049,31.2999992371,0.0,1.077397159616895,2.390926630396034
1648465540600241904,98468,3,6,0.593475222588,0.114272229373,0.0784897878766,0.242756426334,31.2999992371,0.19848669651772574,0.03821813691404682,0.026250765176120402,31.2999992371,0.03280492247756756,0.2832923637838132,0.6094519087119716
