%time,field.header.seq,field.header.frame_id,field.point_id,field.x,field.y,field.z,field.velocity,field.intensity,normalized_x,normalized_y,normalized_z,normalized_intensity,normalized_velocity,normalized_range,range
1648465531300493446,98268,0,0,0.0132963722572,0.0439508594573,0.00945244263858,0.0,27.6000003815,0.004446947243210702,0.014699284099431437,0.003161352053036789,27.6000003815,0.0,0.01598810910031566,0.04688091545685749
1648465531300497779,98269,0,1,0.033736359328,0.0146502861753,-0.029069699347,0.0,27.6000003815,0.011283063320401339,0.0048997612626421405,-0.009722307473913042,27.6000003815,0.0,0.016691994974096437,0.046880915582474404
1648465531300523530,98270,0,2,2.05945396423,-1.0987714529,0.21424677968,0.0,27.6000003815,0.6887805900434781,-0.3674820912709029,0.07165444136454849,27.6000003815,0.0,1.0410958120394682,2.344045865398945
1648465531300586961,98271,0,3,0.364023149014,0.046880915761,0.0771350860596,0.242756426334,27.6000003815,0.12174687257993311,0.015679236040468225,0.025797687645351168,27.6000003815,0.03280492247756756,0.1728885201764468,0.3750473233901033
1648465531300609273,98272,0,4,0.244600057602,-0.0351606868207,0.134372860193,0.566431701183,27.6000003815,0.08180603933177256,-0.011759427030334446,0.044940755917391294,27.6000003815,0.07654482448418919,0.1162873177366509,0.28128549133052094
1648465531400474489,98273,1,0,0.0132299559191,0.0439508594573,0.00954518001527,0.0,37.9000015259,0.004424734421103679,0.014699284099431437,0.0031923678980836116,37.9000015259,0.0,0.01597577861734436,0.04688091554332718
1648465531400481473,98274,1,1,0.0336483307183,0.0146502861753,-0.0291715469211,0.0,37.9000015259,0.011253622313812708,0.0048997612626421405,-0.009756370207725752,37.9000015259,0.0,0.01665219777671329,0.04688091503923762
1648465531400505720,98275,1,2,0.699930608273,-0.0659262910485,-0.0161369498819,0.0,37.9000015259,0.23409050443913043,-0.022048926772073575,-0.0053969732046488285,37.9000015259,0.0,0.3317874073995777,0.7032137181542424
1648465531400629514,98276,1,3,2.06441402435,-1.0987714529,0.159520700574,0.0,37.9000015259,0.6904394730267558,-0.3674820912709029,0.053351404874247485,37.9000015259,0.0,1.043291147873768,2.344045823688726
1648465531400642218,98277,1,4,0.419287919998,-1.14711737633,0.332461088896,0.161837622523,37.9000015259,0.1402300735779264,-0.3836512964314381,0.11119099963076923,37.9000015259,0.021869948989594594,0.43187644567036126,1.2657847410063001
1648465531400647887,98278,1,5,0.380427718163,-1.02552008629,0.420976400375,0.242756426334,37.9000015259,0.12723335055618729,-0.342983306451505,0.1407947827341137,37.9000015259,0.03280492247756756,0.38731666565216927,1.1720229630018553
1648465531400652128,98279,1,6,0.496244996786,0.329631447792,-1.00931751728,0.242756426334,37.9000015259,0.16596822634983277,0.11024463136856186,-0.33756438705016717,37.9000015259,0.03280492247756756,0.25931599075454015,1.172022968587583
1648465531400678458,98280,1,7,0.454514086246,0.0879017189145,0.0739747211337,0.323675245047,37.9000015259,0.15201140008227423,0.02939856819882943,0.024740709409264212,37.9000015259,0.04373989797932432,0.21697743505279002,0.4688091574947835
1648465531400773104,98281,1,8,0.274263113737,0.0512760058045,0.172753334045,-0.566431701183,37.9000015259,0.09172679389197325,0.01714916582090301,0.05777703479765886,37.9000015259,-0.07654482448418919,0.13084992672429704,0.3281664192930792
1648465531400776972,98282,1,9,0.292380362749,-0.071786403656,-0.130589589477,-0.566431701183,37.9000015259,0.0977860744979933,-0.0240088306541806,-0.043675447985618725,37.9000015259,-0.07654482448418919,0.1403590277853025,0.3281664290430549
1648465531504984415,98283,2,0,0.0133139379323,0.0439508594573,0.00942768435925,0.0,28.7000007629,0.004452822050936455,0.014699284099431437,0.0031530716920568557,28.7000007629,0.0,0.015991378973384682,0.04688091533532723
1648465531505012041,98284,2,1,0.033736359328,0.0146502861753,-0.029069699347,0.0,28.7000007629,0.011283063320401339,0.0048997612626421405,-0.009722307473913042,28.7000007629,0.0,0.016691994974096437,0.046880915582474404
1648465531505015286,98285,2,2,0.749412059784,0.0234404578805,-0.0217734705657,0.0,28.7000007629,0.25063948487759197,0.007839618020234113,-0.0072820971791638794,28.7000007629,0.0,0.35454444343426467,0.7500946436522665
1648465531505056660,98286,2,3,2.06341552734,-1.0987714529,0.171956330538,0.0,28.7000007629,0.6901055275384615,-0.3674820912709029,0.05751047844080267,28.7000007629,0.0,1.042849157684424,2.3440459303921246
1648465531505253478,98287,2,4,0.357819914818,-1.10463154316,0.370783776045,0.161837622523,28.7000007629,0.11967221231371238,-0.3694419876789297,0.12400795185451505,28.7000007629,0.021869948989594594,0.4063622264190841,1.2189038297431805
1648465531505258341,98288,2,5,0.411500573158,0.131852582097,0.181835696101,-0.566431701183,28.7000007629,0.13762560975183946,0.04409785354414715,0.06081461408060201,28.7000007629,-0.07654482448418919,0.19956512121694076,0.46880917812212664
1648465531505259531,98289,2,6,0.371147125959,-0.0439508594573,-0.283019691706,-0.566431701183,28.7000007629,0.12412947356488294,-0.014699284099431437,-0.09465541528628761,28.7000007629,-0.07654482448418919,0.17615993122167636,0.4688091435200688
1648465531505267638,98290,2,7,0.409400910139,0.0732514336705,0.216349631548,-0.404594063759,28.7000007629,0.1369233813173913,0.02449880724765886,0.07235773630367892,28.7000007629,-0.05467487348094594,0.19518252037345304,0.4688091731487136
1648465531505271428,98291,2,8,0.357759594917,-0.117202289402,-0.279380947351,-0.404594063759,28.7000007629,0.11965203843377925,-0.03919809010100334,-0.09343844393010033,28.7000007629,-0.05467487348094594,0.17369430292984153,0.4688091489497494
1648465531505272592,98292,2,9,0.36105799675,0.0527410283685,0.211846485734,-0.323675245047,28.7000007629,0.12075518285953177,0.017639139922575247,0.07085166746956521,28.7000007629,-0.04373989797932432,0.1716821703965968,0.4219282244746561
1648465531505273637,98293,2,10,0.342865169048,-0.105482056737,-0.222127094865,-0.323675245047,28.7000007629,0.11467062509966555,-0.035278279845150494,-0.0742899982826087,28.7000007629,-0.04373989797932432,0.1659616267404271,0.42192823407890834
1648465531700020625,98294,4,0,0.01322278101,0.0439508594573,0.00955511722714,0.0,32.9000015259,0.004422334785953177,0.014699284099431437,0.0031956913803143808,32.9000015259,0.0,0.015974449691739022,0.04688091562563748
1648465531700025221,98295,4,1,0.0336836874485,0.0146502861753,-0.0291307158768,0.0,32.9000015259,0.011265447307190634,0.0048997612626421405,-0.009742714340066889,32.9000015259,0.0,0.016668181259305585,0.046880916081506664
1648465531700031164,98296,4,2,0.856319248676,-0.111342176795,0.218479976058,0.0,32.9000015259,0.2863943975505016,-0.037238186219063545,0.07307022610635451,32.9000015259,0.0,0.40673109594609946,0.8907374674531112
1648465531700107165,98297,4,3,2.09661221504,-1.02552008629,0.216972962022,0.0,32.9000015259,0.7012080986755852,-0.342983306451505,0.0725662080341137,32.9000015259,0.0,1.0492964994704144,2.3440459666755222
1648465531700117178,98298,4,4,0.572015285492,0.0380907431245,0.206831395626,0.566431701183,32.9000015259,0.1913094600307692,0.01273937897140468,0.06917437980802675,32.9000015259,0.07654482448418919,0.2708521935873993,0.6094518994677676
