%time,field.header.seq,field.header.frame_id,field.point_id,field.x,field.y,field.z,field.velocity,field.intensity,normalized_x,normalized_y,normalized_z,normalized_intensity,normalized_velocity,normalized_range,range
1648465485399832249,97269,0,0,0.0133347688243,0.0439508594573,0.00939819868654,0.0,12.6999998093,0.004459788904448161,0.014699284099431437,0.003143210263056856,12.6999998093,0.0,0.01599526139768512,0.04688091557536544
1648465485399860283,97270,0,1,0.0336994826794,0.0146502861753,-0.0291124396026,0.0,12.6999998093,0.011270729993110367,0.0048997612626421405,-0.009736601873779263,12.6999998093,0.0,0.01667532217338195,0.046880914640100614
1648465485399881146,97271,0,2,2.09527587891,-1.02552008629,0.229518637061,0.0,12.6999998093,0.7007611635150501,-0.342983306451505,0.07676208597357859,12.6999998093,0.0,1.0486991775940042,2.344045916974465
1648465485399890210,97272,0,3,0.23714902997,0.096691891551,0.116329446435,-0.647350490093,12.6999998093,0.07931405684615385,0.032338425267892976,0.03890616937625418,12.6999998093,-0.08747979595851352,0.11673565426037132,0.28128548561078626
1648465485399893880,97273,0,4,0.214112445712,-0.00879017170519,-0.182208999991,-0.647350490093,12.6999998093,0.0716095136160535,-0.0029398567575886284,-0.060939464879933104,12.6999998093,-0.08747979595851352,0.1013138077381886,0.28128548879226084
1648465485699655782,97274,3,0,0.0132397357374,0.0439508594573,0.00953161064535,0.0,33.0999984741,0.004428005263344481,0.014699284099431437,0.0031878296472742473,33.0999984741,0.0,0.015977591003033302,0.046880915636600705
1648465485699734646,97275,3,1,0.0336994826794,0.0146502861753,-0.0291124396026,0.0,33.0999984741,0.011270729993110367,0.0048997612626421405,-0.009736601873779263,33.0999984741,0.0,0.01667532217338195,0.046880914640100614
1648465485699756071,97276,3,2,0.785536408424,-0.0498109720647,0.124985635281,0.0,33.0999984741,0.2627212068307692,-0.016659187981505015,0.041801215813043475,33.0999984741,0.0,0.3719171864561179,0.796975527180291
1648465485699761678,97277,3,3,0.879629015923,-0.0278355441988,0.137445017695,0.0,33.0999984741,0.29419030632876253,-0.009309546554782609,0.04596823334280936,33.0999984741,0.0,0.4161520639534039,0.8907374226244722
1648465485699763894,97278,3,4,0.464809030294,0.0483459457755,0.21806307137,0.566431701183,33.0999984741,0.15545452518193978,0.016169212633946488,0.07293079310033444,33.0999984741,0.07654482448418919,0.2204397020418202,0.5156900893085826
1648465485699774682,97279,3,5,0.461972177029,0.0439508594573,0.0665736123919,-0.566431701183,33.0999984741,0.1545057448257525,0.014699284099431437,0.02226542220464883,33.0999984741,-0.07654482448418919,0.21899798930893608,0.46880914694879405
1648465485699808561,97280,3,6,0.351854860783,-0.117202289402,-0.286781817675,-0.566431701183,33.0999984741,0.11767721096421403,-0.03919809010100334,-0.09591365139632106,33.0999984741,-0.07654482448418919,0.17097468300365012,0.46880916228959457
1648465485900347806,97281,5,0,0.0132690099999,0.0439508594573,0.00949081405997,0.0,24.2999992371,0.004437795986588628,0.014699284099431437,0.0031741853043377923,24.2999992371,0.0,0.015983022851543512,0.04688091535938379
1648465485900353588,97282,5,1,0.0336855240166,0.0146502861753,-0.0291285905987,0.0,24.2999992371,0.011266061544013377,0.0048997612626421405,-0.009742003544715718,24.2999992371,0.0,0.016669011544116305,0.04688091513140284
1648465485900358419,97283,5,2,0.648479878902,-0.082041606307,-0.0592945106328,0.0,24.2999992371,0.21688290264280935,-0.027438664316722407,-0.0198309400109699,24.2999992371,0.0,0.3079436104500732,0.6563328557198463
1648465485900365531,97284,5,3,0.869429051876,-0.111342176795,0.15845900774,0.0,24.2999992371,0.290778947115719,-0.037238186219063545,0.05299632365886287,24.2999992371,0.0,0.4129061330185565,0.8907374549851346
1648465485900511696,97285,5,4,2.17181992531,-0.9713139534,0.237227410078,0.0,24.2999992371,0.7263611790334448,-0.3248541650167224,0.07934027092909698,24.2999992371,0.0,1.0773724301941385,2.3909264790317972
1648465485900515151,97286,5,5,0.990270853043,-0.0,-0.998700141907,-0.404594063759,24.2999992371,0.33119426523177253,-0.0,-0.3340134253869565,24.2999992371,-0.05467487348094594,0.46837942167096475,1.4064275082035238
1648465485900561749,97287,5,6,1.24174320698,0.527410328388,0.397429823875,-0.404594063759,24.2999992371,0.41529873143143814,0.1763914141765886,0.13291967353678927,24.2999992371,-0.05467487348094594,0.6132373143020086,1.4064274995450803
1648465486004798804,97288,6,0,0.0132618062198,0.0439508594573,0.00950087886304,0.0,27.2000007629,0.004435386695585284,0.014699284099431437,0.003177551459210702,27.2000007629,0.0,0.01598168524638587,0.04688091563117153
1648465486004801970,97289,6,1,0.0336855240166,0.0146502861753,-0.0291285905987,0.0,27.2000007629,0.011266061544013377,0.0048997612626421405,-0.009742003544715718,27.2000007629,0.0,0.016669011544116305,0.04688091513140284
1648465486004804179,97290,6,2,0.858102440834,-0.083506628871,0.223830267787,0.0,27.2000007629,0.2869907828876254,-0.027928638418394644,0.07485962133344481,27.2000007629,0.0,0.406826041163554,0.8907374163064373
1648465486004808583,97291,6,3,2.17253017426,-0.9713139534,0.230633273721,0.0,27.2000007629,0.7265987204882942,-0.3248541650167224,0.0771348741541806,27.2000007629,0.0,1.0776927343910065,2.3909265695723465
1648465486004814420,97292,6,4,0.747641086578,0.046880915761,-0.0384311936796,0.0809188112617,27.2000007629,0.2500471861464883,0.015679236040468225,-0.012853242033311035,27.2000007629,0.010934974494824324,0.3539675536576281,0.7500946415284949
1648465486004952331,97293,6,5,0.592826366425,-1.1485824585,0.228924632072,0.161837622523,27.2000007629,0.19826968776755852,-0.38414129046822737,0.07656342209765886,27.2000007629,0.021869948989594594,0.4755904427314381,1.3126657045386205
1648465486005086336,97294,6,6,0.329521119595,-0.69735366106,-1.06216990948,0.161837622523,27.2000007629,0.11020773230602007,-0.23322864918394645,-0.3552407724013377,27.2000007629,0.021869948989594594,0.2805121946016592,1.312665689906489
1648465486005093850,97295,6,7,0.614874303341,0.0205104015768,0.228651851416,0.566431701183,27.2000007629,0.20564357971270902,0.006859666079197324,0.0764721911090301,27.2000007629,0.07654482448418919,0.29090482768911335,0.6563328078329517
1648465486005097747,97296,6,8,0.595341920853,0.175803437829,0.330409914255,-0.647350490093,27.2000007629,0.19911101031872908,0.05879713639765886,0.11050498804515049,27.2000007629,-0.08747979595851352,0.2876586381613717,0.7032137391401218
1648465486005100362,97297,6,9,0.582583904266,-0.0879017189145,-0.383899599314,-0.647350490093,27.2000007629,0.19484411513913044,-0.02939856819882943,-0.12839451482073577,27.2000007629,-0.08747979595851352,0.277115019839854,0.7032137797650082
