%time,field.header.seq,field.header.frame_id,field.point_id,field.x,field.y,field.z,field.velocity,field.intensity,normalized_x,normalized_y,normalized_z,normalized_intensity,normalized_velocity,normalized_range,range
1648465876608900699,105960,0,0,0.013252383098,0.0439508594573,0.00951401796192,0.0,15.3000001907,0.004432235149832775,0.014699284099431437,0.003181945806662207,15.3000001907,0.0,0.015979936479305047,0.046880915547706924
1648465876608905339,105961,0,1,0.0336977690458,0.0146502861753,-0.0291144233197,0.0,15.3000001907,0.011270156871505016,0.0048997612626421405,-0.009737265324314381,15.3000001907,0.0,0.016674547437563397,0.04688091476198981
1648465876608948463,105962,0,2,0.31648978591,0.574291229248,0.0282245706767,0.0,15.3000001907,0.1058494267257525,0.1920706452334448,0.009439655744715718,15.3000001907,0.0,0.24351454789546498,0.6563328629334513
1648465876608953535,105963,0,3,0.232729256153,0.00732514308766,0.0269989185035,-0.404594063759,15.3000001907,0.07783587162307691,0.0024498806313244144,0.00902973862993311,15.3000001907,-0.05467487348094594,0.1101038043745808,0.23440457758145855
1648465876608955827,105964,0,4,0.321922898293,-0.722259104252,0.0993853732944,-0.161837622523,15.3000001907,0.10766652116822742,-0.24155822884682274,0.03323925528240802,15.3000001907,-0.021869948989594594,0.28554253183116296,0.7969755445088224
1648465876908990353,105965,3,0,0.0133139379323,0.0439508594573,0.00942768435925,0.0,13.8999996185,0.004452822050936455,0.014699284099431437,0.0031530716920568557,13.8999996185,0.0,0.015991378973384682,0.04688091533532723
1648465876908996341,105966,3,1,0.0336091145873,0.0146502861753,-0.0292167179286,0.0,13.8999996185,0.011240506550936455,0.0048997612626421405,-0.009771477568093644,13.8999996185,0.0,0.016634471301312202,0.046880913759010975
1648465876908998374,105967,3,2,0.316744536161,0.574291229248,0.0252051725984,0.0,13.8999996185,0.10593462747859532,0.1920706452334448,0.008429823611505016,13.8999996185,0.0,0.243588635528116,0.6563328560301862
1648465876909004118,105968,3,3,0.327496826649,-0.0102552007884,0.0182721298188,0.161837622523,13.8999996185,0.10953071125384614,-0.003429833039598662,0.006111080206956522,13.8999996185,0.021869948989594594,0.15493778483709633,0.3281664384675719
1648465876909108202,105969,3,4,0.21634209156,-0.0,0.179771050811,0.404594063759,13.8999996185,0.07235521456856187,-0.0,0.06012409726120401,13.8999996185,0.05467487348094594,0.10232572575127553,0.28128549783137874
1648465876909110233,105970,3,5,0.226064383984,0.131852582097,-0.103108294308,0.404594063759,13.8999996185,0.07560681738595317,0.04409785354414715,-0.03448437936722408,13.8999996185,0.05467487348094594,0.11566072089377098,0.28128549459013463
1648465876909113024,105971,3,6,0.130955919623,-0.0439508594573,0.189378917217,0.566431701183,13.8999996185,0.04379796642909698,-0.014699284099431437,0.06333743050735786,13.8999996185,0.07654482448418919,0.06365997706317848,0.23440457593149566
1648465876909361623,105972,3,7,0.212739139795,0.0439508594573,-0.0880675241351,0.566431701183,13.8999996185,0.07115021397826087,0.014699284099431437,-0.029454021449866218,13.8999996185,0.07654482448418919,0.10168960050733021,0.23440458283710733
1648465877014125477,105973,4,0,0.0133139379323,0.0439508594573,0.00942768435925,0.0,23.2000007629,0.004452822050936455,0.014699284099431437,0.0031530716920568557,23.2000007629,0.0,0.015991378973384682,0.04688091533532723
1648465877014129399,105974,4,1,0.0336977690458,0.0146502861753,-0.0291144233197,0.0,23.2000007629,0.011270156871505016,0.0048997612626421405,-0.009737265324314381,23.2000007629,0.0,0.016674547437563397,0.04688091476198981
1648465877014134721,105975,4,2,0.316639780998,0.574291229248,0.026488872245,0.0,23.2000007629,0.10589959230702341,0.1920706452334448,0.008859154596989965,23.2000007629,0.0,0.24355816566475316,0.6563328631528763
1648465877014137862,105976,4,3,0.285190790892,-0.11280720681,0.116764508188,0.485512852669,23.2000007629,0.0953815354153846,-0.03772816281270903,0.039051674979264206,23.2000007629,0.06560984495527027,0.14006673004541378,0.32816642651292666
1648465877209262641,105977,6,0,0.0133034354076,0.0439508594573,0.00944249983877,0.0,33.5999984741,0.004449309500869565,0.014699284099431437,0.0031580267019297656,33.5999984741,0.0,0.01598942347631253,0.046880915561502146
1648465877209267544,105978,6,1,0.0337503887713,0.0146502861753,-0.0290534067899,0.0,33.5999984741,0.011287755441906355,0.0048997612626421405,-0.009716858458160534,33.5999984741,0.0,0.01669833842822278,0.04688091374249746
1648465877209414982,105979,6,2,0.316630423069,0.574291229248,0.0266002099961,0.0,33.5999984741,0.10589646256488294,0.1920706452334448,0.008896391303043477,33.5999984741,0.0,0.2435554440531008,0.6563328515135209
1648465877209421637,105980,6,3,0.764575600624,-0.278355449438,0.362429976463,0.0,33.5999984741,0.2557109032187291,-0.09309546803946488,0.12121403895083611,33.5999984741,0.0,0.37342053802564673,0.8907373873035487
1648465877209423629,105981,6,4,0.420465797186,0.0278355441988,-0.784759104252,0.0,33.5999984741,0.1406240124367893,0.009309546554782609,-0.26246123888026757,33.5999984741,0.0,0.1990901640079193,0.8907374224935782
1648465877209431468,105982,6,5,0.377155482769,-0.0659262835979,0.177287563682,0.566431701183,33.5999984741,0.12613895744782608,-0.02204892428023411,0.05929349955919732,33.5999984741,0.07654482448418919,0.17974489765766496,0.4219282086896388
1648465877209433372,105983,6,6,0.313599079847,0.0922968015075,-0.266758978367,0.566431701183,33.5999984741,0.10488263540033443,0.03086849548745819,-0.08921704962107023,33.5999984741,0.07654482448418919,0.15150445020097,0.4219282344058116
1648465877209444595,105984,6,7,1.40125596523,-0.43511351943,0.490493953228,0.566431701183,33.5999984741,0.4686474800100334,-0.1455229161973244,0.16404480041070232,33.5999984741,0.07654482448418919,0.6785557016031056,1.54707025471911
1648465877209446459,105985,6,8,1.41425740719,-0.338421612978,0.527989804745,0.566431701183,33.5999984741,0.4729957883578595,-0.11318448594581938,0.17658521897826085,33.5999984741,0.07654482448418919,0.6784252055071107,1.5470702750156748
