%time,field.header.seq,field.header.frame_id,field.point_id,field.x,field.y,field.z,field.velocity,field.intensity,normalized_x,normalized_y,normalized_z,normalized_intensity,normalized_velocity,normalized_range,range
1648466161321397459,115442,0,0,0.0132584534585,0.0439508594573,0.00950555689633,0.0,33.7999992371,0.0044342653707357856,0.014699284099431437,0.0031791160188394648,33.7999992371,0.0,0.015981062911834463,0.04688091559532422
1648466161321403354,115443,0,1,0.0336394272745,0.0146502861753,-0.0291818138212,0.0,33.7999992371,0.01125064457341137,0.0048997612626421405,-0.009759803953578595,33.7999992371,0.0,0.016648173084916854,0.04688091520298788
1648466161321415599,115444,0,2,0.706364154816,0.224149376154,0.293217986822,0.0,33.7999992371,0.23624219224615384,0.07496634653979932,0.09806621632842809,33.7999992371,0.0,0.3424042930631313,0.7969755641392626
1648466161321427477,115445,0,3,0.569853425026,0.423393249512,0.362181186676,0.0,33.7999992371,0.19058642977458193,0.14160309348227423,0.12113083166421404,33.7999992371,0.0,0.30446315132080104,0.7969755214109334
1648466161321435732,115446,0,4,2.00338840485,-1.17202293873,0.327640801668,0.0,33.7999992371,0.6700295668394648,-0.3919809159632107,0.10957886343411372,33.7999992371,0.0,1.0254405294104185,2.344045939079348
1648466161321439295,115447,0,5,0.367811024189,-0.0586011447012,0.0440618917346,0.242756426334,33.7999992371,0.12301372046454849,-0.019599045050568562,0.014736418640334446,33.7999992371,0.03280492247756756,0.17506819646056324,0.37504732231877586
1648466161321448609,115448,0,6,0.0788713097572,0.082041606307,-0.357363939285,0.242756426334,33.7999992371,0.026378364467290968,0.027438664316722407,-0.1195197121354515,33.7999992371,0.03280492247756756,0.04630892487873426,0.37504732204022223
1648466161321459112,115449,0,7,0.215923681855,-0.0293005723506,0.0863941386342,0.404594063759,33.7999992371,0.07221527821237457,-0.009799522525284281,0.028894360747224075,33.7999992371,0.05467487348094594,0.10259689788831278,0.23440457998135908
1648466161321465008,115450,0,8,0.27046251297,0.0102552007884,0.185574948788,0.404594063759,33.7999992371,0.09045568995652174,0.003429833039598662,0.062065200263545145,33.7999992371,0.05467487348094594,0.12796963485804086,0.32816642375923627
1648466161321469581,115451,0,9,0.13009262085,-0.0615312047303,0.294928848743,0.404594063759,33.7999992371,0.043509237742474914,-0.020578998237558526,0.09863841095083611,33.7999992371,0.05467487348094594,0.06488145117307291,0.3281664287767037
1648466161321528589,115452,0,10,0.19591358304,-0.0732514336705,0.105818711221,0.566431701183,33.7999992371,0.06552293747157191,-0.02449880724765886,0.0353908733180602,33.7999992371,0.07654482448418919,0.09584728596243604,0.23440457375833781
1648466161321531900,115453,0,11,0.152110770345,0.0146502861753,-0.177744731307,0.566431701183,33.7999992371,0.050873167339464884,0.0048997612626421405,-0.059446398430434776,33.7999992371,0.07654482448418919,0.07211217630004853,0.23440457940783738
1648466161418778635,115454,1,0,0.0133139379323,0.0439508594573,0.00942768435925,0.0,23.3999996185,0.004452822050936455,0.014699284099431437,0.0031530716920568557,23.3999996185,0.0,0.015991378973384682,0.04688091533532723
1648466161418784130,115455,1,1,0.0336624495685,0.0146502861753,-0.029155254364,0.0,23.3999996185,0.01125834433729097,0.0048997612626421405,-0.009750921191973244,23.3999996185,0.0,0.016658580217560913,0.04688091565871483
1648466161418786475,115456,1,2,0.685384452343,0.398487776518,0.0813983902335,0.0,23.3999996185,0.22922556934548496,0.1332735038521739,0.02722354188411371,23.3999996185,0.0,0.35050042812036464,0.7969755664262104
1648466161418789809,115457,1,3,0.682633578777,0.0249054860324,-0.410561919212,0.0,23.3999996185,0.22830554474147158,0.00832959399076923,-0.13731167866622074,23.3999996185,0.0,0.32298022486748507,0.7969755175759451
1648466161418803112,115458,1,4,2.0216050148,-1.0987714529,0.447622537613,0.0,23.3999996185,0.6761220785284281,-0.3674820912709029,0.1497065343187291,23.3999996185,0.0,1.0243657635591108,2.3440459632335684
1648466161418813660,115459,1,5,0.5519734025,-0.0879017189145,0.0639124065638,0.323675245047,23.3999996185,0.1846064891304348,-0.02939856819882943,0.02137538681063545,23.3999996185,0.04373989797932432,0.26272302424848853,0.5625710132670606
1648466161418872146,115460,1,6,0.39988180995,-0.0527410283685,0.123840034008,0.485512852669,23.3999996185,0.13373973576923076,-0.017639139922575247,0.04141807157458194,23.3999996185,0.06560984495527027,0.18995729284356394,0.42192823089402
1648466161418876502,115461,1,7,0.246585249901,-0.00879017170519,0.135055437684,0.566431701183,23.3999996185,0.0824699832444816,-0.0029398567575886284,0.04516904270367893,23.3999996185,0.07654482448418919,0.11666721489109651,0.2812854845799231
1648466161518890576,115462,2,0,0.0133139379323,0.0439508594573,0.00942768435925,0.0,32.9000015259,0.004452822050936455,0.014699284099431437,0.0031530716920568557,32.9000015259,0.0,0.015991378973384682,0.04688091533532723
1648466161518907201,115463,2,1,0.033727504313,0.0146502861753,-0.0290799699724,0.0,32.9000015259,0.011280101776923075,0.0048997612626421405,-0.00972574246568562,32.9000015259,0.0,0.0166879912699634,0.04688091387544942
1648466161518915701,115464,2,2,0.689212083817,0.0879017189145,0.1084876284,0.0,32.9000015259,0.23050571365117056,0.02939856819882943,0.03628348775919732,32.9000015259,0.0,0.3273072621617371,0.7032137471518541
1648466161518931083,115465,2,3,0.598902881145,0.28568059206,-0.23283366859,0.0,32.9000015259,0.20030196693812707,0.09554534851505017,-0.07787079217056855,32.9000015259,0.0,0.29894927586703984,0.7032137505429
1648466161518937754,115466,2,4,0.74907708168,0.174338400364,0.208948984742,0.0,32.9000015259,0.2505274520668896,0.058307157312374576,0.06988260359264213,32.9000015259,0.0,0.35906508194491055,0.796975551923907
1648466161518941945,115467,2,5,0.611243247986,0.448298752308,-0.246129959822,0.0,32.9000015259,0.2044291799284281,0.14993269307959864,-0.08231771231505017,32.9000015259,0.0,0.32567221506680666,0.7969755558681606
1648466161518946613,115468,2,6,2.02598166466,-1.0987714529,0.42737609148,0.0,32.9000015259,0.6775858410234114,-0.3674820912709029,0.1429351476521739,32.9000015259,0.0,1.0262983149726221,2.344045804760479
1648466161518964175,115469,2,7,0.445047944784,-0.0586011447012,0.135204553604,0.485512852669,32.9000015259,0.14884546648294314,-0.019599045050568562,0.04521891424882943,32.9000015259,0.06560984495527027,0.2114097167869635,0.4688091708062143
1648466161518969755,115470,2,8,0.245296210051,0.102552004158,-0.38612806797,0.485512852669,32.9000015259,0.08203886623779263,0.034298329149832774,-0.12913982206354513,32.9000015259,0.06560984495527027,0.12098399286531725,0.4688091606362355
1648466161518977748,115471,2,9,0.262499809265,-0.0615312047303,0.187085464597,0.566431701183,32.9000015259,0.08779257834949832,-0.020578998237558526,0.06257038949732441,32.9000015259,0.07654482448418919,0.1258513758167428,0.328166436558035
1648466161518984875,115472,2,10,0.320858985186,0.0410208031535,-0.0553173571825,0.566431701183,32.9000015259,0.10731069738662206,0.013719332158361203,-0.01850078835535117,32.9000015259,0.07654482448418919,0.1523791049392199,0.32816642831283677
1648466161621479155,115473,3,0,0.0133139379323,0.0439508594573,0.00942768435925,0.0,21.6000003815,0.004452822050936455,0.014699284099431437,0.0031530716920568557,21.6000003815,0.0,0.015991378973384682,0.04688091533532723
1648466161621486151,115474,3,1,0.0337503887713,0.0146502861753,-0.0290534067899,0.0,21.6000003815,0.011287755441906355,0.0048997612626421405,-0.009716858458160534,21.6000003815,0.0,0.01669833842822278,0.04688091374249746
1648466161621491458,115475,3,2,0.680625855923,0.175803437829,-0.0187398605049,0.0,21.6000003815,0.22763406552608692,0.05879713639765886,-0.006267511874548495,21.6000003815,0.0,0.3272485887279494,0.7032137561759969
1648466161621495131,115476,3,3,0.703187704086,0.348676800728,0.138280719519,0.0,21.6000003815,0.2351798341424749,0.11661431462474915,0.04624773228060201,21.6000003815,0.0,0.35244575064818695,0.7969755428708873
1648466161621499612,115477,3,4,0.79653441906,0.0249054860324,0.00909281615168,0.0,21.6000003815,0.26639947125752506,0.00832959399076923,0.0030410756360133777,21.6000003815,0.0,0.3768378148602246,0.7969755600313788
1648466161621502067,115478,3,5,1.97398030758,-1.17202293873,0.473619163036,0.0,21.6000003815,0.6601940828026756,-0.3919809159632107,0.15840105787157188,21.6000003815,0.0,1.0126013492064336,2.3440458901689314
1648466161621505406,115479,3,6,0.741947770119,0.046880915761,0.0997882410884,0.0809188112617,21.6000003815,0.24814306692943144,0.015679236040468225,0.033373993675050166,21.6000003815,0.010934974494824324,0.3512773857980347,0.7500946652967632
1648466161621506418,115480,3,7,0.444599717855,-0.0732514336705,0.129411533475,0.485512852669,21.6000003815,0.1486955578110368,-0.02449880724765886,0.04328144932274247,21.6000003815,0.06560984495527027,0.21170954012993537,0.46880915802475565
1648466161621507430,115481,3,8,0.31092479825,0.117202289402,0.173924937844,-0.647350490093,21.6000003815,0.10398822683946489,0.03919809010100334,0.05816887553311037,21.6000003815,-0.08747979595851352,0.15219590306574743,0.37504731809721376
1648466161621680276,115482,3,9,0.325249314308,-0.0351606868207,-0.183404192328,-0.647350490093,21.6000003815,0.10877903488561873,-0.011759427030334446,-0.06133919475852843,21.6000003815,-0.08747979595851352,0.15428558255836827,0.37504731450713463
1648466161816585028,115483,5,0,0.0133418524638,0.0439508594573,0.00938813947141,0.0,29.5,0.004462158014648829,0.014699284099431437,0.0031398459770602,29.5,0.0,0.015996582801685724,0.046880915487389846
1648466161816743851,115484,5,1,0.033727504313,0.0146502861753,-0.0290799699724,0.0,29.5,0.011280101776923075,0.0048997612626421405,-0.00972574246568562,29.5,0.0,0.0166879912699634,0.04688091387544942
1648466161816747268,115485,5,2,0.7299451828,0.174338400364,0.268246531487,0.0,29.5,0.24412882367892974,0.058307157312374576,0.08971455902575251,29.5,0.0,0.3501392432955294,0.7969755638595263
1648466161816749257,115486,5,3,1.9937940836,-1.17202293873,0.38170465827,0.0,29.5,0.6668207637458193,-0.3919809159632107,0.12766042082608695,29.5,0.0,1.0212486966476253,2.344045874732977
1648466161816750587,115487,5,4,0.521881520748,-0.0527410283685,0.203332617879,0.485512852669,29.5,0.1745423146314381,-0.017639139922575247,0.0680042200264214,29.5,0.06560984495527027,0.2474695505532106,0.5625709655369174
1648466161921568417,115488,6,0,0.0133139379323,0.0439508594573,0.00942768435925,0.0,42.9000015259,0.004452822050936455,0.014699284099431437,0.0031530716920568557,42.9000015259,0.0,0.015991378973384682,0.04688091533532723
1648466161921574240,115489,6,1,0.0336977690458,0.0146502861753,-0.0291144233197,0.0,42.9000015259,0.011270156871505016,0.0048997612626421405,-0.009737265324314381,42.9000015259,0.0,0.016674547437563397,0.04688091476198981
1648466161921595936,115490,6,2,0.63627743721,0.174338400364,0.4471321702,0.0,42.9000015259,0.2128018184648829,0.058307157312374576,0.14954253183946487,42.9000015259,0.0,0.3065435572276344,0.7969755533087358
1648466161921597697,115491,6,3,0.747409343719,-0.0234404578805,0.0589223504066,0.0809188112617,42.9000015259,0.2499696801735786,-0.007839618020234113,0.019706471707892977,42.9000015259,0.010934974494824324,0.3535974287560156,0.7500946777051227
1648466161921626898,115492,6,4,0.198999628425,0.234404578805,0.684175133705,0.0809188112617,42.9000015259,0.06655505967391304,0.07839618020234114,0.228821114951505,42.9000015259,0.010934974494824324,0.12249535912316921,0.750094642200764
1648466161921675610,115493,6,5,0.561700165272,-0.0190453715622,0.235715612769,0.404594063759,42.9000015259,0.18785958704749162,-0.006369689485685618,0.0788346531,42.9000015259,0.05467487348094594,0.2657499234909621,0.6094519275115958
