%time,field.header.seq,field.header.frame_id,field.point_id,field.x,field.y,field.z,field.velocity,field.intensity,normalized_x,normalized_y,normalized_z,normalized_intensity,normalized_velocity,normalized_range,range
1648465476699589837,97147,0,0,0.0132795032114,0.0439508594573,0.00947612710297,0.0,13.3000001907,0.004441305421872909,0.014699284099431437,0.003169273278585284,13.3000001907,0.0,0.015984972340811643,0.046880915492858735
1648465476699600108,97148,0,1,0.0337083972991,0.0146502861753,-0.0291021168232,0.0,13.3000001907,0.011273711471270903,0.0048997612626421405,-0.009733149439197323,13.3000001907,0.0,0.016679352538567522,0.046880914422431426
1648465476699606010,97149,0,2,2.06539869308,-1.0987714529,0.146222680807,0.0,13.3000001907,0.6907687936722408,-0.3674820912709029,0.04890390662441471,13.3000001907,0.0,1.0437270428745447,2.344045976397847
1648465476999792395,97150,3,0,0.0133347688243,0.0439508594573,0.00939819868654,0.0,11.5,0.004459788904448161,0.014699284099431437,0.003143210263056856,11.5,0.0,0.01599526139768512,0.04688091557536544
1648465476999798383,97151,3,1,0.0337223596871,0.0146502861753,-0.0290859378874,0.0,11.5,0.011278381166254181,0.0048997612626421405,-0.009727738423879598,11.5,0.0,0.016685665221786113,0.0468809152072997
1648465476999811954,97152,3,2,0.649067819118,-0.082041606307,-0.052468508482,0.0,11.5,0.21707953816655517,-0.027438664316722407,-0.017547996147826084,11.5,0.0,0.3082205899687682,0.6563328449516719
1648465476999815787,97153,3,3,2.05818486214,-1.0987714529,0.226114526391,0.0,11.5,0.6883561411839465,-0.3674820912709029,0.07562358742173912,11.5,0.0,1.0405342097288983,2.3440459491006687
1648465476999818585,97154,3,4,0.864193558693,-0.0556710883975,0.208526715636,0.0809188112617,11.5,0.28902794605117055,-0.018619093109531772,0.06974137646688963,11.5,0.010934974494824324,0.40917108625285115,0.8907374293829642
1648465476999899057,97155,3,5,0.547379732132,0.0703213736415,0.109162598848,0.323675245047,11.5,0.1830701445257525,0.023518854060702338,0.03650923038394649,11.5,0.04373989797932432,0.25996632883834864,0.5625710086086706
1648465477299717059,97156,6,0,0.0133521789685,0.0439508594573,0.00937344692647,0.0,39.0999984741,0.004465611695150501,0.014699284099431437,0.003134932082431438,39.0999984741,0.0,0.015998510201250857,0.04688091549367973
1648465477299721114,97157,6,1,0.0336994826794,0.0146502861753,-0.0291124396026,0.0,39.0999984741,0.011270729993110367,0.0048997612626421405,-0.009736601873779263,39.0999984741,0.0,0.01667532217338195,0.046880914640100614
1648465477299725069,97158,6,2,0.869364798069,-0.083506628871,0.175055965781,0.0,39.0999984741,0.2907574575481605,-0.027928638418394644,0.05854714574615384,39.0999984741,0.0,0.4121405186142782,0.8907373913463332
1648465477299726902,97159,6,3,2.09871554375,-1.02552008629,0.19558365643,0.0,39.0999984741,0.7019115530936454,-0.342983306451505,0.06541259412374581,39.0999984741,0.0,1.0502367377106334,2.344045935476657
