%time,field.header.seq,field.header.frame_id,field.point_id,field.x,field.y,field.z,field.velocity,field.intensity,normalized_x,normalized_y,normalized_z,normalized_intensity,normalized_velocity,normalized_range,range
1648466130918268945,114203,0,0,0.0133139379323,0.0439508594573,0.00942768435925,0.0,14.1999998093,0.004452822050936455,0.014699284099431437,0.0031530716920568557,14.1999998093,0.0,0.015991378973384682,0.04688091533532723
1648466130918283573,114204,0,1,0.0336977690458,0.0146502861753,-0.0291144233197,0.0,14.1999998093,0.011270156871505016,0.0048997612626421405,-0.009737265324314381,14.1999998093,0.0,0.016674547437563397,0.04688091476198981
1648466130918290960,114205,0,2,0.680844247341,0.175803437829,0.00733399949968,0.0,14.1999998093,0.2277071061341137,0.05879713639765886,0.002452842642033445,14.1999998093,0.0,0.3273502033243755,0.7032137124932144
1648466130918295897,114206,0,3,2.02116179466,-1.0987714529,0.449618548155,0.0,14.1999998093,0.6759738443678929,-0.3674820912709029,0.1503740963729097,14.1999998093,0.0,1.0241700854564406,2.3440457642175456
1648466130918297504,114207,0,4,0.215777561069,0.0146502861753,0.0903931260109,0.323675245047,14.1999998093,0.07216640838428093,0.0048997612626421405,0.030231814719364543,14.1999998093,0.04373989797932432,0.10217626269640377,0.23440457328287487
1648466130918397464,114208,0,5,0.15857103467,0.102552004158,-0.138866201043,0.323675245047,14.1999998093,0.05303379085953177,0.034298329149832774,-0.04644354549933109,14.1999998093,0.04373989797932432,0.08247145765860683,0.234404582688248
1648466131018129027,114209,1,0,0.0133034354076,0.0439508594573,0.00944249983877,0.0,27.3999996185,0.004449309500869565,0.014699284099431437,0.0031580267019297656,27.3999996185,0.0,0.01598942347631253,0.046880915561502146
1648466131018134849,114210,1,1,0.0336091145873,0.0146502861753,-0.0292167179286,0.0,27.3999996185,0.011240506550936455,0.0048997612626421405,-0.009771477568093644,27.3999996185,0.0,0.016634471301312202,0.046880913759010975
1648466131018141575,114211,1,2,0.725678801537,0.224149376154,0.241489872336,0.0,27.3999996185,0.2427019403133779,0.07496634653979932,0.08076584359063545,27.3999996185,0.0,0.35132380616360487,0.7969755481012336
1648466131018229680,114212,1,3,2.02841353416,-1.0987714529,0.415681570768,0.0,27.3999996185,0.6783991753043477,-0.3674820912709029,0.13902393671170568,27.3999996185,0.0,1.0273723616644914,2.344045933753771
1648466131018234265,114213,1,4,0.690465271473,-0.293005734682,-2.22080087662,0.0,27.3999996185,0.23092483995752505,-0.09799522899063544,-0.7427427681003343,27.3999996185,0.0,0.3409627960991407,2.3440459008438768
1648466131018246692,114214,1,5,0.697336256504,0.0439508594573,0.0793730989099,0.0809188112617,27.3999996185,0.23322282826220733,0.014699284099431437,0.02654618692638796,27.3999996185,0.010934974494824324,0.33015427333033553,0.7032137808039661
1648466131018250806,114215,1,6,0.318937718868,-0.0512760058045,0.0578161291778,0.323675245047,27.3999996185,0.10666813340066889,-0.01714916582090301,0.019336498052775916,27.3999996185,0.04373989797932432,0.15182317100732223,0.32816642436588567
1648466131018254411,114216,1,7,0.224473789334,0.00732514308766,0.0671070814133,0.404594063759,27.3999996185,0.07507484593110367,0.0024498806313244144,0.022443839937558527,27.3999996185,0.05467487348094594,0.10620012663959325,0.2344045652179816
1648466131018259134,114217,1,8,0.146761834621,0.102552004158,-0.151292949915,0.404594063759,27.3999996185,0.04908422562575251,0.034298329149832774,-0.050599648801003344,27.3999996185,0.05467487348094594,0.0774267253151638,0.23440457835146244
1648466131018263445,114218,1,9,0.15504604578,0.0527410283685,0.0913467779756,-0.647350490093,27.3999996185,0.05185486480936455,0.017639139922575247,0.03055076186474916,27.3999996185,-0.08747979595851352,0.07542541525244084,0.18752366845788918
1648466131018303720,114219,1,10,0.152565836906,-0.0234404578805,-0.106486298144,-0.647350490093,27.3999996185,0.051025363513712375,-0.007839618020234113,-0.035614146536454845,27.3999996185,-0.08747979595851352,0.07258536391116435,0.1875236554381568
1648466131121021394,114220,2,0,0.0133139379323,0.0439508594573,0.00942768435925,0.0,31.5,0.004452822050936455,0.014699284099431437,0.0031530716920568557,31.5,0.0,0.015991378973384682,0.04688091533532723
1648466131121027327,114221,2,1,0.0337118916214,0.0146502861753,-0.0290980711579,0.0,31.5,0.011274880140936454,0.0048997612626421405,-0.009731796373879597,31.5,0.0,0.016680932372498097,0.04688091580612966
1648466131121033831,114222,2,2,0.707840442657,0.210964113474,0.130759432912,0.0,31.5,0.23673593399899662,0.07055655969030099,0.04373225181003344,31.5,0.0,0.3421491385464613,0.7500946465148224
1648466131121217809,114223,2,3,2.02999949455,-1.0987714529,0.407866209745,0.0,31.5,0.6789295968394649,-0.3674820912709029,0.13641010359364547,31.5,0.0,1.0280728973832707,2.344045967687704
1648466131121222581,114224,2,4,0.431485384703,-0.366257160902,2.27469277382,0.0,31.5,0.1443094932117057,-0.12249403374648829,0.760766813986622,31.5,0.0,0.23802362900671117,2.3440458955389962
1648466131121228846,114225,2,5,0.686128854752,0.0439508594573,0.147665575147,0.0809188112617,31.5,0.2294745333618729,0.014699284099431437,0.04938647998227424,31.5,0.010934974494824324,0.32485872602769106,0.7032137693858254
1648466131121230690,114226,2,6,0.365968823433,-0.0234404578805,0.0785994306207,0.485512852669,31.5,0.1223975998103679,-0.007839618020234113,0.026287434990200666,31.5,0.06560984495527027,0.17327378477248404,0.37504733739153523
1648466131121237847,114227,2,7,0.240780249238,-0.0527410283685,0.135516747832,0.566431701183,31.5,0.08052851145083612,-0.017639139922575247,0.04532332703411371,31.5,0.07654482448418919,0.11524244691164395,0.28128550165168875
1648466131121238994,114228,2,8,0.272040992975,0.0439508594573,-0.0564230643213,0.566431701183,31.5,0.09098360969063544,0.014699284099431437,-0.01887059007401338,31.5,0.07654482448418919,0.1295071558552329,0.2812855170343203
1648466131121241951,114229,2,9,0.204526513815,0.0366257168353,0.108503304422,-0.566431701183,31.5,0.06840351632608695,0.012249403623846153,0.03628873057591973,31.5,-0.07654482448418919,0.09750964044999029,0.23440457558996192
1648466131121263563,114230,2,10,0.192191511393,-0.0512760020792,-0.124010890722,-0.566431701183,31.5,0.06427809745585283,-0.017149164574983278,-0.04147521428829431,31.5,-0.07654482448418919,0.09250644015801326,0.23440457857818306
1648466131315957452,114231,4,0,0.0133034354076,0.0439508594573,0.00944249983877,0.0,30.2999992371,0.004449309500869565,0.014699284099431437,0.0031580267019297656,30.2999992371,0.0,0.01598942347631253,0.046880915561502146
1648466131315959666,114232,4,1,0.0336977690458,0.0146502861753,-0.0291144233197,0.0,30.2999992371,0.011270156871505016,0.0048997612626421405,-0.009737265324314381,30.2999992371,0.0,0.016674547437563397,0.04688091476198981
1648466131315964566,114233,4,2,0.686804175377,0.210964113474,0.215490609407,0.0,30.2999992371,0.22970039310267557,0.07055655969030099,0.07207043792876253,30.2999992371,0.0,0.3324195681640574,0.7500946841777723
1648466131316062311,114234,4,3,2.0290491581,-1.0987714529,0.412567853928,0.0,30.2999992371,0.6786117585618728,-0.3674820912709029,0.13798255984214045,30.2999992371,0.0,1.0276531151715111,2.3440459521496266
1648466131316073898,114235,4,4,0.209941029549,-0.161153152585,-0.442595392466,-0.647350490093,30.2999992371,0.0702143911535117,-0.05389737544648829,-0.1480252148715719,30.2999992371,-0.08747979595851352,0.1129825142671927,0.5156900773801169
1648466131316097431,114236,4,5,0.499978810549,0.032230630517,0.122141808271,-0.647350490093,30.2999992371,0.16721699349464883,0.010779475089297658,0.040850103100668896,30.2999992371,-0.08747979595851352,0.23672609258377,0.515690067646475
1648466131316209561,114237,4,6,0.386209338903,0.0659262835979,0.156587004662,-0.485512852669,30.2999992371,0.12916700297759198,0.02204892428023411,0.0523702356729097,30.2999992371,-0.06560984495527027,0.18399560967137776,0.4219282146929028
1648466131316213431,114238,4,7,0.358363837004,-0.105482056737,-0.196143656969,-0.485512852669,30.2999992371,0.11985412608829431,-0.035278279845150494,-0.06559988527391304,30.2999992371,-0.06560984495527027,0.17313168430304793,0.42192823813401004
1648466131421123623,114239,5,0,0.0133139379323,0.0439508594573,0.00942768435925,0.0,31.1000003815,0.004452822050936455,0.014699284099431437,0.0031530716920568557,31.1000003815,0.0,0.015991378973384682,0.04688091533532723
1648466131421128301,114240,5,1,0.0337118916214,0.0146502861753,-0.0290980711579,0.0,31.1000003815,0.011274880140936454,0.0048997612626421405,-0.009731796373879597,31.1000003815,0.0,0.016680932372498097,0.04688091580612966
1648466131421132943,114241,5,2,0.695234775543,0.187523663044,0.210060656071,0.0,31.1000003815,0.2325199918204013,0.0627169441618729,0.07025440002374582,31.1000003815,0.0,0.3347603744132846,0.7500946583963547
1648466131421135618,114242,5,3,2.04244160652,-1.0987714529,0.340124547482,0.0,31.1000003815,0.6830908383010034,-0.3674820912709029,0.11375402925819397,31.1000003815,0.0,1.0335711267960088,2.3440458889603275
1648466131421139844,114243,5,4,0.743181824684,-0.046880915761,0.0901384875178,0.242756426334,31.1000003815,0.2485557942086956,-0.015679236040468225,0.030146651343745817,31.1000003815,0.03280492247756756,0.3518604895583527,0.7500946551837483
1648466131421207103,114244,5,5,0.653641462326,-0.34281668067,-0.970028877258,0.242756426334,31.1000003815,0.21860918472441468,-0.1146544082508361,-0.3244243736648829,31.1000003815,0.03280492247756756,0.32973562837991277,1.2189037946169847
1648466131421209887,114245,5,6,0.485845327377,0.0483459457755,0.16599163413,-0.566431701183,31.1000003815,0.1624900760458194,0.016169212633946488,0.05551559669899665,31.1000003815,-0.07654482448418919,0.2303638275944253,0.5156900573097563
1648466131421212105,114246,5,7,0.376015245914,-0.128922522068,-0.328523635864,-0.566431701183,31.1000003815,0.12575760732909697,-0.04311790035719063,-0.10987412570702342,31.1000003815,-0.07654482448418919,0.18300028670330357,0.5156900824889324
