%time,field.header.seq,field.header.frame_id,field.point_id,field.x,field.y,field.z,field.velocity,field.intensity,normalized_x,normalized_y,normalized_z,normalized_intensity,normalized_velocity,normalized_range,range
1648466100015067390,113119,0,0,0.0133139379323,0.0439508594573,0.00942768435925,0.0,11.6000003815,0.004452822050936455,0.014699284099431437,0.0031530716920568557,11.6000003815,0.0,0.015991378973384682,0.04688091533532723
1648466100015074927,113120,0,1,0.0337118916214,0.0146502861753,-0.0290980711579,0.0,11.6000003815,0.011274880140936454,0.0048997612626421405,-0.009731796373879597,11.6000003815,0.0,0.016680932372498097,0.04688091580612966
1648466100015097402,113121,0,2,0.686960399151,0.10987714678,-0.102576963603,0.0,11.6000003815,0.22975264185652175,0.03674820962541806,-0.034306676790301,11.6000003815,0.0,0.32699080077393,0.7032137732213628
1648466100015124686,113122,0,3,2.04399323463,-1.0987714529,0.33067303896,0.0,11.6000003815,0.6836097774682273,-0.3674820912709029,0.11059298961872908,11.6000003815,0.0,1.0342570971983487,2.3440460122651663
1648466100015136989,113123,0,4,0.368085116148,-0.0586011447012,0.0417104586959,0.242756426334,11.6000003815,0.1231053900160535,-0.019599045050568562,0.013949986185919732,11.6000003815,0.03280492247756756,0.17519702243161414,0.37504734268436035
1648466100015140390,113124,0,5,0.060464002192,0.0703213736415,0.363399922848,0.242756426334,11.6000003815,0.020222074311705685,0.023518854060702338,0.12153843573511705,11.6000003815,0.03280492247756756,0.03702703168314885,0.3750473237843912
1648466100015146062,113125,0,6,0.276106804609,0.0263705141842,0.0468097180128,0.323675245047,11.6000003815,0.09234341291270902,0.008819569961270902,0.015655424084548494,11.6000003815,0.04373989797932432,0.13089078130653778,0.28128548002015574
1648466100015155634,113126,0,7,0.254860758781,0.00879017170519,0.118702374399,0.566431701183,11.6000003815,0.08523771196688963,0.0029398567575886284,0.03969979076889632,11.6000003815,0.07654482448418919,0.12058017183789389,0.28128549051274254
1648466100120142840,113127,1,0,0.0133259519935,0.0439508594573,0.00941069517285,0.0,21.1000003815,0.004456840131605351,0.014699284099431437,0.003147389689916388,21.1000003815,0.0,0.015993617506779818,0.04688091538360472
1648466100120146084,113128,1,1,0.0337118916214,0.0146502861753,-0.0290980711579,0.0,21.1000003815,0.011274880140936454,0.0048997612626421405,-0.009731796373879597,21.1000003815,0.0,0.016680932372498097,0.04688091580612966
1648466100120158804,113129,1,2,0.651623308659,0.0615312047303,-0.0487211830914,0.0,21.1000003815,0.21793421694280934,0.020578998237558526,-0.01629471006401338,21.1000003815,0.0,0.3088917949661538,0.6563328265636956
1648466100120165137,113130,1,3,0.250210493803,0.307656019926,0.522986888885,0.0,21.1000003815,0.08368243939899664,0.10289498994180601,0.1749120029715719,21.1000003815,0.0,0.15682117294121306,0.656332845248095
1648466100120229049,113131,1,4,0.698398947716,0.210964113474,0.174284413457,0.0,21.1000003815,0.23357824338327757,0.07055655969030099,0.058289101490635445,21.1000003815,0.0,0.33778072721717906,0.7500946634383805
1648466100120300632,113132,1,5,0.348675817251,0.49224960804,-0.445822238922,0.0,21.1000003815,0.11661398570267557,0.16463197593311035,-0.14910442773311036,21.1000003815,0.0,0.2330264594902645,0.7500946412744269
1648466100120484040,113133,1,6,2.04089260101,-1.0987714529,0.349299073219,0.0,21.1000003815,0.682572776257525,-0.3674820912709029,0.1168224325147157,21.1000003815,0.0,1.0328863815447693,2.344045894840157
1648466100120500228,113134,1,7,0.294745385647,0.0922968089581,0.110903784633,-0.647350490093,21.1000003815,0.09857705205585283,0.030868497979297655,0.037091566766889635,21.1000003815,-0.08747979595851352,0.14278562445688484,0.3281664101488292
1648466100120513729,113135,1,8,0.247561782598,-0.0307656023651,-0.213213145733,-0.647350490093,21.1000003815,0.08279658280869565,-0.01028949911876254,-0.07130874439230768,21.1000003815,-0.08747979595851352,0.11754327731397235,0.3281664272977179
1648466100315348991,113136,3,0,0.0132406326011,0.0439508594573,0.00953036453575,0.0,35.0,0.004428305217759197,0.014699284099431437,0.0031874128882107017,35.0,0.0,0.015977757265619744,0.04688091559362861
1648466100315470671,113137,3,1,0.0336977690458,0.0146502861753,-0.0291144233197,0.0,35.0,0.011270156871505016,0.0048997612626421405,-0.009737265324314381,35.0,0.0,0.016674547437563397,0.04688091476198981
1648466100315474240,113138,3,2,2.03974127769,-1.0987714529,0.35596087575,0.0,35.0,0.6821877182909699,-0.3674820912709029,0.11905046011705685,35.0,0.0,1.0323774762067,2.344045931863349
1648466100315480018,113139,3,3,0.738101959229,0.0234404578805,0.131522119045,0.0809188112617,35.0,0.246856842551505,0.007839618020234113,0.04398733078428093,35.0,0.010934974494824324,0.34919630731108864,0.7500946774117405
1648466100315483129,113140,3,4,0.544809222221,-0.0703213736415,0.121342338622,0.485512852669,35.0,0.18221044221438126,-0.023518854060702338,0.04058272194715719,35.0,0.06560984495527027,0.25875553520697747,0.5625710153839554
1648466100315490887,113141,3,5,0.21944847703,0.12306240201,-0.503174066544,0.485512852669,35.0,0.07339413947491638,0.04115799398327759,-0.16828564098461538,35.0,0.06560984495527027,0.11165742199806725,0.5625710000539337
1648466100315492355,113142,3,6,0.384828716516,-0.0732514336705,-0.257532715797,-0.647350490093,35.0,0.1287052563598662,-0.02449880724765886,-0.08613134307591973,35.0,-0.08747979595851352,0.1836580452522451,0.4688091437844551
1648466100315494373,113143,3,7,0.420368522406,0.117202289402,0.17127738893,-0.647350490093,35.0,0.14059147906555183,0.03919809010100334,0.057283407668896315,35.0,-0.08747979595851352,0.202653443689579,0.46880914584674255
1648466100420205863,113144,4,0,0.0133434562013,0.0439508594573,0.00938585959375,0.0,29.5,0.004462694381705685,0.014699284099431437,0.0031390834761705687,29.5,0.0,0.01599688205010004,0.04688091542136242
1648466100420211397,113145,4,1,0.0336977690458,0.0146502861753,-0.0291144233197,0.0,29.5,0.011270156871505016,0.0048997612626421405,-0.009737265324314381,29.5,0.0,0.016674547437563397,0.04688091476198981
1648466100420213500,113146,4,2,0.687747657299,0.0879017189145,-0.117413878441,0.0,29.5,0.2300159388959866,0.02939856819882943,-0.03926885566588628,29.5,0.0,0.3266174216182378,0.7032137450014359
1648466100420215168,113147,4,3,0.4779471457,-0.032230630517,0.190955385566,0.566431701183,29.5,0.15984854371237459,-0.010779475089297658,0.06386467744682274,29.5,0.07654482448418919,0.22631683750250367,0.5156900686487574
1648466100615215728,113148,6,0,0.0133259519935,0.0439508594573,0.00941069517285,0.0,26.3999996185,0.004456840131605351,0.014699284099431437,0.003147389689916388,26.3999996185,0.0,0.015993617506779818,0.04688091538360472
1648466100615223254,113149,6,1,0.0337347723544,0.0146502861753,-0.0290715377778,0.0,26.3999996185,0.011282532559999999,0.0048997612626421405,-0.009722922333712374,26.3999996185,0.0,0.016691277433612105,0.04688091359591267
1648466100615226765,113150,6,2,0.635014295578,0.164083212614,0.363971859217,0.0,26.3999996185,0.21237936306956523,0.054877328633444813,0.12172971880167223,26.3999996185,0.0,0.3053219758117839,0.7500946410634024
1648466100615229800,113151,6,3,2.0179002285,-1.0987714529,0.464037805796,0.0,26.3999996185,0.6748830195652172,-0.3674820912709029,0.15519659056722407,26.3999996185,0.0,1.0227303005190405,2.344045887583324
1648466100615367405,113152,6,4,0.771985530853,-0.0498109720647,0.191643446684,0.161837622523,26.3999996185,0.2581891407535117,-0.016659187981505015,0.06409479822207358,26.3999996185,0.021869948989594594,0.36551442290322345,0.7969755350331287
1648466100615371455,113153,6,5,0.460124701262,0.249054864049,-0.601187944412,0.161837622523,26.3999996185,0.15388785995384616,0.0832959411535117,-0.2010662021444816,26.3999996185,0.021869948989594594,0.2330260944508113,0.7969755394767374
1648466100615457712,113154,6,6,0.571681678295,-0.0380907431245,0.207751765847,0.485512852669,26.3999996185,0.1911978857173913,-0.01273937897140468,0.0694821959354515,26.3999996185,0.06560984495527027,0.27069457841297506,0.6094519195330435
