%time,field.header.seq,field.header.frame_id,field.point_id,field.x,field.y,field.z,field.velocity,field.intensity,normalized_x,normalized_y,normalized_z,normalized_intensity,normalized_velocity,normalized_range,range
1648465459099466509,96812,0,0,0.0132406326011,0.0439508594573,0.00953036453575,0.0,29.0,0.004428305217759197,0.014699284099431437,0.0031874128882107017,29.0,0.0,0.015977757265619744,0.04688091559362861
1648465459099473206,96813,0,1,0.0337223596871,0.0146502861753,-0.0290859378874,0.0,29.0,0.011278381166254181,0.0048997612626421405,-0.009727738423879598,29.0,0.0,0.016685665221786113,0.0468809152072997
1648465459099476574,96814,0,2,0.648334980011,-0.082041606307,-0.0608585514128,0.0,29.0,0.21683444147525083,-0.027438664316722407,-0.020354030572842807,29.0,0.0,0.3078753486709414,0.6563328688640856
1648465459099481131,96815,0,3,0.793400406837,0.0249054860324,-0.0711728557944,0.0,29.0,0.2653513066344481,0.00832959399076923,-0.023803630700468224,29.0,0.0,0.37535584982955694,0.7969755731548851
1648465459099483531,96816,0,4,2.17194271088,-0.9713139534,0.236101299524,0.0,29.0,0.7264022444414715,-0.3248541650167224,0.07896364532575251,29.0,0.0,1.0774278026800341,2.390926548234224
1648465459099485957,96817,0,5,0.464618086815,0.145037829876,0.17038282752,-0.566431701183,29.0,0.15539066448662206,0.048507635410033445,0.056984223250836116,29.0,-0.07654482448418919,0.22504556852393387,0.515690068359359
1648465459099489976,96818,0,6,0.380956888199,-0.0483459457755,-0.344195812941,-0.566431701183,29.0,0.12741033050133777,-0.016169212633946488,-0.11511565650200668,29.0,-0.07654482448418919,0.1809094471665922,0.5156900607780887
1648465459204636840,96819,1,0,0.0133418524638,0.0439508594573,0.00938813947141,0.0,32.2999992371,0.004462158014648829,0.014699284099431437,0.0031398459770602,32.2999992371,0.0,0.015996582801685724,0.046880915487389846
1648465459204641854,96820,1,1,0.0337223596871,0.0146502861753,-0.0290859378874,0.0,32.2999992371,0.011278381166254181,0.0048997612626421405,-0.009727738423879598,32.2999992371,0.0,0.016685665221786113,0.0468809152072997
1648465459204646084,96821,1,2,0.649629056454,-0.082041606307,-0.0449899733067,0.0,32.2999992371,0.217267242961204,-0.027438664316722407,-0.015046813814949832,32.2999992371,0.0,0.3084849915756218,0.6563328681796187
1648465459204652012,96822,1,3,0.869788885117,-0.083506628871,0.172936677933,0.0,32.2999992371,0.2908992926812709,-0.027928638418394644,0.05783835382374581,32.2999992371,0.0,0.41234064292624956,0.8907374227644054
1648465459204763342,96823,1,4,2.17482233047,-0.9713139534,0.207910194993,0.0,32.2999992371,0.727365327916388,-0.3248541650167224,0.06953518227190635,32.2999992371,0.0,1.0787265033540898,2.390926517976353
1648465459204768839,96824,1,5,0.540966570377,0.0527410283685,0.14511936903,0.404594063759,32.2999992371,0.18092527437357858,0.017639139922575247,0.048534906030100335,32.2999992371,0.05467487348094594,0.2564742659050174,0.5625709533974235
1648465459204776947,96825,1,6,1.39227974415,-0.131852582097,0.149031355977,0.566431701183,32.2999992371,0.4656453993812709,-0.04409785354414715,0.049843262868561874,32.2999992371,0.07654482448418919,0.6599968913692607,1.4064275077089394
1648465459204786426,96826,1,7,0.456277221441,0.39555773139,-1.27019035816,0.566431701183,32.2999992371,0.15260107740501672,0.13229355564882941,-0.4248128288160535,32.2999992371,0.07654482448418919,0.25313190734586133,1.4064275195085425
1648465459204789389,96827,1,8,0.460594296455,-0.0703213736415,-0.315268009901,-0.566431701183,32.2999992371,0.15404491520234112,-0.023518854060702338,-0.10544080598695652,32.2999992371,-0.07654482448418919,0.21911825185438466,0.5625709907066315
1648465459204797708,96828,1,9,0.47745385766,0.140642747283,0.262189894915,-0.566431701183,32.2999992371,0.1596835644347826,0.047037708121404675,0.08768892806521739,32.2999992371,-0.07654482448418919,0.23067342171674046,0.5625709817909773
1648465459300172565,96829,2,0,0.0132512515411,0.0439508594573,0.00951559375972,0.0,38.9000015259,0.0044318567027090295,0.014699284099431437,0.0031824728293377924,38.9000015259,0.0,0.01597972655280721,0.046880915509841144
1648465459300176131,96830,2,1,0.0336836874485,0.0146502861753,-0.0291307158768,0.0,38.9000015259,0.011265447307190634,0.0048997612626421405,-0.009742714340066889,38.9000015259,0.0,0.016668181259305585,0.046880916081506664
1648465459300178767,96831,2,2,0.644789993763,-0.102552011609,-0.0670948699117,0.0,38.9000015259,0.2156488273454849,-0.03429833164180602,-0.022439755823311033,38.9000015259,0.0,0.3068960883171645,0.6563328216007561
1648465459300182532,96832,2,3,2.17255926132,-0.9713139534,0.230357736349,0.0,38.9000015259,0.7266084486020067,-0.3248541650167224,0.07704272118695651,38.9000015259,0.0,1.0777058521175162,2.390926436909483
1648465459300184910,96833,2,4,0.794391930103,0.0498109720647,-0.0403778105974,0.0809188112617,38.9000015259,0.2656829197668896,0.016659187981505015,-0.013504284480735785,38.9000015259,0.010934974494824324,0.3761015238681201,0.7969755574291093
1648465459300190974,96834,2,5,0.596096396446,0.0571361146867,0.113296963274,0.323675245047,38.9000015259,0.19936334329297656,0.0191090684570903,0.037891960961204015,38.9000015259,0.04373989797932432,0.2825891749434224,0.6094519270168145
1648465459300192802,96835,2,6,0.540450751781,-0.143572807312,-0.343617022038,-0.647350490093,38.9000015259,0.1807527597929766,-0.0480176613083612,-0.11492208094916387,38.9000015259,-0.08747979595851352,0.2600938602564072,0.6563328606236016
1648465459300194329,96836,2,7,0.538890361786,0.102552011609,0.360351294279,-0.647350490093,38.9000015259,0.18023089022943142,0.03429833164180602,0.12051882751806019,38.9000015259,-0.08747979595851352,0.25718227609848626,0.6563328366000355
1648465459404674525,96837,3,0,0.0133243817836,0.0439508594573,0.00941291917115,0.0,33.7000007629,0.004456314977792642,0.014699284099431437,0.0031481335020568557,33.7000007629,0.0,0.015993324838769328,0.04688091556564432
1648465459404677325,96838,3,1,0.0336836874485,0.0146502861753,-0.0291307158768,0.0,33.7000007629,0.011265447307190634,0.0048997612626421405,-0.009742714340066889,33.7000007629,0.0,0.016668181259305585,0.046880916081506664
1648465459404681158,96839,3,2,0.647016227245,-0.102552011609,-0.0403226837516,0.0,33.7000007629,0.2163933870384615,-0.03429833164180602,-0.013485847408561872,33.7000007629,0.0,0.30794248076770137,0.6563328669420248
1648465459404685693,96840,3,3,2.17224788666,-0.9713139534,0.233277156949,0.0,33.7000007629,0.7265043099197325,-0.3248541650167224,0.07801911603645484,33.7000007629,0.0,1.077565428729321,2.3909265796177395
1648465459404692942,96841,3,4,0.796237289906,0.0249054860324,-0.0235785953701,0.0809188112617,33.7000007629,0.2663000969585284,0.00832959399076923,-0.007885817849531773,33.7000007629,0.010934974494824324,0.3766973127277315,0.7969755675244934
1648465459404706584,96842,3,5,0.856516778469,-0.083506628871,0.229823440313,0.0809188112617,33.7000007629,0.28646046102642136,-0.027928638418394644,0.07686402686053512,33.7000007629,0.010934974494824324,0.40607782543109294,0.8907374262831983
1648465459404840701,96843,3,6,0.601127684116,0.0952268540859,0.0317643545568,0.161837622523,33.7000007629,0.2010460481993311,0.03184844618257525,0.010623529952107021,33.7000007629,0.021869948989594594,0.2861002455737847,0.6094519017692642
1648465459404960391,96844,3,7,0.597140192986,-0.656332850456,-0.967337608337,0.161837622523,33.7000007629,0.19971243912575248,-0.21950931453377925,-0.3235242837247491,33.7000007629,0.021869948989594594,0.3577072208527589,1.3126657111276285
1648465459404963597,96845,3,8,0.41484490037,-1.1896033287,0.368563175201,0.161837622523,33.7000007629,0.1387441138361204,-0.3978606450501672,0.12326527598695652,33.7000007629,0.021869948989594594,0.4436135154930199,1.312665679116872
1648465459404965185,96846,3,9,0.609991669655,-0.0219754297286,0.34919449687,0.485512852669,33.7000007629,0.2040105918578595,-0.007349642049698997,0.11678745714715717,33.7000007629,0.06560984495527027,0.2886081433685594,0.7032137322354731
1648465459404966117,96847,3,10,0.936939537525,-0.12306240201,0.276113420725,-0.323675245047,33.7000007629,0.3133577048578595,-0.04115799398327759,0.09234562566053511,33.7000007629,-0.04373989797932432,0.4450618865464648,0.9844991990197314
1648465459599713544,96848,5,0,0.0133243817836,0.0439508594573,0.00941291917115,0.0,26.5,0.004456314977792642,0.014699284099431437,0.0031481335020568557,26.5,0.0,0.015993324838769328,0.04688091556564432
1648465459599797356,96849,5,1,0.033736359328,0.0146502861753,-0.029069699347,0.0,26.5,0.011283063320401339,0.0048997612626421405,-0.009722307473913042,26.5,0.0,0.016691994974096437,0.046880915582474404
1648465459599800368,96850,5,2,0.57789516449,0.123062409461,0.285771995783,0.0,26.5,0.1932759747458194,0.041157996475250834,0.09557591832207357,26.5,0.0,0.276414879305999,0.656332851026878
1648465459599802173,96851,5,3,0.640330672264,-0.123062409461,-0.0748670771718,0.0,26.5,0.21415741547290967,-0.041157996475250834,-0.025039156244749162,26.5,0.0,0.30564812755508525,0.6563328467391079
1648465459599803728,96852,5,4,0.824619710445,-0.139177724719,0.306667655706,0.0,26.5,0.2757925452993311,-0.04654773401973244,0.10256443334648829,26.5,0.0,0.3927973365843243,0.8907374231324107
1648465459599804760,96853,5,5,2.17375040054,-0.9713139534,0.218832805753,0.0,26.5,0.7270068229230768,-0.3248541650167224,0.07318822934882942,26.5,0.0,1.0782430475927605,2.3909264724769512
