%time,field.header.seq,field.header.frame_id,field.point_id,field.x,field.y,field.z,field.velocity,field.intensity,normalized_x,normalized_y,normalized_z,normalized_intensity,normalized_velocity,normalized_range,range
1648466113315454055,113611,0,0,0.0133364023641,0.0439508594573,0.00939587969333,0.0,25.2000007629,0.004460335238829431,0.014699284099431437,0.003142434680043478,25.2000007629,0.0,0.01599556607067362,0.0468809154162335
1648466113315459879,113612,0,1,0.0336977690458,0.0146502861753,-0.0291144233197,0.0,25.2000007629,0.011270156871505016,0.0048997612626421405,-0.009737265324314381,25.2000007629,0.0,0.016674547437563397,0.04688091476198981
1648466113315521345,113613,0,2,2.01677894592,-1.0987714529,0.468887209892,0.0,25.2000007629,0.6745080086688963,-0.3674820912709029,0.15681846484682274,25.2000007629,0.0,1.0222353911510773,2.3440459120961066
1648466113315524188,113614,0,3,0.69283246994,0.10987714678,0.0491909943521,0.0809188112617,25.2000007629,0.23171654513043477,0.03674820962541806,0.016451837575953174,25.2000007629,0.010934974494824324,0.32975073234951774,0.703213746106419
1648466113315529958,113615,0,4,0.320571839809,-0.0307656023651,0.0630901679397,0.404594063759,25.2000007629,0.10721466214347826,-0.01028949911876254,0.02110039061528428,25.2000007629,0.05467487348094594,0.1519731599631836,0.3281664151891143
1648466113315533016,113616,0,5,0.365782499313,-0.0117202289402,0.0820140913129,0.485512852669,25.2000007629,0.12233528405117056,-0.003919809010100334,0.027429461977558526,25.2000007629,0.06560984495527027,0.1730526172886063,0.375047346003083
1648466113315873812,113617,0,6,0.20402045548,-0.0219754297286,0.113305956125,0.566431701183,25.2000007629,0.06823426604682274,-0.007349642049698997,0.03789496860367893,25.2000007629,0.07654482448418919,0.0967773081055465,0.2344045764472693
1648466113315878209,113618,0,7,0.0795329064131,0.0586011447012,-0.212569817901,0.566431701183,25.2000007629,0.02659963425187291,0.019599045050568562,-0.07109358458227424,25.2000007629,0.07654482448418919,0.04241702077658256,0.23440457513724045
1648466113420424269,113619,1,0,0.0133139379323,0.0439508594573,0.00942768435925,0.0,32.7999992371,0.004452822050936455,0.014699284099431437,0.0031530716920568557,32.7999992371,0.0,0.015991378973384682,0.04688091533532723
1648466113420438731,113620,1,1,0.0336091145873,0.0146502861753,-0.0292167179286,0.0,32.7999992371,0.011240506550936455,0.0048997612626421405,-0.009771477568093644,32.7999992371,0.0,0.016634471301312202,0.046880913759010975
1648466113420443458,113621,1,2,2.02108168602,-1.0987714529,0.449979275465,0.0,32.7999992371,0.675947052180602,-0.3674820912709029,0.15049474095819396,32.7999992371,0.0,1.024134718729976,2.344045911585656
1648466113420451120,113622,1,3,0.692302882671,0.0659262910485,0.104307435453,0.0809188112617,32.7999992371,0.23153942564247493,0.022048926772073575,0.034885429917391304,32.7999992371,0.010934974494824324,0.3281876999911706,0.7032137642970093
1648466113420456317,113623,1,4,0.379267930984,-0.105482056737,0.15183147788,0.566431701183,32.7999992371,0.12684546186755852,-0.035278279845150494,0.050779758488294316,32.7999992371,0.07654482448418919,0.18282259002000065,0.4219282230920051
1648466113420476657,113624,1,5,0.355415433645,0.0527410283685,-0.221182480454,0.566431701183,32.7999992371,0.1188680380083612,0.017639139922575247,-0.07397407373043477,32.7999992371,0.07654482448418919,0.16902769056318137,0.42192823584848455
1648466113420482559,113625,1,6,0.193038731813,-0.0102552007884,-0.265186876059,-0.566431701183,32.7999992371,0.06456144876688963,-0.003429833039598662,-0.08869126289598661,32.7999992371,-0.07654482448418919,0.09136807477690964,0.3281664217392041
1648466113420625346,113626,1,7,0.28475907445,0.102552011609,0.126840621233,-0.566431701183,32.7999992371,0.09523714864548494,0.03429833164180602,0.042421612452508355,32.7999992371,-0.07654482448418919,0.1389841880130819,0.32816640407184655
1648466113615416534,113627,3,0,0.0133139379323,0.0439508594573,0.00942768435925,0.0,31.7999992371,0.004452822050936455,0.014699284099431437,0.0031530716920568557,31.7999992371,0.0,0.015991378973384682,0.04688091533532723
1648466113615534901,113628,3,1,0.0336321368814,0.0146502861753,-0.0291902143508,0.0,31.7999992371,0.011248206314849497,0.0048997612626421405,-0.009762613495250835,31.7999992371,0.0,0.016644877621470478,0.04688091434766458
1648466113615538910,113629,3,2,2.02556586266,-1.0987714529,0.42934268713,0.0,31.7999992371,0.6774467768093646,-0.3674820912709029,0.14359287194983278,31.7999992371,0.0,1.0261146905797764,2.344045842698802
1648466113615540912,113630,3,3,1.01597893238,-0.293005734682,-2.09200525284,0.0,31.7999992371,0.33979228507692305,-0.09799522899063544,-0.6996673086421404,31.7999992371,0.0,0.4904290559301325,2.3440459742732638
1648466113615544546,113631,3,4,0.710689485073,0.0234404578805,0.238773852587,0.0809188112617,31.7999992371,0.23768879099431436,0.007839618020234113,0.07985747578160535,31.7999992371,0.010934974494824324,0.33623411834521033,0.7500946286557529
1648466113615553080,113632,3,5,0.49237754941,-0.0805765762925,0.130414813757,0.566431701183,31.7999992371,0.1646747656889632,-0.026948687723244144,0.04361699456755853,31.7999992371,0.07654482448418919,0.23443930702728752,0.5156900808211179
1648466113720382499,113633,4,0,0.0133139379323,0.0439508594573,0.00942768435925,0.0,26.0,0.004452822050936455,0.014699284099431437,0.0031530716920568557,26.0,0.0,0.015991378973384682,0.04688091533532723
1648466113720388108,113634,4,1,0.0337347723544,0.0146502861753,-0.0290715377778,0.0,26.0,0.011282532559999999,0.0048997612626421405,-0.009722922333712374,26.0,0.0,0.016691277433612105,0.04688091359591267
1648466113720390849,113635,4,2,0.716576695442,0.224149376154,0.267291814089,0.0,26.0,0.23965775767290967,0.07496634653979932,0.08939525554816052,26.0,0.0,0.34711904980732394,0.7969755436396984
1648466113720393784,113636,4,3,2.0416893959,-1.0987714529,0.344611257315,0.0,26.0,0.6828392628428094,-0.3674820912709029,0.11525460110869563,26.0,0.0,1.033238600306947,2.344045906911106
1648466113720395480,113637,4,4,0.452894359827,-0.228544458747,-1.10832333565,0.161837622523,26.0,0.15146968556086957,-0.07643627382842809,-0.37067670088628757,26.0,0.021869948989594594,0.2274393001321272,1.218903805529136
1648466113720397542,113638,4,5,0.520353972912,-0.0351606868207,0.210906609893,0.566431701183,26.0,0.17403142906755853,-0.011759427030334446,0.07053732772341137,26.0,0.07654482448418919,0.24639837810073967,0.562570999181049
1648466113915518673,113639,6,0,0.0133034354076,0.0439508594573,0.00944249983877,0.0,42.7000007629,0.004449309500869565,0.014699284099431437,0.0031580267019297656,42.7000007629,0.0,0.01598942347631253,0.046880915561502146
1648466113915526646,113640,6,1,0.0336233228445,0.0146502861753,-0.0292003657669,0.0,42.7000007629,0.011245258476421405,0.0048997612626421405,-0.009766008617692307,42.7000007629,0.0,0.016640893510684557,0.046880913867419514
1648466113915644509,113641,6,2,0.690366923809,0.10987714678,-0.0763550251722,0.0,42.7000007629,0.23089194776220734,0.03674820962541806,-0.025536797716454847,42.7000007629,0.0,0.3285918653794178,0.7032137418616495
1648466113915649391,113642,6,3,2.02964377403,-1.0987714529,0.409632354975,0.0,42.7000007629,0.6788106267658863,-0.3674820912709029,0.13700078761705684,42.7000007629,0.0,1.0279157657247149,2.344045908554072
1648466113915651823,113643,6,4,0.735176801682,-0.093761831522,0.115610212088,0.161837622523,42.7000007629,0.24587852899063542,-0.03135847208093645,0.038665622771906355,42.7000007629,0.021869948989594594,0.3491358701257268,0.750094615312473
1648466113915655699,113644,6,5,0.412987858057,0.187523663044,-0.597426056862,0.161837622523,42.7000007629,0.13812302945050167,0.0627169441618729,-0.19980804577324413,42.7000007629,0.021869948989594594,0.2051569097402566,0.7500946530416185
1648466113915658749,113645,6,6,0.544751942158,-0.0380907431245,0.270603179932,0.323675245047,42.7000007629,0.1821912850026756,-0.01273937897140468,0.0905027357632107,42.7000007629,0.04373989797932432,0.25797213112743284,0.6094519375520928
