%time,field.header.seq,field.header.frame_id,field.point_id,field.x,field.y,field.z,field.velocity,field.intensity,normalized_x,normalized_y,normalized_z,normalized_intensity,normalized_velocity,normalized_range,range
1648465450399711592,96645,0,0,0.0132963722572,0.0439508594573,0.00945244263858,0.0,34.2000007629,0.004446947243210702,0.014699284099431437,0.003161352053036789,34.2000007629,0.0,0.01598810910031566,0.04688091545685749
1648465450399714295,96646,0,1,0.0337503887713,0.0146502861753,-0.0290534067899,0.0,34.2000007629,0.011287755441906355,0.0048997612626421405,-0.009716858458160534,34.2000007629,0.0,0.01669833842822278,0.04688091374249746
1648465450399716496,96647,0,2,2.09402680397,-1.02552008629,0.240647643805,0.0,34.2000007629,0.7003434126989966,-0.342983306451505,0.0804841618076923,34.2000007629,0.0,1.0481408969819663,2.344045859533887
1648465450399720631,96648,0,3,0.798611581326,-0.105482056737,0.251369863749,0.0809188112617,34.2000007629,0.2670941743565217,-0.035278279845150494,0.08407018854481604,34.2000007629,0.010934974494824324,0.3793720508672414,0.8438564632226696
1648465450699547944,96649,3,0,0.0132963722572,0.0439508594573,0.00945244263858,0.0,22.1000003815,0.004446947243210702,0.014699284099431437,0.003161352053036789,22.1000003815,0.0,0.01598810910031566,0.04688091545685749
1648465450699552420,96650,3,1,0.0336853861809,0.0146502861753,-0.0291287489235,0.0,22.1000003815,0.011266015445117057,0.0048997612626421405,-0.009742056496153846,22.1000003815,0.0,0.016668949230534018,0.04688091446444766
1648465450699558229,96651,3,2,0.857271552086,-0.083506628871,0.226991772652,0.0,22.1000003815,0.28671289367424746,-0.027928638418394644,0.07591698082006688,22.1000003815,0.0,0.40643397451741914,0.8907374113244799
1648465450699560010,96652,3,3,2.16946673393,-0.9713139534,0.257861405611,0.0,22.1000003815,0.7255741585050166,-0.3248541650167224,0.08624127277959866,22.1000003815,0.0,1.0763112688758942,2.39092643345673
