%time,field.header.seq,field.header.frame_id,field.point_id,field.x,field.y,field.z,field.velocity,field.intensity,normalized_x,normalized_y,normalized_z,normalized_intensity,normalized_velocity,normalized_range,range
1648466122120528265,113920,0,0,0.0132858110592,0.0439508594573,0.00946728046983,0.0,27.6000003815,0.004443415069966555,0.014699284099431437,0.003166314538404682,27.6000003815,0.0,0.015986144876229843,0.04688091532842039
1648466122120537156,113921,0,1,0.0336233228445,0.0146502861753,-0.0292003657669,0.0,27.6000003815,0.011245258476421405,0.0048997612626421405,-0.009766008617692307,27.6000003815,0.0,0.016640893510684557,0.046880913867419514
1648466122120552226,113922,0,2,0.645300686359,0.0615312047303,-0.102828539908,0.0,27.6000003815,0.215819627544816,0.020578998237558526,-0.03439081602274247,27.6000003815,0.0,0.3059080228363219,0.6563328222712694
1648466122120568594,113923,0,3,0.669844388962,0.281285494566,0.186625137925,0.0,27.6000003815,0.22402822373311038,0.09407541624280935,0.06241643408862876,27.6000003815,0.0,0.33049580027480374,0.7500946453499315
1648466122120570880,113924,0,4,2.01238417625,-1.0987714529,0.487403362989,0.0,27.6000003815,0.6730381860367892,-0.3674820912709029,0.163011158190301,27.6000003815,0.0,1.0202959801607667,2.344045822244598
1648466122120582068,113925,0,5,0.817790985107,0.0527410283685,0.201320573688,0.242756426334,27.6000003815,0.27350869067123745,0.017639139922575247,0.06733129554782608,27.6000003815,0.03280492247756756,0.3872016877579403,0.8438564361227032
1648466122120675488,113926,0,6,0.303720295429,0.36918720603,-0.695376515388,0.242756426334,27.6000003815,0.10157869412341136,0.12347398194983276,-0.23256739645083613,27.6000003815,0.03280492247756756,0.18942620309287403,0.843856450532242
1648466122120687548,113927,0,7,0.586546719074,-0.0190453715622,0.164413690567,0.323675245047,27.6000003815,0.19616947126220735,-0.006369689485685618,0.05498785637692308,27.6000003815,0.04373989797932432,0.2774986411763705,0.6094519189241079
1648466122120691963,113928,0,8,0.368333280087,-0.0703213736415,0.006781026721,0.485512852669,27.6000003815,0.1231883879889632,-0.023518854060702338,0.0022679019133779264,27.6000003815,0.06560984495527027,0.1757950351032909,0.37504730786111073
1648466122120733172,113929,0,9,0.309849888086,-0.0615312047303,0.0888828635216,0.566431701183,27.6000003815,0.10362872511237457,-0.020578998237558526,0.029726710207892977,27.6000003815,0.07654482448418919,0.1479909473761609,0.32816642992583533
1648466122120739947,113930,0,10,0.246853560209,0.0527410283685,0.124109767377,-0.647350490093,27.6000003815,0.08255971913344481,0.017639139922575247,0.041508283403678924,27.6000003815,-0.08747979595851352,0.11808197874356093,0.2812854966392657
1648466122120775889,113931,0,11,0.217114046216,-0.061531201005,-0.167919427156,-0.647350490093,27.6000003815,0.07261339338327759,-0.020578996991638794,-0.05616034353043478,27.6000003815,-0.08747979595851352,0.10473253990260678,0.28128549869803154
1648466122315651152,113932,2,0,0.0133034354076,0.0439508594573,0.00944249983877,0.0,26.5,0.004449309500869565,0.014699284099431437,0.0031580267019297656,26.5,0.0,0.01598942347631253,0.046880915561502146
1648466122315656838,113933,2,1,0.0336321368814,0.0146502861753,-0.0291902143508,0.0,26.5,0.011248206314849497,0.0048997612626421405,-0.009762613495250835,26.5,0.0,0.016644877621470478,0.04688091434766458
1648466122315661396,113934,2,2,0.698089301586,0.210964113474,0.175520479679,0.0,26.5,0.23347468280468225,0.07055655969030099,0.058702501564882936,26.5,0.0,0.3376375025627707,0.7500946399951451
1648466122315665470,113935,2,3,2.01762962341,-1.0987714529,0.465213596821,0.0,26.5,0.6747925161906354,-0.3674820912709029,0.15558983171270901,26.5,0.0,1.022610858156031,2.3440460092832405
1648466122315818610,113936,2,4,0.600863695145,-0.076181486249,0.0677558109164,0.566431701183,26.5,0.2009577575735786,-0.02547875794280936,0.02266080632655518,26.5,0.07654482448418919,0.2853370073515012,0.6094519250140646
1648466122315822540,113937,2,5,0.382051289082,0.0922968015075,0.15343259275,-0.566431701183,26.5,0.12777635086354514,0.03086849548745819,0.051315248411371236,26.5,-0.07654482448418919,0.18332063630062714,0.42192824932175393
1648466122315966177,113938,2,6,0.353106617928,-0.0659262835979,-0.22134333849,-0.566431701183,26.5,0.11809585883879599,-0.02204892428023411,-0.07402787240468227,26.5,-0.07654482448418919,0.16846192095444346,0.42192823084913395
1648466122420731120,113939,3,0,0.0133084189147,0.0439508594573,0.00943547487259,0.0,30.1000003815,0.004450976225652174,0.014699284099431437,0.003155677214913043,30.1000003815,0.0,0.015990351208101702,0.04688091559596249
1648466122420735872,113940,3,1,0.0336463488638,0.0146502861753,-0.0291738305241,0.0,30.1000003815,0.011252959486220735,0.0048997612626421405,-0.009757133954548495,30.1000003815,0.0,0.016651301895886067,0.0468809136465111
1648466122420756006,113941,3,2,0.696607470512,0.210964113474,0.181312263012,0.0,30.1000003815,0.2329790871277592,0.07055655969030099,0.06063955284682274,30.1000003815,0.0,0.3369521304178073,0.7500946352731304
1648466122420760671,113942,3,3,2.02851819992,-1.0987714529,0.415170818567,0.0,30.1000003815,0.6784341805752508,-0.3674820912709029,0.13885311657759197,30.1000003815,0.0,1.0274185914954335,2.3440459896734636
1648466122420764525,113943,3,4,0.379274696112,-0.0293005723506,-0.273996710777,-0.647350490093,30.1000003815,0.1268477244521739,-0.009799522525284281,-0.09163769591204013,30.1000003815,-0.08747979595851352,0.17965723208129647,0.468809146847134
1648466122420767124,113944,3,5,0.421736478806,0.131852582097,0.156637385488,-0.647350490093,30.1000003815,0.1410489895672241,0.04409785354414715,0.052387085447491634,30.1000003815,-0.08747979595851352,0.204289636553279,0.46880916319313354
1648466122615550711,113945,5,0,0.0133084189147,0.0439508594573,0.00943547487259,0.0,29.7000007629,0.004450976225652174,0.014699284099431437,0.003155677214913043,29.7000007629,0.0,0.015990351208101702,0.04688091559596249
1648466122615556000,113946,5,1,0.0336233228445,0.0146502861753,-0.0292003657669,0.0,29.7000007629,0.011245258476421405,0.0048997612626421405,-0.009766008617692307,29.7000007629,0.0,0.016640893510684557,0.046880913867419514
1648466122615560711,113947,5,2,0.694854259491,0.210964113474,0.187919408083,0.0,29.7000007629,0.23239272892675583,0.07055655969030099,0.06284930036220736,29.7000007629,0.0,0.3361413230047449,0.7500946627199275
1648466122615739081,113948,5,3,2.03896212578,-1.0987714529,0.360396504402,0.0,29.7000007629,0.6819271323678929,-0.3674820912709029,0.12053394796053511,29.7000007629,0.0,1.0320330978819583,2.344045839240021
1648466122615744490,113949,5,4,0.580096364021,-0.0952268540859,0.16078440845,0.323675245047,29.7000007629,0.1940121618799331,-0.03184844618257525,0.053774049648829425,29.7000007629,0.04373989797932432,0.276216873921372,0.609451861339432
1648466122720671007,113950,6,0,0.0132928714156,0.0439508594573,0.00945736560971,0.0,36.7999992371,0.0044457763931772575,0.014699284099431437,0.0031629985316755853,36.7999992371,0.0,0.0159874578502044,0.046880915539084106
1648466122720673167,113951,6,1,0.0336233228445,0.0146502861753,-0.0292003657669,0.0,36.7999992371,0.011245258476421405,0.0048997612626421405,-0.009766008617692307,36.7999992371,0.0,0.016640893510684557,0.046880913867419514
1648466122720674716,113952,6,2,0.699886679649,0.210964113474,0.168210431933,0.0,36.7999992371,0.23407581259163876,0.07055655969030099,0.05625766954280936,36.7999992371,0.0,0.3384689058040679,0.75009464131872
1648466122720676280,113953,6,3,2.03744935989,-1.0987714529,0.368853211403,0.0,36.7999992371,0.6814211905986622,-0.3674820912709029,0.12336227806120399,36.7999992371,0.0,1.0313645162592286,2.344045923480693
1648466122720678443,113954,6,4,0.630278885365,-0.0615312047303,0.172439113259,0.161837622523,36.7999992371,0.21079561383444814,-0.020578998237558526,0.057671944233779256,36.7999992371,0.021869948989594594,0.2988194719092867,0.6563328502170671
