%time,field.header.seq,field.header.frame_id,field.point_id,field.x,field.y,field.z,field.velocity,field.intensity,normalized_x,normalized_y,normalized_z,normalized_intensity,normalized_velocity,normalized_range,range
1648465889909206529,106340,0,0,0.767984330654,-0.250519901514,0.375303864479,0.0,15.1000003815,0.25685094670702335,-0.08378592023879598,0.1255196871167224,15.1000003815,0.0,0.3727799593310378,0.890737415783983
1648465889909239579,106341,0,1,0.761389732361,0.0556710883975,-0.458911329508,0.0,15.1000003815,0.25464539543846154,0.018619093109531772,-0.1534820500026756,15.1000003815,0.0,0.36060397316757664,0.8907374489595223
1648465890014216693,106342,1,0,0.0133364023641,0.0439508594573,0.00939587969333,0.0,12.8999996185,0.004460335238829431,0.014699284099431437,0.003142434680043478,12.8999996185,0.0,0.01599556607067362,0.0468809154162335
1648465890014335506,106343,1,1,0.0336836874485,0.0146502861753,-0.0291307158768,0.0,12.8999996185,0.011265447307190634,0.0048997612626421405,-0.009742714340066889,12.8999996185,0.0,0.016668181259305585,0.046880916081506664
1648465890014347691,106344,1,2,0.770135462284,-0.278355449438,0.350460767746,0.0,12.8999996185,0.25757038872374577,-0.09309546803946488,0.11721095911237457,12.8999996185,0.0,0.3759677864712481,0.8907374114902422
1648465890014363007,106345,1,3,0.357553124428,-0.0586011447012,0.0968616008759,0.161837622523,12.8999996185,0.11958298475852842,-0.019599045050568562,0.032395184239431433,12.8999996185,0.021869948989594594,0.17024776960186908,0.37504733124334855
1648465890014365937,106346,1,4,0.301481544971,-0.11280720681,0.06384832412,0.404594063759,12.8999996185,0.10082994815083611,-0.03772816281270903,0.021353954555183942,12.8999996185,0.05467487348094594,0.14750176662475223,0.328166415648079
1648465890014414244,106347,1,5,0.188929781318,-0.0,-0.268325805664,0.404594063759,12.8999996185,0.06318721783210703,-0.0,-0.08974107212842808,12.8999996185,0.05467487348094594,0.08936022042678883,0.3281664215822545
1648465890209742455,106348,3,0,0.0132630066946,0.0439508594573,0.0094992024824,0.0,28.5,0.004435788192173913,0.014699284099431437,0.0031769907967892975,28.5,0.0,0.015981908109091884,0.046880915535193794
1648465890209746456,106349,3,1,0.0337503887713,0.0146502861753,-0.0290534067899,0.0,28.5,0.011287755441906355,0.0048997612626421405,-0.009716858458160534,28.5,0.0,0.01669833842822278,0.04688091374249746
1648465890209820198,106350,3,2,0.31656768918,0.574291229248,0.0273368488997,0.0,28.5,0.10587548133110367,0.1920706452334448,0.009142758829331103,28.5,0.0,0.2435372001452295,0.6563328584885181
1648465890209823052,106351,3,3,0.875475108624,-0.205104008317,0.265713691711,0.0,28.5,0.29280103967357857,-0.06859665829999999,0.08886745542173913,28.5,0.0,0.4197265767112967,0.9376183050744012
1648465890209825040,106352,3,4,0.244919106364,-0.118667311966,-0.322422295809,-0.647350490093,28.5,0.08191274460334447,-0.03968806420267558,-0.10783354374882942,28.5,-0.08747979595851352,0.12245218616693282,0.42192823610908364
1648465890209885267,106353,3,5,0.402126759291,0.0659262835979,0.109413087368,-0.647350490093,28.5,0.13449055494682274,0.02204892428023411,0.03659300580869565,28.5,-0.08747979595851352,0.19147212277959472,0.42192822742062447
1648465890209887733,106354,3,6,0.333205521107,0.0351606868207,0.168517976999,-0.485512852669,28.5,0.11143997361438127,0.011759427030334446,0.05636052742441471,28.5,-0.06560984495527027,0.15803803201264482,0.37504733270045565
1648465890209891483,106355,3,7,0.303013175726,-0.105482056737,-0.194208756089,-0.485512852669,28.5,0.10134219923946487,-0.035278279845150494,-0.06495276123377926,28.5,-0.06560984495527027,0.14759756001443772,0.3750473168796974
1648465890314466083,106356,4,0,0.0132807390764,0.0439508594573,0.00947439484298,0.0,30.2000007629,0.004441718754648829,0.014699284099431437,0.00316869392741806,30.2000007629,0.0,0.015985202032711258,0.04688091546771928
1648465890314469335,106357,4,1,0.0336091145873,0.0146502861753,-0.0292167179286,0.0,30.2000007629,0.011240506550936455,0.0048997612626421405,-0.009771477568093644,30.2000007629,0.0,0.016634471301312202,0.046880913759010975
1648465890314471849,106358,4,2,0.316412299871,0.574291229248,0.0290799792856,0.0,30.2000007629,0.1058235116625418,0.1920706452334448,0.009725745580468226,30.2000007629,0.0,0.24349202040636989,0.656332845967719
1648465890314534850,106359,4,3,0.786282241344,-0.250519901514,0.335280776024,0.0,30.2000007629,0.26297064927892977,-0.08378592023879598,0.11213403880401338,30.2000007629,0.0,0.38121805465458436,0.8907374376766614
1648465890314559796,106360,4,4,0.794426202774,-0.0249054860324,0.0586236640811,0.0809188112617,30.2000007629,0.2656943821986622,-0.00832959399076923,0.01960657661575251,30.2000007629,0.010934974494824324,0.37584091262116287,0.7969755384443867
1648465890314637458,106361,4,5,0.41217687726,0.0732514336705,0.21101295948,-0.566431701183,30.2000007629,0.1378517984147157,0.02449880724765886,0.07057289614715719,30.2000007629,-0.07654482448418919,0.19648518572376078,0.46880915066911494
1648465890314641820,106362,4,6,0.354658097029,-0.102552004158,-0.28893378377,-0.566431701183,30.2000007629,0.1186147481702341,-0.034298329149832774,-0.09663337249832775,30.2000007629,-0.07654482448418919,0.17121709128894338,0.46880914106777305
1648465890509605228,106363,6,0,0.013252383098,0.0439508594573,0.00951401796192,0.0,40.5999984741,0.004432235149832775,0.014699284099431437,0.003181945806662207,40.5999984741,0.0,0.015979936479305047,0.046880915547706924
1648465890509697385,106364,6,1,0.0337503887713,0.0146502861753,-0.0290534067899,0.0,40.5999984741,0.011287755441906355,0.0048997612626421405,-0.009716858458160534,40.5999984741,0.0,0.01669833842822278,0.04688091374249746
1648465890509802508,106365,6,2,0.31676620245,0.574291229248,0.0249314084649,0.0,40.5999984741,0.10594187372909697,0.1920706452334448,0.008338263700635451,40.5999984741,0.0,0.24359493832765833,0.6563328562046982
1648465890509805589,106366,6,3,0.799131274223,-0.250519901514,0.303384393454,0.0,40.5999984741,0.26726798468996654,-0.08378592023879598,0.10146635232575249,40.5999984741,0.0,0.387149107852174,0.8907373937852342
1648465890509807652,106367,6,4,0.747541546822,0.0234404578805,0.0572207160294,0.242756426334,40.5999984741,0.25001389525819395,0.007839618020234113,0.019137363220535115,40.5999984741,0.03280492247756756,0.35365994296082437,0.7500946804461376
1648465890509810161,106368,6,5,0.249780654907,0.703213751316,0.0757761523128,0.242756426334,40.5999984741,0.083538680570903,0.23518854559063543,0.025343194753444813,40.5999984741,0.03280492247756756,0.2631939860256938,0.7500946479378608
1648465890509811797,106369,6,6,0.580830454826,-0.0190453715622,0.183588832617,0.404594063759,40.5999984741,0.1942576771993311,-0.006369689485685618,0.06140094736354514,40.5999984741,0.05467487348094594,0.2747956754497841,0.6094518872667416
1648465890614482300,106370,7,0,0.0132406326011,0.0439508594573,0.00953036453575,0.0,39.7000007629,0.004428305217759197,0.014699284099431437,0.0031874128882107017,39.7000007629,0.0,0.015977757265619744,0.04688091559362861
1648465890614487936,106371,7,1,0.0336977690458,0.0146502861753,-0.0291144233197,0.0,39.7000007629,0.011270156871505016,0.0048997612626421405,-0.009737265324314381,39.7000007629,0.0,0.016674547437563397,0.04688091476198981
1648465890614493885,106372,7,2,0.316521257162,0.574291229248,0.0278693567961,0.0,39.7000007629,0.10585995222809365,0.1920706452334448,0.009320855115752508,39.7000007629,0.0,0.24352369850152236,0.6563328601211584
1648465890614495922,106373,7,3,0.843167901039,-0.234404578805,0.336527109146,0.0,39.7000007629,0.28199595352474915,-0.07839618020234114,0.11255087262408026,39.7000007629,0.0,0.4064349845657764,0.9376183184523573
1648465890614497895,106374,7,4,0.755642712116,0.527410328388,0.173119992018,0.0,39.7000007629,0.2527233150889632,0.1763914141765886,0.05789966288227424,39.7000007629,0.0,0.39856251576675844,0.9376183096018733
1648465890614499972,106375,7,5,0.636329948902,-0.0205104015768,0.15948754549,0.323675245047,39.7000007629,0.2128193809036789,-0.006859666079197324,0.0533403162173913,39.7000007629,0.04373989797932432,0.30105021640113205,0.6563328100962867
