%time,field.header.seq,field.header.frame_id,field.point_id,field.x,field.y,field.z,field.velocity,field.intensity,normalized_x,normalized_y,normalized_z,normalized_intensity,normalized_velocity,normalized_range,range
1648465846408011866,105003,0,0,0.0132299559191,0.0439508594573,0.00954518001527,0.0,17.7999992371,0.004424734421103679,0.014699284099431437,0.0031923678980836116,17.7999992371,0.0,0.01597577861734436,0.04688091554332718
1648465846408024713,105004,0,1,0.0336977690458,0.0146502861753,-0.0291144233197,0.0,17.7999992371,0.011270156871505016,0.0048997612626421405,-0.009737265324314381,17.7999992371,0.0,0.016674547437563397,0.04688091476198981
1648465846408175158,105005,0,2,0.316656649113,0.574291229248,0.0262861493975,0.0,17.7999992371,0.10590523381705685,0.1920706452334448,0.00879135431354515,17.7999992371,0.0,0.24356307162639163,0.6563328508225078
1648465846408180103,105006,0,3,0.789348185062,-0.0996219441295,0.0466367341578,0.0,17.7999992371,0.26399604851571906,-0.033318375963043476,0.015597569952441472,17.7999992371,0.0,0.374830550303257,0.7969755792906832
1648465846408187555,105007,0,4,0.462750047445,0.647542655468,0.0414842814207,0.0,17.7999992371,0.1547659021555184,0.21656944998929767,0.013874341612274247,17.7999992371,0.0,0.3079079336566206,0.7969755596415053
1648465846408197252,105008,0,5,0.80846196413,-0.250519901514,0.277564674616,0.0,17.7999992371,0.27038861676588627,-0.08378592023879598,0.09283099485484948,17.7999992371,0.0,0.391458923238953,0.8907374007496304
1648465846408201838,105009,0,6,0.482724219561,0.0483459457755,0.174860656261,0.323675245047,17.7999992371,0.1614462272779264,0.016169212633946488,0.058481824836454845,17.7999992371,0.04373989797932432,0.2288912668533981,0.5156900733306117
1648465846408204333,105010,0,7,0.418790221214,-0.0586011447012,0.20239238441,0.404594063759,17.7999992371,0.14006361913511706,-0.019599045050568562,0.06768976067224079,17.7999992371,0.05467487348094594,0.19904712350935513,0.4688091518005245
1648465846408208719,105011,0,8,0.262491255999,0.102552004158,-0.374651104212,0.404594063759,17.7999992371,0.08778971772541805,0.034298329149832774,-0.12530137264615382,17.7999992371,0.05467487348094594,0.12880389923867766,0.4688091540488793
1648465846513080650,105012,1,0,0.0132584534585,0.0439508594573,0.00950555689633,0.0,29.2000007629,0.0044342653707357856,0.014699284099431437,0.0031791160188394648,29.2000007629,0.0,0.015981062911834463,0.04688091559532422
1648465846513083757,105013,1,1,0.0337503887713,0.0146502861753,-0.0290534067899,0.0,29.2000007629,0.011287755441906355,0.0048997612626421405,-0.009716858458160534,29.2000007629,0.0,0.01669833842822278,0.04688091374249746
1648465846513087737,105014,1,2,0.334686934948,0.615312039852,0.0623322613537,0.0,29.2000007629,0.11193542974849498,0.20578997988361203,0.020846910151739128,29.2000007629,0.0,0.2596316557865353,0.7032137382170388
1648465846513228128,105015,1,3,0.811256766319,-0.22268435359,0.292723864317,0.0,29.2000007629,0.2713233332170568,-0.07447637243812709,0.09790095796555183,29.2000007629,0.0,0.390870096512346,0.8907374040494955
1648465846513230368,105016,1,4,0.509143590927,0.0175803434104,0.238641694188,0.323675245047,29.2000007629,0.17028213743377926,0.005879713515183946,0.07981327564816053,29.2000007629,0.04373989797932432,0.24088707663354134,0.5625709936189269
1648465846513232102,105017,1,5,0.436959177256,0.0161153152585,0.273392111063,0.404594063759,29.2000007629,0.14614019306220735,0.005389737544648829,0.09143548864983277,29.2000007629,0.05467487348094594,0.20674370928112584,0.5156900933366909
1648465846513233884,105018,1,6,0.3705060184,0.193383783102,-0.302099734545,0.404594063759,29.2000007629,0.12391505632107024,0.06467685053578595,-0.1010367005167224,29.2000007629,0.05467487348094594,0.18679662031561603,0.5156900685970421
1648465846708163167,105019,3,0,0.0132630066946,0.0439508594573,0.0094992024824,0.0,29.2000007629,0.004435788192173913,0.014699284099431437,0.0031769907967892975,29.2000007629,0.0,0.015981908109091884,0.046880915535193794
1648465846708318943,105020,3,1,0.033736359328,0.0146502861753,-0.029069699347,0.0,29.2000007629,0.011283063320401339,0.0048997612626421405,-0.009722307473913042,29.2000007629,0.0,0.016691994974096437,0.046880915582474404
1648465846708322826,105021,3,2,0.31674310565,0.574291229248,0.0252232458442,0.0,29.2000007629,0.10593414904682275,0.1920706452334448,0.008435868175317725,29.2000007629,0.0,0.24358821939687628,0.6563328599871432
1648465846708436355,105022,3,3,0.780469894409,-0.0747164562345,0.143018305302,0.0,29.2000007629,0.2610267205381271,-0.024988781349331104,0.04783220913110367,29.2000007629,0.0,0.3699923470331564,0.7969755583218934
1648465846708441002,105023,3,4,0.575849831104,0.0190453715622,0.198660120368,0.404594063759,29.2000007629,0.19259191675719062,0.006369689485685618,0.06644151182876254,29.2000007629,0.05467487348094594,0.2724405728678483,0.6094518829120769
1648465846708448405,105024,3,5,0.553426980972,0.0190453715622,0.254533797503,0.566431701183,29.2000007629,0.18509263577658863,0.006369689485685618,0.0851283603688963,29.2000007629,0.07654482448418919,0.261838004463817,0.6094518877787015
1648465846813084607,105025,4,0,0.0133139379323,0.0439508594573,0.00942768435925,0.0,39.4000015259,0.004452822050936455,0.014699284099431437,0.0031530716920568557,39.4000015259,0.0,0.015991378973384682,0.04688091533532723
1648465846813095619,105026,4,1,0.0337503887713,0.0146502861753,-0.0290534067899,0.0,39.4000015259,0.011287755441906355,0.0048997612626421405,-0.009716858458160534,39.4000015259,0.0,0.01669833842822278,0.04688091374249746
1648465846813100637,105027,4,2,0.316773146391,0.574291229248,0.0248429961503,0.0,39.4000015259,0.1059441961173913,0.1920706452334448,0.008308694364648829,39.4000015259,0.0,0.24359695840119258,0.6563328551301973
1648465846813105788,105028,4,3,0.740800738335,-0.117202289402,0.0109474798664,0.0,39.4000015259,0.24775944425919733,-0.03919809010100334,0.003661364503812709,39.4000015259,0.0,0.35257052444414433,0.7500946326125635
1648465846813110903,105029,4,4,0.429298222065,0.609451889992,0.0831468999386,0.0,39.4000015259,0.14357800069063545,0.20383006354247488,0.027808327738662205,39.4000015259,0.0,0.2877081496384306,0.7500946451297933
1648465846813118484,105030,4,5,0.570223391056,0.0410208031535,0.322390139103,0.566431701183,39.4000015259,0.1907101642327759,0.013719332158361203,0.10782278899765886,39.4000015259,0.07654482448418919,0.2700536123777206,0.6563328605133326
1648465847008094438,105031,6,0,0.0132701778784,0.0439508594573,0.00948918238282,0.0,38.9000015259,0.0044381865814046816,0.014699284099431437,0.0031736395929163877,38.9000015259,0.0,0.015983239762279708,0.04688091562943427
1648465847008101814,105032,6,1,0.033727504313,0.0146502861753,-0.0290799699724,0.0,38.9000015259,0.011280101776923075,0.0048997612626421405,-0.00972574246568562,38.9000015259,0.0,0.0166879912699634,0.04688091387544942
1648465847008150026,105033,6,2,0.315164804459,0.574291229248,0.04041717574,0.0,38.9000015259,0.10540628911672241,0.1920706452334448,0.013517450080267557,38.9000015259,0.0,0.24312980963079775,0.656332856145155
1648465847008240114,105034,6,3,0.747008144855,0.0498109720647,0.273254007101,0.0,38.9000015259,0.249835499951505,0.016659187981505015,0.09138930003377926,38.9000015259,0.0,0.35371327741016456,0.7969755666358237
1648465847008266659,105035,6,4,0.727168262005,-0.199243888259,-0.258260041475,0.0,38.9000015259,0.24320008762709028,-0.06663675192608695,-0.08637459581103678,38.9000015259,0.0,0.3503327303448932,0.7969755688216583
1648465847008269817,105036,6,5,1.63093709946,0.158223092556,0.404208689928,0.242756426334,38.9000015259,0.5454639128628762,0.05291742225953177,0.13518685281872908,38.9000015259,0.03280492247756756,0.773215373650804,1.6877129597257623
1648465847008386618,105037,6,6,0.704510986805,0.0234404578805,0.256430894136,0.323675245047,38.9000015259,0.23562240361371237,0.007839618020234113,0.08576284084816053,38.9000015259,0.04373989797932432,0.3333126066924405,0.7500946534018162
