%time,field.header.seq,field.header.frame_id,field.point_id,field.x,field.y,field.z,field.velocity,field.intensity,normalized_x,normalized_y,normalized_z,normalized_intensity,normalized_velocity,normalized_range,range
1648465516100044300,97940,0,0,0.0132512515411,0.0439508594573,0.00951559375972,0.0,27.7000007629,0.0044318567027090295,0.014699284099431437,0.0031824728293377924,27.7000007629,0.0,0.01597972655280721,0.046880915509841144
1648465516100070385,97941,0,1,0.0337223596871,0.0146502861753,-0.0290859378874,0.0,27.7000007629,0.011278381166254181,0.0048997612626421405,-0.009727738423879598,27.7000007629,0.0,0.016685665221786113,0.0468809152072997
1648465516100093472,97942,0,2,0.827691316605,-0.105482056737,0.126072689891,0.0,27.7000007629,0.2768198383294314,-0.035278279845150494,0.0421647792277592,27.7000007629,0.0,0.3930686998659367,0.8438564469227797
1648465516100101058,97943,0,3,2.06302189827,-1.0987714529,0.17661626637,0.0,27.7000007629,0.6899738790200669,-0.3674820912709029,0.05906898540802675,27.7000007629,0.0,1.0426749229097398,2.344045938968776
1648465516100106635,97944,0,4,0.648914515972,-0.082041606307,0.0543318167329,0.161837622523,27.7000007629,0.21702826621137122,-0.027438664316722407,0.0181711761648495,27.7000007629,0.021869948989594594,0.308148368434612,0.6563328580180222
1648465516100109259,97945,0,5,0.355295717716,0.046880915761,0.110578685999,0.242756426334,27.7000007629,0.11882799923612039,0.015679236040468225,0.03698283812675585,27.7000007629,0.03280492247756756,0.16877803544220907,0.3750473477938258
1648465516100134372,97946,0,6,0.174528315663,0.187523663044,-0.273925602436,0.242756426334,27.7000007629,0.058370674134782606,0.0627169441618729,-0.09161391385819398,27.7000007629,0.03280492247756756,0.10367104843157246,0.37504732080036113
1648465516100144450,97947,0,7,0.236181378365,0.0703213736415,0.135627403855,-0.647350490093,27.7000007629,0.07899042754682274,0.023518854060702338,0.045360335737458186,27.7000007629,-0.08747979595851352,0.11415827514634373,0.2812854986551315
1648465516100150883,97948,0,8,0.219862118363,-0.0351606868207,-0.171889230609,-0.647350490093,27.7000007629,0.07353248105785952,-0.011759427030334446,-0.05748803699297658,27.7000007629,-0.08747979595851352,0.1046534073269031,0.2812855001384237
1648465516400046977,97949,3,0,0.0133243817836,0.0439508594573,0.00941291917115,0.0,34.7000007629,0.004456314977792642,0.014699284099431437,0.0031481335020568557,34.7000007629,0.0,0.015993324838769328,0.04688091556564432
1648465516400053665,97950,3,1,0.0336696356535,0.0146502861753,-0.0291469544172,0.0,34.7000007629,0.011260747710200669,0.0048997612626421405,-0.009748145290033443,34.7000007629,0.0,0.01666182878367401,0.04688091511325221
1648465516400058305,97951,3,2,0.866507470608,-0.083506628871,0.188691705465,0.0,34.7000007629,0.2898018296347826,-0.027928638418394644,0.06310759380100334,34.7000007629,0.0,0.410792173444481,0.8907373986737973
1648465516400060040,97952,3,3,0.378434926271,-0.0483459457755,-0.346966743469,-0.647350490093,34.7000007629,0.12656686497357858,-0.016169212633946488,-0.1160423891200669,34.7000007629,-0.08747979595851352,0.17972141234611397,0.5156900667728124
1648465516400066006,97953,3,4,0.467773288488,0.145037829876,0.161519169807,-0.647350490093,34.7000007629,0.15644591588227422,0.048507635410033445,0.05401978923311037,34.7000007629,-0.08747979595851352,0.22650306815926352,0.5156900849668914
1648465516504971802,97954,4,0,0.0133243817836,0.0439508594573,0.00941291917115,0.0,32.0999984741,0.004456314977792642,0.014699284099431437,0.0031481335020568557,32.0999984741,0.0,0.015993324838769328,0.04688091556564432
1648465516504978748,97955,4,1,0.0336607210338,0.0146502861753,-0.0291572511196,0.0,32.0999984741,0.011257766232040134,0.0048997612626421405,-0.0097515890032107,32.0999984741,0.0,0.016657798819214222,0.046880916356070806
1648465516504984623,97956,4,2,2.06118750572,-1.0987714529,0.196872338653,0.0,32.0999984741,0.68936036980602,-0.3674820912709029,0.06584359152274247,32.0999984741,0.0,1.0418630074645232,2.344045937512939
1648465516505000094,97957,4,3,0.84740293026,-0.083506628871,0.261434614658,0.0809188112617,32.0999984741,0.28341235125752506,-0.027928638418394644,0.08743632597257524,32.0999984741,0.010934974494824324,0.40177746394558145,0.8907374141799649
1648465516505012751,97958,4,4,0.553793430328,0.0703213736415,0.0696697235107,0.323675245047,32.0999984741,0.18521519408963208,0.023518854060702338,0.023300910873143812,32.0999984741,0.04373989797932432,0.2629875904670195,0.562570999465257
1648465516505095207,97959,4,5,0.542225062847,0.133317604661,0.24423353374,-0.647350490093,32.0999984741,0.18134617486521737,0.0445878276458194,0.08168345610033445,32.0999984741,-0.08747979595851352,0.2603093249398978,0.6094519025280891
1648465516505100419,97960,4,6,0.490522712469,-0.0952268540859,-0.348928242922,-0.647350490093,32.0999984741,0.16405441888595315,-0.03184844618257525,-0.11669840900401336,32.0999984741,-0.08747979595851352,0.2341837488731017,0.6094518880893526
1648465516505163403,97961,4,7,0.483748376369,0.12306240201,0.259478867054,-0.566431701183,32.0999984741,0.1617887546384615,0.04115799398327759,0.08678222978394648,32.0999984741,-0.07654482448418919,0.232476198187376,0.5625709989643457
1648465516505253083,97962,4,8,0.465628653765,-0.0879017189145,-0.303231537342,-0.566431701183,32.0999984741,0.15572864674414716,-0.02939856819882943,-0.10141522988026755,32.0999984741,-0.07654482448418919,0.22218708028521364,0.5625709916392088
1648465516700066579,97963,6,0,0.0133139379323,0.0439508594573,0.00942768435925,0.0,44.5,0.004452822050936455,0.014699284099431437,0.0031530716920568557,44.5,0.0,0.015991378973384682,0.04688091533532723
1648465516700071500,97964,6,1,0.033736359328,0.0146502861753,-0.029069699347,0.0,44.5,0.011283063320401339,0.0048997612626421405,-0.009722307473913042,44.5,0.0,0.016691994974096437,0.046880915582474404
1648465516700076162,97965,6,2,2.06018853188,-1.0987714529,0.207064345479,0.0,44.5,0.6890262648428094,-0.3674820912709029,0.06925228945785952,44.5,0.0,1.041420892190714,2.3440458902859587
1648465516700080749,97966,6,3,0.840957701206,-0.111342176795,0.271673113108,0.0809188112617,44.5,0.2812567562561873,-0.037238186219063545,0.0908605729458194,44.5,0.010934974494824324,0.3994964435290887,0.8907374562332726
1648465516700086607,97967,6,4,0.598430335522,0.114272229373,0.0159552134573,0.161837622523,44.5,0.2001439249237458,0.03821813691404682,0.00533619179173913,44.5,0.021869948989594594,0.28561478840729665,0.6094518666107415
1648465516700201019,97968,6,5,0.616620600224,0.0615312047303,0.216253876686,0.242756426334,44.5,0.20622762549297657,0.020578998237558526,0.07232571126622073,44.5,0.03280492247756756,0.2923750368985086,0.6563328370254621
1648465516700202776,97969,6,6,0.644410192966,-0.0,0.281505048275,0.404594063759,44.5,0.21552180366755852,-0.0,0.09414884557692307,44.5,0.05467487348094594,0.3047938577337727,0.7032137576887894
