%time,field.header.seq,field.header.frame_id,field.point_id,field.x,field.y,field.z,field.velocity,field.intensity,normalized_x,normalized_y,normalized_z,normalized_intensity,normalized_velocity,normalized_range,range
1648465900609835392,106680,0,0,0.0133139379323,0.0439508594573,0.00942768435925,0.0,19.7999992371,0.004452822050936455,0.014699284099431437,0.0031530716920568557,19.7999992371,0.0,0.015991378973384682,0.04688091533532723
1648465900609838399,106681,0,1,0.0336836874485,0.0146502861753,-0.0291307158768,0.0,19.7999992371,0.011265447307190634,0.0048997612626421405,-0.009742714340066889,19.7999992371,0.0,0.016668181259305585,0.046880916081506664
1648465900609840374,106682,0,2,0.823067605495,-0.263705164194,0.363520920277,0.0,19.7999992371,0.2752734466538461,-0.0881957070882943,0.12157890310267558,19.7999992371,0.0,0.39916089940546523,0.9376183425663634
1648465900609842814,106683,0,3,0.747295737267,0.498109728098,0.269376844168,0.0,19.7999992371,0.24993168470468227,0.1665918823070234,0.09009259002274247,19.7999992371,0.0,0.3907487035029528,0.9376183148473604
1648465900714806304,106684,1,0,0.265027225018,-0.079111546278,0.0512197129428,0.161837622523,11.6999998093,0.08863786789899665,-0.026458711129765885,0.017130338776856185,11.6999998093,0.021869948989594594,0.12811481821400816,0.2812854879818378
1648465900714810128,106685,1,1,0.215113297105,0.0439508594573,0.175829812884,0.161837622523,11.6999998093,0.07194424652341136,0.014699284099431437,0.05880595748628761,11.6999998093,0.021869948989594594,0.10280086657552344,0.2812854986259366
1648465900909711320,106686,3,0,0.0133364023641,0.0439508594573,0.00939587969333,0.0,22.5,0.004460335238829431,0.014699284099431437,0.003142434680043478,22.5,0.0,0.01599556607067362,0.0468809154162335
1648465900909719611,106687,3,1,0.0336607210338,0.0146502861753,-0.0291572511196,0.0,22.5,0.011257766232040134,0.0048997612626421405,-0.0097515890032107,22.5,0.0,0.016657798819214222,0.046880916356070806
1648465900909722800,106688,3,2,0.316536098719,0.574291229248,0.0277000423521,0.0,22.5,0.10586491595953176,0.1920706452334448,0.009264228211404681,22.5,0.0,0.24352801404074495,0.6563328501071172
1648465900909727038,106689,3,3,0.865350842476,-0.234404578805,0.27450042963,0.0,22.5,0.28941499748361205,-0.07839618020234114,0.09180616375585283,22.5,0.0,0.41673497886210165,0.9376182981393479
1648465900909735407,106690,3,4,0.710180938244,0.46880915761,0.393686532974,0.0,22.5,0.23751870844280934,0.15679236040468228,0.131667736780602,22.5,0.0,0.3706941030040164,0.9376183005622354
1648465900909841955,106691,3,5,0.247732371092,0.0175803434104,0.132064893842,0.242756426334,22.5,0.0828536358167224,0.005879713515183946,0.0441688608167224,22.5,0.03280492247756756,0.11732016436708896,0.2812854997094424
1648465900909844317,106692,3,6,0.421415567398,-0.0732514336705,0.191898852587,0.404594063759,22.5,0.14094166133712374,-0.02449880724765886,0.06418021825652175,22.5,0.05467487348094594,0.20082155102850618,0.4688091537122213
1648465900909953611,106693,3,7,0.345734745264,0.117202289402,-0.29413112998,0.404594063759,22.5,0.11563034958662206,0.03919809010100334,-0.09837161537792642,22.5,0.05467487348094594,0.16815839485025788,0.46880914277256236
1648465901014879445,106694,4,0,0.0133139379323,0.0439508594573,0.00942768435925,0.0,18.0,0.004452822050936455,0.014699284099431437,0.0031530716920568557,18.0,0.0,0.015991378973384682,0.04688091533532723
1648465901014885590,106695,4,1,0.0336977690458,0.0146502861753,-0.0291144233197,0.0,18.0,0.011270156871505016,0.0048997612626421405,-0.009737265324314381,18.0,0.0,0.016674547437563397,0.04688091476198981
1648465901014892917,106696,4,2,0.73646658659,-0.140642747283,0.0218744166195,0.0,18.0,0.24630989518060198,-0.047037708121404675,0.007315858401170568,18.0,0.0,0.35149633698386207,0.7500945977870253
1648465901014922583,106697,4,3,0.84934669733,-0.205104008317,0.340103894472,0.0,18.0,0.2840624405785953,-0.06859665829999999,0.11374712189698996,18.0,0.0,0.40753949725745964,0.9376183261477454
1648465901014938364,106698,4,4,0.837245225906,0.410208016634,0.0993881300092,0.0,18.0,0.28001512572107023,0.13719331659999998,0.033240177260602,18.0,0.0,0.4190930056501556,0.9376183581820029
1648465901014940336,106699,4,5,0.395607680082,0.0263705141842,0.144300311804,0.242756426334,18.0,0.13231026089698994,0.008819569961270902,0.04826097384749163,18.0,0.03280492247756756,0.18732270308630727,0.42192821728930713
1648465901014947816,106700,4,6,0.282463878393,-0.0410208031535,0.161940261722,0.404594063759,18.0,0.09446952454615384,-0.013719332158361203,0.05416062264949832,18.0,0.05467487348094594,0.13430265154055662,0.3281664170124109
1648465901209849253,106701,6,0,0.0132630066946,0.0439508594573,0.0094992024824,0.0,27.8999996185,0.004435788192173913,0.014699284099431437,0.0031769907967892975,27.8999996185,0.0,0.015981908109091884,0.046880915535193794
1648465901209860819,106702,6,1,0.0336977690458,0.0146502861753,-0.0291144233197,0.0,27.8999996185,0.011270156871505016,0.0048997612626421405,-0.009737265324314381,27.8999996185,0.0,0.016674547437563397,0.04688091476198981
1648465901209866233,106703,6,2,0.316520094872,0.574291229248,0.0278824232519,0.0,27.8999996185,0.10585956350234113,0.1920706452334448,0.009325225167859531,27.8999996185,0.0,0.243523360543099,0.6563328545603647
1648465901209869064,106704,6,3,0.852771103382,-0.263705164194,0.287000268698,0.0,27.8999996185,0.285207726883612,-0.0881957070882943,0.09598671193913043,27.8999996185,0.0,0.41287453021110204,0.9376183245962412
1648465901209873104,106705,6,4,0.50850880146,0.064461261034,0.0565670095384,0.323675245047,27.8999996185,0.17006983326421404,0.021558950178595316,0.0189187322870903,27.8999996185,0.04373989797932432,0.2414793670395843,0.5156901025853575
1648465901209946938,106706,6,5,0.320130258799,-0.039555773139,0.271984159946,0.566431701183,27.8999996185,0.1070669761869565,-0.013229355564882942,0.09096460198862875,27.8999996185,0.07654482448418919,0.15199240319272117,0.42192822262663354
1648465901209949810,106707,6,6,0.409746497869,0.0922968015075,0.040156584233,0.566431701183,27.8999996185,0.1370389624979933,0.03086849548745819,0.013430295730100334,27.8999996185,0.07654482448418919,0.19624530185131073,0.4219282443042743
1648465901209953339,106708,6,7,1.38690555096,-0.0,0.434278875589,0.566431701183,27.8999996185,0.463848010354515,-0.0,0.1452437711,27.8999996185,0.07654482448418919,0.6559801471231309,1.4533083461765803
