%time,field.header.seq,field.header.frame_id,field.point_id,field.x,field.y,field.z,field.velocity,field.intensity,normalized_x,normalized_y,normalized_z,normalized_intensity,normalized_velocity,normalized_range,range
1648465864008360699,105548,0,0,0.0132478391752,0.0439508594573,0.00952034443617,0.0,15.5,0.004430715443210702,0.014699284099431437,0.0031840616843377923,15.5,0.0,0.015979093582340943,0.046880915605719706
1648465864008376881,105549,0,1,0.0336977690458,0.0146502861753,-0.0291144233197,0.0,15.5,0.011270156871505016,0.0048997612626421405,-0.009737265324314381,15.5,0.0,0.016674547437563397,0.04688091476198981
1648465864008433738,105550,0,2,0.31649762392,0.574291229248,0.0281364712864,0.0,15.5,0.10585204813377927,0.1920706452334448,0.009410191065685618,15.5,0.0,0.24351682682850412,0.6563328598772388
1648465864008444427,105551,0,3,0.735776603222,-0.140642747283,0.0386568903923,0.0,15.5,0.24607913151237457,-0.047037708121404675,0.012928725883712373,15.5,0.0,0.3511729259454429,0.7500946256220055
1648465864008466352,105552,0,4,0.417992651463,-0.0,0.057494096458,0.161837622523,15.5,0.13979687339899666,-0.0,0.019228794802006687,15.5,0.021869948989594594,0.19770263433821564,0.421928225892261
1648465864008575320,105553,0,5,0.288295656443,-0.123062409461,0.0971311926842,0.323675245047,15.5,0.0964199519876254,-0.041157996475250834,0.0324853487238127,15.5,0.04373989797932432,0.14243452866650255,0.32816643755646663
1648465864008577868,105554,0,6,0.231361463666,-0.0175803434104,0.159010499716,0.404594063759,15.5,0.07737841594180601,-0.005879713515183946,0.053180769135785955,15.5,0.05467487348094594,0.10958745155512521,0.2812855032951991
1648465864008583871,105555,0,7,0.231799781322,0.0703213736415,-0.142987042665,0.404594063759,15.5,0.07752501047558527,0.023518854060702338,-0.04782175339966555,15.5,0.05467487348094594,0.11213113303096436,0.281285493017036
1648465864110081337,105556,1,0,0.0132406326011,0.0439508594573,0.00953036453575,0.0,26.5,0.004428305217759197,0.014699284099431437,0.0031874128882107017,26.5,0.0,0.015977757265619744,0.04688091559362861
1648465864110088262,105557,1,1,0.0336977690458,0.0146502861753,-0.0291144233197,0.0,26.5,0.011270156871505016,0.0048997612626421405,-0.009737265324314381,26.5,0.0,0.016674547437563397,0.04688091476198981
1648465864110096017,105558,1,2,0.316535770893,0.574291229248,0.0277037192136,0.0,26.5,0.10586480631872909,0.1920706452334448,0.0092654579309699,26.5,0.0,0.24352791871610094,0.6563328471928482
1648465864110240806,105559,1,3,0.784590184689,-0.0996219441295,0.0983044952154,0.0,26.5,0.2624047440431438,-0.033318375963043476,0.03287775759712374,26.5,0.0,0.37258906796833197,0.79697557267586
1648465864110243900,105560,1,4,0.407919049263,0.0263705141842,0.104546926916,0.242756426334,26.5,0.13642777567324413,0.008819569961270902,0.03496552739665552,26.5,0.03280492247756756,0.19313948525508653,0.42192821035994776
1648465864110247076,105561,1,5,0.280658990145,-0.0307656023651,0.167263910174,0.566431701183,26.5,0.0938658829916388,-0.01028949911876254,0.055941107081605344,26.5,0.07654482448418919,0.1331445897200298,0.3281664313801681
1648465864110254661,105562,1,6,0.249806106091,0.082041606307,-0.196365177631,0.566431701183,26.5,0.08354719267257525,0.027438664316722407,-0.06567397245183947,26.5,0.07654482448418919,0.12129776216576545,0.3281664193543192
1648465864110338551,105563,1,7,0.473294138908,0.105482056737,0.285223275423,-0.566431701183,26.5,0.15829235414983275,0.035278279845150494,0.09539239980702341,26.5,-0.07654482448418919,0.22662192257904992,0.5625709937964785
1648465864213513362,105564,2,0,0.0132630066946,0.0439508594573,0.0094992024824,0.0,22.7999992371,0.004435788192173913,0.014699284099431437,0.0031769907967892975,22.7999992371,0.0,0.015981908109091884,0.046880915535193794
1648465864213521296,105565,2,1,0.0336977690458,0.0146502861753,-0.0291144233197,0.0,22.7999992371,0.011270156871505016,0.0048997612626421405,-0.009737265324314381,22.7999992371,0.0,0.016674547437563397,0.04688091476198981
1648465864213646870,105566,2,2,0.372298598289,0.593336582184,0.0620889030397,0.0,22.7999992371,0.12451458136755852,0.19844032848963208,0.020765519411270902,22.7999992371,0.0,0.265304213908015,0.7032137498132541
1648465864213650167,105567,2,3,0.77892011404,-0.0747164562345,0.151231348515,0.0,22.7999992371,0.26050839934448156,-0.024988781349331104,0.05057904632608695,22.7999992371,0.0,0.3692610072176217,0.7969755414452779
1648465864213690133,105568,2,4,0.76272302866,-0.306190997362,0.343385726213,0.0,22.7999992371,0.25509131393311035,-0.10240501584013377,0.11484472448595318,22.7999992371,0.0,0.3750065921520039,0.8907373924342958
1648465864213696933,105569,2,5,0.72682762146,0.473204255104,0.203008636832,0.0,22.7999992371,0.24308616102341135,0.15826229267692307,0.06789586516120401,22.7999992371,0.0,0.37845569971339554,0.8907374276374151
1648465864213699181,105570,2,6,0.445897907019,0.0146502861753,0.144022360444,0.404594063759,22.7999992371,0.14912973478896321,0.0048997612626421405,0.048168013526421395,22.7999992371,0.05467487348094594,0.21095820263000892,0.4688091452572192
1648465864213701279,105571,2,7,0.37135207653,-0.0527410283685,0.193234190345,0.566431701183,22.7999992371,0.12419801890635451,-0.017639139922575247,0.06462681951337793,22.7999992371,0.07654482448418919,0.17652601807590454,0.42192823220874615
1648465864213886073,105572,2,8,1.15533089638,-0.131852582097,-0.79111546278,-0.647350490093,22.7999992371,0.3863982931036789,-0.04409785354414715,-0.26458711129765883,22.7999992371,-0.08747979595851352,0.5482261417645771,1.4064274808839146
1648465864213896720,105573,2,9,1.244135499,0.439508587122,0.486823707819,-0.647350490093,22.7999992371,0.4160988290969899,0.14699283850234113,0.1628172935849498,22.7999992371,-0.08747979595851352,0.6065338949496123,1.4064274814296664
1648465864213901359,105574,2,10,0.339913785458,-0.093761831522,-0.127780407667,-0.566431701183,22.7999992371,0.11368354028695651,-0.03135847208093645,-0.042735922296655515,22.7999992371,-0.07654482448418919,0.16380246773355706,0.37504732391831813
1648465864213929433,105575,2,11,0.288512974977,0.0351606868207,0.237032666802,-0.566431701183,22.7999992371,0.0964926337715719,0.011759427030334446,0.0792751393986622,22.7999992371,-0.07654482448418919,0.13696693348553568,0.3750473246925651
1648465864408630312,105576,4,0,0.0132478391752,0.0439508594573,0.00952034443617,0.0,25.5,0.004430715443210702,0.014699284099431437,0.0031840616843377923,25.5,0.0,0.015979093582340943,0.046880915605719706
1648465864408638245,105577,4,1,0.0336977690458,0.0146502861753,-0.0291144233197,0.0,25.5,0.011270156871505016,0.0048997612626421405,-0.009737265324314381,25.5,0.0,0.016674547437563397,0.04688091476198981
1648465864408767410,105578,4,2,0.740197956562,-0.117202289402,0.0318220928311,0.0,25.5,0.24755784500401337,-0.03919809010100334,0.01064284041173913,25.5,0.0,0.35228718897176575,0.750094685444299
1648465864408771406,105579,4,3,0.85151386261,-0.263705164194,0.290709167719,0.0,25.5,0.28478724502006686,-0.0881957070882943,0.09722714639431437,25.5,0.0,0.41229362425466076,0.9376183082872582
1648465864408774146,105580,4,4,0.479914307594,-0.0161153152585,0.188039422035,0.485512852669,25.5,0.16050645738929764,-0.005389737544648829,0.0628894388076923,25.5,0.06560984495527027,0.2270543877535183,0.5156900912937596
