%time,field.header.seq,field.header.frame_id,field.point_id,field.x,field.y,field.z,field.velocity,field.intensity,normalized_x,normalized_y,normalized_z,normalized_intensity,normalized_velocity,normalized_range,range
1648465454599579347,96715,0,0,0.0133139379323,0.0439508594573,0.00942768435925,0.0,36.5,0.004452822050936455,0.014699284099431437,0.0031530716920568557,36.5,0.0,0.015991378973384682,0.04688091533532723
1648465454599593267,96716,0,1,0.0337065607309,0.0146502861753,-0.029104243964,0.0,36.5,0.011273097234414714,0.0048997612626421405,-0.009733860857525083,36.5,0.0,0.016678522205040406,0.04688091443263523
1648465454599595964,96717,0,2,2.17006063461,-0.9713139534,0.252815753222,0.0,36.5,0.7257727874949832,-0.3248541650167224,0.084553763619398,36.5,0.0,1.076579075899763,2.390926548229933
1648465454599604874,96718,0,3,0.805788516998,-0.079111546278,0.237781390548,0.0809188112617,36.5,0.269494487290301,-0.026458711129765885,0.07952554867826087,36.5,0.010934974494824324,0.382040077419075,0.8438564810270007
1648465454599648553,96719,0,4,0.550269663334,0.0527410283685,0.104440264404,0.404594063759,36.5,0.1840366767003344,0.017639139922575247,0.034929854315719065,36.5,0.05467487348094594,0.2608642098851719,0.562570962002002
1648465454899646934,96720,3,0,0.0133034354076,0.0439508594573,0.00944249983877,0.0,40.5,0.004449309500869565,0.014699284099431437,0.0031580267019297656,40.5,0.0,0.01598942347631253,0.046880915561502146
1648465454899849778,96721,3,1,0.0336977690458,0.0146502861753,-0.0291144233197,0.0,40.5,0.011270156871505016,0.0048997612626421405,-0.009737265324314381,40.5,0.0,0.016674547437563397,0.04688091476198981
1648465454899855070,96722,3,2,0.600902199745,0.0952268540859,-0.0357773900032,0.0,40.5,0.20097063536622073,0.03184844618257525,-0.011965682275317725,40.5,0.0,0.2859942588291753,0.6094519087121791
1648465454899873746,96723,3,3,0.795776486397,-0.0249054860324,-0.0359101854265,0.0,40.5,0.2661459820725752,-0.00832959399076923,-0.012010095460367892,40.5,0.0,0.3764794146866494,0.796975558567658
1648465454899891933,96724,3,4,2.17262768745,-0.9713139534,0.229712381959,0.0,40.5,0.7266313335953176,-0.3248541650167224,0.07682688359832776,40.5,0.0,1.077736711100504,2.390926523916858
1648465454899929698,96725,3,5,0.852190256119,-0.111342176795,0.234068140388,0.0809188112617,40.5,0.28501346358494983,-0.037238186219063545,0.07828365899264214,40.5,0.010934974494824324,0.4047864021459524,0.8907374513863848
1648465455199536551,96726,6,0,0.0132406326011,0.0439508594573,0.00953036453575,0.0,13.6999998093,0.004428305217759197,0.014699284099431437,0.0031874128882107017,13.6999998093,0.0,0.015977757265619744,0.04688091559362861
1648465455199556437,96727,6,1,0.0337503887713,0.0146502861753,-0.0290534067899,0.0,13.6999998093,0.011287755441906355,0.0048997612626421405,-0.009716858458160534,13.6999998093,0.0,0.01669833842822278,0.04688091374249746
1648465455199561647,96728,6,2,0.638925790787,0.102552011609,0.109680280089,0.0,13.6999998093,0.21368755544715717,0.03429833164180602,0.03668236792274247,13.6999998093,0.0,0.3041399649164428,0.6563328767159597
1648465455199627516,96729,6,3,0.629533231258,-0.123062409461,-0.138983279467,0.0,13.6999998093,0.21054623118996654,-0.041157996475250834,-0.046482702162876255,13.6999998093,0.0,0.3005884422436339,0.6563328407537501
1648465455199630346,96730,6,4,0.849801003933,-0.083506628871,0.253531038761,0.0,13.6999998093,0.2842143825862876,-0.027928638418394644,0.08479298955217392,13.6999998093,0.0,0.4029089715825583,0.8907373860831066
1648465455199632029,96731,6,5,2.17566490173,-0.9713139534,0.19889959693,0.0,13.6999998093,0.7276471243244146,-0.3248541650167224,0.06652160432441472,13.6999998093,0.0,1.0791065302387397,2.390926517136874
