%time,field.header.seq,field.header.frame_id,field.point_id,field.x,field.y,field.z,field.velocity,field.intensity,normalized_x,normalized_y,normalized_z,normalized_intensity,normalized_velocity,normalized_range,range
1648465481199546330,97206,0,0,0.0132618062198,0.0439508594573,0.00950087886304,0.0,33.0999984741,0.004435386695585284,0.014699284099431437,0.003177551459210702,33.0999984741,0.0,0.01598168524638587,0.04688091563117153
1648465481199581665,97207,0,1,0.0337223596871,0.0146502861753,-0.0290859378874,0.0,33.0999984741,0.011278381166254181,0.0048997612626421405,-0.009727738423879598,33.0999984741,0.0,0.016685665221786113,0.0468809152072997
1648465481199653032,97208,0,2,2.06458091736,-1.0987714529,0.157348170877,0.0,33.0999984741,0.6904952900869564,-0.3674820912709029,0.052624806313377924,33.0999984741,0.0,1.0433650265699808,2.3440459715870277
1648465481199656965,97209,0,3,0.801069796085,-0.0527410283685,0.259998530149,0.0809188112617,33.0999984741,0.26791631976086955,-0.017639139922575247,0.08695603015016722,33.0999984741,0.010934974494824324,0.3793012629106647,0.8438564273338628
1648465481199673372,97210,0,4,0.384360522032,-0.0483459457755,-0.340390831232,-0.566431701183,33.0999984741,0.12854866957591973,-0.016169212633946488,-0.11384308736856186,33.0999984741,-0.07654482448418919,0.18251291553388696,0.5156900807233459
1648465481199682142,97211,0,5,0.464383244514,0.145037829876,0.171021863818,-0.566431701183,33.0999984741,0.15531212191103677,0.048507635410033445,0.05719794776521739,33.0999984741,-0.07654482448418919,0.22493710480507706,0.5156900695032546
1648465481499599606,97212,3,0,0.0133347688243,0.0439508594573,0.00939819868654,0.0,29.6000003815,0.004459788904448161,0.014699284099431437,0.003143210263056856,29.6000003815,0.0,0.01599526139768512,0.04688091557536544
1648465481499604262,97213,3,1,0.0336994826794,0.0146502861753,-0.0291124396026,0.0,29.6000003815,0.011270729993110367,0.0048997612626421405,-0.009736601873779263,29.6000003815,0.0,0.01667532217338195,0.046880914640100614
1648465481499610179,97214,3,2,2.10047388077,-1.02552008629,0.175697550178,0.0,29.6000003815,0.7024996256755852,-0.342983306451505,0.05876172246755853,29.6000003815,0.0,1.0510228335545722,2.344045989378149
1648465481499697129,97215,3,3,0.650331377983,0.0410208031535,0.0784807801247,0.0809188112617,29.6000003815,0.21750213310468225,0.013719332158361203,0.026247752550066887,29.6000003815,0.010934974494824324,0.3079002693812483,0.6563328731136414
1648465481499713594,97216,3,4,0.853151321411,-0.0556710883975,0.2498934865,0.0809188112617,29.6000003815,0.28533489010401336,-0.018619093109531772,0.0835764168896321,29.6000003815,0.010934974494824324,0.4039537964291958,0.8907374483560369
