%time,field.header.seq,field.header.frame_id,field.point_id,field.x,field.y,field.z,field.velocity,field.intensity,normalized_x,normalized_y,normalized_z,normalized_intensity,normalized_velocity,normalized_range,range
1648465524799978692,98122,0,0,0.0133139379323,0.0439508594573,0.00942768435925,0.0,11.3999996185,0.004452822050936455,0.014699284099431437,0.0031530716920568557,11.3999996185,0.0,0.015991378973384682,0.04688091533532723
1648465524799982490,98123,0,1,0.0337223596871,0.0146502861753,-0.0290859378874,0.0,11.3999996185,0.011278381166254181,0.0048997612626421405,-0.009727738423879598,11.3999996185,0.0,0.016685665221786113,0.0468809152072997
1648465524799984761,98124,0,2,0.800940871239,-0.079111546278,0.253631174564,0.0,11.3999996185,0.2678732010832776,-0.026458711129765885,0.08482647978729095,11.3999996185,0.0,0.3797527710390703,0.8438564384338718
1648465524799987339,98125,0,3,2.06158900261,-1.0987714529,0.192622676492,0.0,11.3999996185,0.6894946497023411,-0.3674820912709029,0.06442229983010032,11.3999996185,0.0,1.0420407052227587,2.344045950251277
1648465525100015035,98126,3,0,0.0133139379323,0.0439508594573,0.00942768435925,0.0,11.3000001907,0.004452822050936455,0.014699284099431437,0.0031530716920568557,11.3000001907,0.0,0.015991378973384682,0.04688091533532723
1648465525100032328,98127,3,1,0.0336836874485,0.0146502861753,-0.0291307158768,0.0,11.3000001907,0.011265447307190634,0.0048997612626421405,-0.009742714340066889,11.3000001907,0.0,0.016668181259305585,0.046880916081506664
1648465525100037196,98128,3,2,2.13532996178,-1.04603040218,0.250432670116,0.0,11.3000001907,0.7141571778528428,-0.34984294387290965,0.08375674585819398,11.3000001907,0.0,1.0688456552445436,2.3909266342198077
1648465525100105787,98129,3,3,0.217425808311,-0.0293005723506,0.0825408995152,-0.566431701183,11.3000001907,0.07271766164247491,-0.009799522525284281,0.02760565201177257,11.3000001907,-0.07654482448418919,0.10330414934174952,0.2344045770725111
1648465525100186342,98130,3,4,0.216238021851,-0.0879017189145,0.0214456021786,-0.566431701183,11.3000001907,0.07232040864581939,-0.02939856819882943,0.007172442200200669,11.3000001907,-0.07654482448418919,0.10641785012646064,0.23440458215435997
1648465525100191312,98131,3,5,0.232629388571,-0.0,0.0287935584784,-0.404594063759,11.3000001907,0.07780247109397992,-0.0,0.009629952668361204,11.3000001907,-0.05467487348094594,0.1100293098072471,0.23440456786668287
1648465525205022091,98132,4,0,0.0132406326011,0.0439508594573,0.00953036453575,0.0,31.0,0.004428305217759197,0.014699284099431437,0.0031874128882107017,31.0,0.0,0.015977757265619744,0.04688091559362861
1648465525205029184,98133,4,1,0.0336836874485,0.0146502861753,-0.0291307158768,0.0,31.0,0.011265447307190634,0.0048997612626421405,-0.009742714340066889,31.0,0.0,0.016668181259305585,0.046880916081506664
1648465525205034540,98134,4,2,2.0634469986,-1.0987714529,0.171577095985,0.0,31.0,0.6901160530434782,-0.3674820912709029,0.05738364414214047,31.0,0.0,1.042863088205472,2.3440458446041474
1648465525205036654,98135,4,3,1.09878385067,-0.146502867341,2.06537222862,0.0,31.0,0.36748623768227423,-0.04899761449531772,0.6907599426822741,31.0,0.0,0.5220086550987232,2.3440459644356535
1648465525205041444,98136,4,4,0.155947476625,-0.093761831522,0.045323587954,-0.242756426334,31.0,0.05215634669732441,-0.03135847208093645,0.01515839062006689,31.0,-0.03280492247756756,0.08014937786953731,0.18752366288308475
1648465525205190396,98137,4,5,0.16042329371,0.0117202289402,0.0963956937194,-0.242756426334,31.0,0.05365327548829431,0.003919809010100334,0.032239362447959864,31.0,-0.03280492247756756,0.07597837089541516,0.18752366970284046
1648465525205193866,98138,4,6,0.326261043549,-0.0307656023651,0.0173325780779,-0.242756426334,31.0,0.10911740586923076,-0.01028949911876254,0.00579684885548495,31.0,-0.03280492247756756,0.1546579785183289,0.3281664350438606
1648465525205194989,98139,4,7,0.225892364979,-0.0293005723506,0.0553138516843,-0.161837622523,31.0,0.07554928594615384,-0.009799522525284281,0.018499615947926422,31.0,-0.021869948989594594,0.10729128508723805,0.23440457820621002
1648465525205199701,98140,4,8,0.169374093413,0.161153152585,-0.0169583950192,-0.161837622523,31.0,0.05664685398428093,0.05389737544648829,-0.005671704019799331,31.0,-0.021869948989594594,0.09655391868097642,0.234404584573739
