%time,field.header.seq,field.header.frame_id,field.point_id,field.x,field.y,field.z,field.velocity,field.intensity,normalized_x,normalized_y,normalized_z,normalized_intensity,normalized_velocity,normalized_range,range
1648465883209159332,106163,0,0,0.0132406326011,0.0439508594573,0.00953036453575,0.0,14.5,0.004428305217759197,0.014699284099431437,0.0031874128882107017,14.5,0.0,0.015977757265619744,0.04688091559362861
1648465883209162628,106164,0,1,0.0336977690458,0.0146502861753,-0.0291144233197,0.0,14.5,0.011270156871505016,0.0048997612626421405,-0.009737265324314381,14.5,0.0,0.016674547437563397,0.04688091476198981
1648465883209228543,106165,0,2,0.316601246595,0.574291229248,0.0269451737404,0.0,14.5,0.10588670454682274,0.1920706452334448,0.009011763792775919,14.5,0.0,0.24354695883948968,0.6563328482748576
1648465883209233047,106166,0,3,0.635622441769,0.0410208031535,0.158348351717,-0.242756426334,14.5,0.21258275644448157,0.013719332158361203,0.052959314955518394,14.5,-0.03280492247756756,0.30095028949967634,0.6563328387816921
1648465883314149678,106167,1,0,0.0133259519935,0.0439508594573,0.00941069517285,0.0,41.5999984741,0.004456840131605351,0.014699284099431437,0.003147389689916388,41.5999984741,0.0,0.015993617506779818,0.04688091538360472
1648465883314158066,106168,1,1,0.033736359328,0.0146502861753,-0.029069699347,0.0,41.5999984741,0.011283063320401339,0.0048997612626421405,-0.009722307473913042,41.5999984741,0.0,0.016691994974096437,0.046880915582474404
1648465883314170701,106169,1,2,0.786255598068,-0.124527432024,0.0382761955261,0.0,41.5999984741,0.26296173848428095,-0.04164797057658863,0.012801403185986621,41.5999984741,0.0,0.3742089059155315,0.7969755416345677
1648465883314173394,106170,1,3,0.619581222534,0.0205104015768,0.215571895242,-0.404594063759,41.5999984741,0.2072178001785953,0.006859666079197324,0.07209762382675584,41.5999984741,-0.05467487348094594,0.2931304972882054,0.6563328499380444
1648465883509371714,106171,3,0,0.0133259519935,0.0439508594573,0.00941069517285,0.0,45.2999992371,0.004456840131605351,0.014699284099431437,0.003147389689916388,45.2999992371,0.0,0.015993617506779818,0.04688091538360472
1648465883509421580,106172,3,1,0.0336977690458,0.0146502861753,-0.0291144233197,0.0,45.2999992371,0.011270156871505016,0.0048997612626421405,-0.009737265324314381,45.2999992371,0.0,0.016674547437563397,0.04688091476198981
1648465883509525766,106173,3,2,0.316461205482,0.574291229248,0.0285431668162,0.0,45.2999992371,0.1058398680541806,0.1920706452334448,0.009546209637525083,45.2999992371,0.0,0.24350623831812712,0.656332859864716
1648465883509529774,106174,3,3,0.759115934372,-0.0498109720647,0.237553983927,0.0,45.2999992371,0.253884927883612,-0.016659187981505015,0.0794494929521739,45.2999992371,0.0,0.359433779376865,0.7969755517172997
1648465883509532354,106175,3,4,0.157111078501,0.249054864049,-0.740579366684,0.0,45.2999992371,0.052545511204347826,0.0832959411535117,-0.24768540691772575,45.2999992371,0.0,0.11162560328214029,0.7969755420665604
1648465883509536539,106176,3,5,0.47471755743,0.0161153152585,0.200797900558,-0.647350490093,45.2999992371,0.15876841385618728,0.005389737544648829,0.06715648848093646,45.2999992371,-0.08747979595851352,0.2245971231953324,0.5156900809465765
1648465883509539076,106177,3,6,1.32940733433,-0.102552004158,0.956289291382,-0.647350490093,45.2999992371,0.4446178375685618,-0.034298329149832774,0.3198291944421405,45.2999992371,-0.08747979595851352,0.6297193171173633,1.6408321007766475
1648465883614317650,106178,4,0,0.0132406326011,0.0439508594573,0.00953036453575,0.0,12.8000001907,0.004428305217759197,0.014699284099431437,0.0031874128882107017,12.8000001907,0.0,0.015977757265619744,0.04688091559362861
1648465883614320588,106179,4,1,0.0337118916214,0.0146502861753,-0.0290980711579,0.0,12.8000001907,0.011274880140936454,0.0048997612626421405,-0.009731796373879597,12.8000001907,0.0,0.016680932372498097,0.04688091580612966
1648465883614325755,106180,4,2,0.316537320614,0.574291229248,0.0276861153543,0.0,12.8000001907,0.10586532462006687,0.1920706452334448,0.009259570352608696,12.8000001907,0.0,0.24352836934167668,0.6563328517726968
1648465883614332586,106181,4,3,0.832479357719,-0.194848805666,0.249850407243,0.0,12.8000001907,0.2784211898725752,-0.06516682463745818,0.08356200911137124,12.8000001907,0.0,0.39910328609703327,0.8907374271339441
1648465883614491530,106182,4,4,0.799785912037,0.389697611332,0.0434909313917,0.0,12.8000001907,0.2674869271026756,0.13033364927491636,0.014545462003913044,12.8000001907,0.0,0.40010670136225046,0.8907374441910703
1648465883614502781,106183,4,5,0.398754566908,0.0732514336705,-0.235395535827,0.566431701183,12.8000001907,0.13336273140735785,0.02449880724765886,-0.0787276039555184,12.8000001907,0.07654482448418919,0.19018787504312698,0.4688091674146856
1648465883710857042,106184,5,0,0.0132701778784,0.0439508594573,0.00948918238282,0.0,30.2000007629,0.0044381865814046816,0.014699284099431437,0.0031736395929163877,30.2000007629,0.0,0.015983239762279708,0.04688091562943427
1648465883710886893,106185,5,1,0.0337503887713,0.0146502861753,-0.0290534067899,0.0,30.2000007629,0.011287755441906355,0.0048997612626421405,-0.009716858458160534,30.2000007629,0.0,0.01669833842822278,0.04688091374249746
1648465883710893739,106186,5,2,0.316680312157,0.574291229248,0.0259994752705,0.0,30.2000007629,0.1059131478785953,0.1920706452334448,0.00869547667909699,30.2000007629,0.0,0.24356995411482554,0.6563328491043057
1648465883710895738,106187,5,3,0.741149365902,-0.093761831522,0.0674412176013,0.0,30.2000007629,0.2478760421076923,-0.03135847208093645,0.02255559117100334,30.2000007629,0.0,0.3519494541453357,0.7500946483336902
1648465883710983540,106188,5,4,0.306349217892,-0.0351606868207,0.213481560349,-0.566431701183,30.2000007629,0.10245793240535116,-0.011759427030334446,0.07139851516688964,30.2000007629,-0.07654482448418919,0.1453737938888601,0.3750473220938755
1648465883710990318,106189,5,5,0.509891271591,0.0161153152585,0.0754153355956,-0.323675245047,30.2000007629,0.17053219785652174,0.005389737544648829,0.025222520266086956,30.2000007629,-0.04373989797932432,0.24122916548865303,0.5156901056580054
1648465883814377520,106190,6,0,0.013252383098,0.0439508594573,0.00951401796192,0.0,24.2999992371,0.004432235149832775,0.014699284099431437,0.003181945806662207,24.2999992371,0.0,0.015979936479305047,0.046880915547706924
1648465883814388063,106191,6,1,0.033727504313,0.0146502861753,-0.0290799699724,0.0,24.2999992371,0.011280101776923075,0.0048997612626421405,-0.00972574246568562,24.2999992371,0.0,0.0166879912699634,0.04688091387544942
1648465883814393682,106192,6,2,0.316457659006,0.574291229248,0.0285822879523,0.0,24.2999992371,0.10583868194180601,0.1920706452334448,0.009559293629531772,24.2999992371,0.0,0.2435052072353882,0.656332852384615
1648465883814575968,106193,6,3,0.789900064468,-0.0996219441295,0.0361028276384,0.0,24.2999992371,0.26418062356789296,-0.033318375963043476,0.012074524293779263,24.2999992371,0.0,0.37509054628750144,0.7969755691124916
1648465883814581213,106194,6,4,0.49517467618,0.622637152672,0.047906845808,0.0,24.2999992371,0.16561025959197323,0.20823985039197324,0.016022356457525082,24.2999992371,0.0,0.31339647645676066,0.7969755640499493
1648465883814583644,106195,6,5,0.450708091259,-0.032230630517,0.248514905572,-0.566431701183,24.2999992371,0.15073849205986622,-0.010779475089297658,0.08311535303411371,24.2999992371,-0.07654482448418919,0.21344878322484176,0.5156900768497631
1648465883814587044,106196,6,6,0.422934472561,0.161153152585,-0.247168675065,-0.566431701183,24.2999992371,0.14144965637491638,0.05389737544648829,-0.0826651087173913,24.2999992371,-0.07654482448418919,0.2071736895872243,0.515690081930924
1648465883814589455,106197,6,7,0.305738627911,0.0102552007884,0.118793651462,-0.404594063759,24.2999992371,0.10225372170936453,0.003429833039598662,0.03973031821471571,24.2999992371,-0.05467487348094594,0.14464926879010437,0.32816643546802043
1648465883814646729,106198,6,8,0.280361652374,0.133317604661,-0.106381230056,-0.404594063759,24.2999992371,0.09376643892107023,0.0445878276458194,-0.035579006707692304,24.2999992371,-0.05467487348094594,0.13990126700659608,0.3281664302494299
1648465883814726137,106199,6,9,0.408646434546,0.0263705141842,0.101666584611,-0.161837622523,24.2999992371,0.1366710483431438,0.008819569961270902,0.03400220221103679,24.2999992371,-0.021869948989594594,0.193483166515151,0.42192820113375096
