%time,field.header.seq,field.header.frame_id,field.point_id,field.x,field.y,field.z,field.velocity,field.intensity,normalized_x,normalized_y,normalized_z,normalized_intensity,normalized_velocity,normalized_range,range
1648465496099591720,97475,0,0,0.0132406326011,0.0439508594573,0.00953036453575,0.0,12.1000003815,0.004428305217759197,0.014699284099431437,0.0031874128882107017,12.1000003815,0.0,0.015977757265619744,0.04688091559362861
1648465496099619518,97476,0,1,0.0336855240166,0.0146502861753,-0.0291285905987,0.0,12.1000003815,0.011266061544013377,0.0048997612626421405,-0.009742003544715718,12.1000003815,0.0,0.016669011544116305,0.04688091513140284
1648465496099631604,97477,0,2,0.64830994606,-0.082041606307,-0.0611245408654,0.0,12.1000003815,0.21682606891638795,-0.027438664316722407,-0.020442990255986622,12.1000003815,0.0,0.3078635552041752,0.6563328582523954
1648465496099759517,97478,0,3,0.853842794895,-0.083506628871,0.239566788077,0.0,12.1000003815,0.285566152138796,-0.027928638418394644,0.08012267159765886,12.1000003815,0.0,0.4048160858199948,0.8907374031716835
1648465496099763561,97479,0,4,2.17539429665,-0.9713139534,0.201836526394,0.0,12.1000003815,0.7275566209531772,-0.3248541650167224,0.0675038549812709,12.1000003815,0.0,1.0789844771424295,2.390926415712889
1648465496099765419,97480,0,5,1.56146359444,-0.0,0.504144251347,-0.242756426334,12.1000003815,0.52222862690301,-0.0,0.16861011750735785,12.1000003815,-0.03280492247756756,0.7385428068257157,1.6408321007731752
1648465496099768684,97481,0,6,1.09855175018,-0.461484014988,-1.12807202339,-0.242756426334,12.1000003815,0.36740861210033443,-0.15434247992909697,-0.377281613173913,12.1000003815,-0.03280492247756756,0.5420330041627094,1.6408320858235903
1648465496099771902,97482,0,7,0.598743021488,0.076181486249,0.0844678208232,-0.161837622523,12.1000003815,0.20024850216989964,0.02547875794280936,0.028250107298729094,12.1000003815,-0.021869948989594594,0.28433798963361345,0.6094519155620945
1648465496399777622,97483,3,0,0.0133243817836,0.0439508594573,0.00941291917115,0.0,29.7999992371,0.004456314977792642,0.014699284099431437,0.0031481335020568557,29.7999992371,0.0,0.015993324838769328,0.04688091556564432
1648465496399874459,97484,3,1,0.0336855240166,0.0146502861753,-0.0291285905987,0.0,29.7999992371,0.011266061544013377,0.0048997612626421405,-0.009742003544715718,29.7999992371,0.0,0.016669011544116305,0.04688091513140284
1648465496399877848,97485,3,2,0.647222399712,-0.082041606307,-0.0717295780778,0.0,29.7999992371,0.21646234104080267,-0.027438664316722407,-0.02398982544408027,29.7999992371,0.0,0.3073512168142747,0.656332836467605
1648465496399885597,97486,3,3,0.527075946331,0.123062409461,0.371240347624,0.0,29.7999992371,0.176279580712709,0.041157996475250834,0.1241606513792642,29.7999992371,0.0,0.2526716482440278,0.6563328466007582
1648465496400039149,97487,3,4,0.780905365944,-0.131852567196,0.291368126869,0.0,29.7999992371,0.26117236319197323,-0.04409784856053511,0.09744753406989966,29.7999992371,0.0,0.37197664824317644,0.8438564305564412
1648465496400042789,97488,3,5,2.06032657623,-1.0987714529,0.20568561554,0.0,29.7999992371,0.6890724335217391,-0.3674820912709029,0.06879117576588628,29.7999992371,0.0,1.0414819848100971,2.3440458354877958
1648465496400048126,97489,3,6,0.463851988316,0.0161153152585,0.224761858582,-0.485512852669,29.7999992371,0.15513444425284278,0.005389737544648829,0.07517119016120401,29.7999992371,-0.06560984495527027,0.21945942872904087,0.5156900847639233
