%time,field.header.seq,field.header.frame_id,field.point_id,field.x,field.y,field.z,field.velocity,field.intensity,normalized_x,normalized_y,normalized_z,normalized_intensity,normalized_velocity,normalized_range,range
1648466150321173990,114988,0,0,0.0133034354076,0.0439508594573,0.00944249983877,0.0,45.2999992371,0.004449309500869565,0.014699284099431437,0.0031580267019297656,45.2999992371,0.0,0.01598942347631253,0.046880915561502146
1648466150321181470,114989,0,1,0.0336977690458,0.0146502861753,-0.0291144233197,0.0,45.2999992371,0.011270156871505016,0.0048997612626421405,-0.009737265324314381,45.2999992371,0.0,0.016674547437563397,0.04688091476198981
1648466150321184622,114990,0,2,0.725616335869,0.187523663044,0.0309480149299,0.0,45.2999992371,0.24268104878561872,0.0627169441618729,0.010350506665518395,45.2999992371,0.0,0.3488862249564737,0.7500946411683624
1648466150321194178,114991,0,3,0.711699008942,0.0234404578805,0.235747799277,0.0,45.2999992371,0.2380264243953177,0.007839618020234113,0.07884541781839464,45.2999992371,0.0,0.3367114744577959,0.7500946335354101
1648466150321198052,114992,0,4,1.99594175816,-1.17202293873,0.370310604572,0.0,45.2999992371,0.6675390495518394,-0.3919809159632107,0.12384970052575249,45.2999992371,0.0,1.0221867754146028,2.3440459071303654
1648466150321201113,114993,0,5,0.532383739948,-0.0527410283685,0.173988729715,-0.566431701183,45.2999992371,0.1780547625244147,-0.017639139922575247,0.05819021060702341,45.2999992371,-0.07654482448418919,0.25242451579127495,0.5625710094754492
1648466150516508819,114994,2,0,0.0133314700797,0.0439508594573,0.00940287671983,0.0,41.0999984741,0.004458685645384615,0.014699284099431437,0.0031447748226856188,41.0999984741,0.0,0.01599464624193094,0.04688091543613023
1648466150516510599,114995,2,1,0.0336624495685,0.0146502861753,-0.029155254364,0.0,41.0999984741,0.01125834433729097,0.0048997612626421405,-0.009750921191973244,41.0999984741,0.0,0.016658580217560913,0.04688091565871483
1648466150516511831,114996,2,2,0.694508254528,0.10987714678,-0.00974193960428,0.0,41.0999984741,0.23227700820334446,0.03674820962541806,-0.0032581737806956523,41.0999984741,0.0,0.3305384213528993,0.7032137714659009
1648466150516512847,114997,2,3,0.74955034256,0.224149376154,0.151991337538,0.0,41.0999984741,0.2506857332976588,0.07496634653979932,0.050833223256856186,41.0999984741,0.0,0.36236256273447337,0.796975548902619
1648466150516513932,114998,2,4,2.01176905632,-1.0987714529,0.489936888218,0.0,41.0999984741,0.6728324603076923,-0.3674820912709029,0.16385849104280936,41.0999984741,0.0,1.0200245716119984,2.3440459884804685
1648466150516515081,114999,2,5,0.375361412764,-0.0527410283685,0.185325667262,-0.647350490093,41.0999984741,0.12553893403478258,-0.017639139922575247,0.06198182851571906,41.0999984741,-0.08747979595851352,0.17841296806675006,0.42192820385897223
1648466150516518470,115000,2,6,0.608138680458,-0.254914969206,-1.18892920017,-0.566431701183,41.0999984741,0.20339086302943143,-0.0852558425438127,-0.39763518400334447,41.0999984741,-0.07654482448418919,0.30000707494252404,1.359546593247679
1648466150621404114,115001,3,0,0.0133139379323,0.0439508594573,0.00942768435925,0.0,15.3999996185,0.004452822050936455,0.014699284099431437,0.0031530716920568557,15.3999996185,0.0,0.015991378973384682,0.04688091533532723
1648466150621407408,115002,3,1,0.0336091145873,0.0146502861753,-0.0292167179286,0.0,15.3999996185,0.011240506550936455,0.0048997612626421405,-0.009771477568093644,15.3999996185,0.0,0.016634471301312202,0.046880913759010975
1648466150621409890,115003,3,2,0.738654077053,0.273960351944,0.120440617204,0.0,15.3999996185,0.24704149734214045,0.09162553576722407,0.04028114287759197,15.3999996185,0.0,0.3611844980376711,0.7969755719322771
1648466150621411750,115004,3,3,2.01865291595,-1.0987714529,0.460752397776,0.0,15.3999996185,0.6751347544983278,-0.3674820912709029,0.15409779189832776,15.3999996185,0.0,1.0230625400569953,2.3440458768628543
1648466150621414041,115005,3,4,0.775002539158,0.039555773139,-1.00000870228,-0.647350490093,15.3999996185,0.2591981736314381,0.013229355564882942,-0.3344510709966555,15.3999996185,-0.08747979595851352,0.3668002212055063,1.2657847366458883
1648466150621422504,115006,3,5,1.11015629768,0.39555773139,-0.461842030287,-0.647350490093,15.3999996185,0.3712897316655518,0.13229355564882941,-0.15446221748729097,15.3999996185,-0.08747979595851352,0.5414921186377183,1.2657847309398964
1648466150621583526,115007,3,6,0.355876505375,-0.0117202289402,0.11779242754,-0.566431701183,15.3999996185,0.11902224260033444,-0.003919809010100334,0.03939546071571906,15.3999996185,-0.07654482448418919,0.1683685046851144,0.3750473394521007
1648466150718669439,115008,4,0,0.0133139379323,0.0439508594573,0.00942768435925,0.0,33.7000007629,0.004452822050936455,0.014699284099431437,0.0031530716920568557,33.7000007629,0.0,0.015991378973384682,0.04688091533532723
1648466150718680827,115009,4,1,0.0336091145873,0.0146502861753,-0.0292167179286,0.0,33.7000007629,0.011240506550936455,0.0048997612626421405,-0.009771477568093644,33.7000007629,0.0,0.016634471301312202,0.046880913759010975
1648466150718684884,115010,4,2,0.568616390228,0.257845044136,0.415732264519,0.0,33.7000007629,0.1901727057618729,0.08623580071438126,0.13904089114347826,33.7000007629,0.0,0.28243216771188484,0.7500946485501099
1648466150718711571,115011,4,3,2.02745652199,-1.0987714529,0.420324832201,0.0,33.7000007629,0.6780791043444816,-0.3674820912709029,0.14057686695685617,33.7000007629,0.0,1.0269496730132714,2.3440459933270428
1648466150718750118,115012,4,4,0.307901352644,-0.0102552007884,0.113069854677,-0.485512852669,33.7000007629,0.10297704101806018,-0.003429833039598662,0.03781600490869565,33.7000007629,-0.06560984495527027,0.1456719111852042,0.32816642750271263
1648466150718753565,115013,4,5,0.221381977201,0.11280720681,-0.214377611876,-0.485512852669,33.7000007629,0.07404079505050166,0.03772816281270903,-0.07169819795183946,33.7000007629,-0.06560984495527027,0.11129911469837962,0.32816643065882756
1648466150821382718,115014,5,0,0.0133139379323,0.0439508594573,0.00942768435925,0.0,32.4000015259,0.004452822050936455,0.014699284099431437,0.0031530716920568557,32.4000015259,0.0,0.015991378973384682,0.04688091533532723
1648466150821387404,115015,5,1,0.0337644591928,0.0146502861753,-0.0290370546281,0.0,32.4000015259,0.011292461268494983,0.0048997612626421405,-0.009711389507725751,32.4000015259,0.0,0.01670470063879647,0.046880914358358096
1648466150821389248,115016,5,2,0.687130331993,0.131852582097,0.0705434828997,0.0,32.4000015259,0.22980947558294312,0.04409785354414715,0.02359313809354515,32.4000015259,0.0,0.3279777596463146,0.7032137509534898
1648466150821392391,115017,5,3,2.02781915665,-1.0987714529,0.418570905924,0.0,32.4000015259,0.6782003868394649,-0.3674820912709029,0.13999026953979932,32.4000015259,0.0,1.0271098367863274,2.344045827425465
1648466150821395273,115018,5,4,0.42783498764,0.117202289402,-0.604865968227,0.566431701183,32.4000015259,0.14308862462876254,0.03919809010100334,-0.2022963104438127,32.4000015259,0.07654482448418919,0.2061193810971404,0.750094655899624
1648466150821398525,115019,5,5,0.235165789723,-0.0175803434104,0.15332813561,-0.485512852669,32.4000015259,0.07865076579364548,-0.005879713515183946,0.051280312913043476,32.4000015259,-0.06560984495527027,0.11138427604861642,0.2812855031815689
1648466150821507352,115020,5,6,0.217457190156,0.0879017189145,-0.155264899135,-0.485512852669,32.4000015259,0.07272815724280936,0.02939856819882943,-0.051928059911371234,32.4000015259,-0.06560984495527027,0.10697217172709374,0.2812854966792071
1648466150821513430,115021,5,7,0.191065132618,-0.0146502861753,0.13499994576,-0.404594063759,32.4000015259,0.0639013821464883,-0.0048997612626421405,0.04515048353177257,32.4000015259,-0.05467487348094594,0.09050293332756655,0.23440456723911132
1648466150821516599,115022,5,8,0.18575052917,0.0659262910485,-0.126869916916,-0.404594063759,32.4000015259,0.062123922799331106,0.022048926772073575,-0.04243141033979933,32.4000015259,-0.05467487348094594,0.09058100650663342,0.23440458774652706
1648466150821575543,115023,5,9,0.261690914631,0.061531201005,0.0827847570181,-0.323675245047,32.4000015259,0.08752204502709031,0.020578996991638794,0.027687209705050165,32.4000015259,-0.04373989797932432,0.12547394888433985,0.2812855124105629
1648466150918763785,115024,6,0,0.0133034354076,0.0439508594573,0.00944249983877,0.0,27.6000003815,0.004449309500869565,0.014699284099431437,0.0031580267019297656,27.6000003815,0.0,0.01598942347631253,0.046880915561502146
1648466150918769528,115025,6,1,0.0337503887713,0.0146502861753,-0.0290534067899,0.0,27.6000003815,0.011287755441906355,0.0048997612626421405,-0.009716858458160534,27.6000003815,0.0,0.01669833842822278,0.04688091374249746
1648466150918777519,115026,6,2,0.672588407993,0.348676800728,0.247425496578,0.0,27.6000003815,0.22494595585050167,0.11661431462474915,0.08275100219999999,27.6000003815,0.0,0.33882187721927237,0.7969755669337307
1648466150918781106,115027,6,3,2.01420640945,-1.0987714529,0.479817509651,0.0,27.6000003815,0.6736476285785952,-0.3674820912709029,0.16047408349531772,27.6000003815,0.0,1.0211000648241904,2.3440458630635033
1648466150918935444,115028,6,4,1.58037090302,-0.219754308462,-1.71717405319,0.0,27.6000003815,0.5285521414782608,-0.0734964242347826,-0.5743057034080267,27.6000003815,0.0,0.7510901789384614,2.344045834907849
1648466150918947710,115029,6,5,0.180778771639,-0.0366257168353,0.144648179412,-0.323675245047,27.6000003815,0.06046112763846153,-0.012249403623846153,0.04837731752909699,27.6000003815,-0.04373989797932432,0.08637791268471685,0.23440457166235354
1648466150918952902,115030,6,6,0.208079963923,0.0952268615365,0.0507945418358,-0.323675245047,27.6000003815,0.06959196117826086,0.03184844867441471,0.016988141082207357,27.6000003815,-0.04373989797932432,0.1034427658381192,0.23440459045120587
