%time,field.header.seq,field.header.frame_id,field.point_id,field.x,field.y,field.z,field.velocity,field.intensity,normalized_x,normalized_y,normalized_z,normalized_intensity,normalized_velocity,normalized_range,range
1648465907209897310,106891,0,0,0.0133314700797,0.0439508594573,0.00940287671983,0.0,23.7000007629,0.004458685645384615,0.014699284099431437,0.0031447748226856188,23.7000007629,0.0,0.01599464624193094,0.04688091543613023
1648465907209903402,106892,0,1,0.0335860066116,0.0146502861753,-0.0292432811111,0.0,23.7000007629,0.011232778130969899,0.0048997612626421405,-0.009780361575618728,23.7000007629,0.0,0.016624026874078365,0.04688091525637531
1648465907209905742,106893,0,2,0.796537578106,0.0249054860324,0.00880906451494,-0.161837622523,23.7000007629,0.2664005277946488,0.00832959399076923,0.002946175423056856,23.7000007629,-0.021869948989594594,0.3768393086642978,0.7969755304820283
1648465907314813252,106894,1,0,0.0133139379323,0.0439508594573,0.00942768435925,0.0,31.7999992371,0.004452822050936455,0.014699284099431437,0.0031530716920568557,31.7999992371,0.0,0.015991378973384682,0.04688091533532723
1648465907314826604,106895,1,1,0.0336607210338,0.0146502861753,-0.0291572511196,0.0,31.7999992371,0.011257766232040134,0.0048997612626421405,-0.0097515890032107,31.7999992371,0.0,0.016657798819214222,0.046880916356070806
1648465907314865473,106896,1,2,0.316411346197,0.574291229248,0.0290903840214,0.0,31.7999992371,0.10582319270802674,0.1920706452334448,0.00972922542521739,31.7999992371,0.0,0.24349174316644115,0.6563328472931164
1648465907314874907,106897,1,3,0.457850217819,0.133317604661,-0.379514425993,0.566431701183,31.7999992371,0.1531271631501672,0.0445878276458194,-0.12692790166989965,31.7999992371,0.07654482448418919,0.22109710663644863,0.6094518891645581
1648465907314877055,106898,1,4,0.791071116924,0.0498109720647,0.0830384343863,-0.242756426334,31.7999992371,0.2645722799076923,0.016659187981505015,0.027772051634214045,31.7999992371,-0.03280492247756756,0.37453238996822646,0.7969755495338254
1648465907510342680,106899,3,0,0.0132807390764,0.0439508594573,0.00947439484298,0.0,30.7000007629,0.004441718754648829,0.014699284099431437,0.00316869392741806,30.7000007629,0.0,0.015985202032711258,0.04688091546771928
1648465907510682475,106900,3,1,0.0337503887713,0.0146502861753,-0.0290534067899,0.0,30.7000007629,0.011287755441906355,0.0048997612626421405,-0.009716858458160534,30.7000007629,0.0,0.01669833842822278,0.04688091374249746
1648465907510698539,106901,3,2,0.316653758287,0.574291229248,0.0263210460544,0.0,30.7000007629,0.10590426698561872,0.1920706452334448,0.00880302543625418,30.7000007629,0.0,0.24356223084032189,0.6563328546506404
1648465907510704729,106902,3,3,0.424961000681,-0.0,0.197965085506,-0.566431701183,30.7000007629,0.14212742497692307,-0.0,0.06620905869765886,30.7000007629,-0.07654482448418919,0.20099853198752918,0.4688091585914196
1648465907510724618,106903,3,4,0.549560904503,0.0879017189145,0.0821109712124,-0.404594063759,30.7000007629,0.18379963361304347,0.02939856819882943,0.02746186328173913,30.7000007629,-0.05467487348094594,0.2615891558240121,0.5625709835564956
1648465907510804698,106904,3,5,0.790340542793,-0.0,0.102624744177,-0.0809188112617,30.7000007629,0.2643279407334448,-0.0,0.034322656915384615,30.7000007629,-0.010934974494824324,0.3738161586993893,0.7969755402142079
1648465907615482949,106905,4,0,0.0133314700797,0.0439508594573,0.00940287671983,0.0,17.8999996185,0.004458685645384615,0.014699284099431437,0.0031447748226856188,17.8999996185,0.0,0.01599464624193094,0.04688091543613023
1648465907615498847,106906,4,1,0.033736359328,0.0146502861753,-0.029069699347,0.0,17.8999996185,0.011283063320401339,0.0048997612626421405,-0.009722307473913042,17.8999996185,0.0,0.016691994974096437,0.046880915582474404
1648465907615504247,106907,4,2,0.316496968269,0.574291229248,0.0281439032406,0.0,17.8999996185,0.10585182885250835,0.1920706452334448,0.00941267666909699,17.8999996185,0.0,0.2435166361939842,0.6563328623528336
1648465907615514905,106908,4,3,0.786235809326,-0.0996219441295,0.0841353237629,0.0,17.8999996185,0.2629551201759197,-0.033318375963043476,0.028138904268528428,17.8999996185,0.0,0.37336430551176086,0.7969755531528804
1648465907615548703,106909,4,4,0.338395118713,-0.0117202289402,0.161281973124,-0.566431701183,17.8999996185,0.1131756249876254,-0.003919809010100334,0.053940459238795986,17.8999996185,-0.07654482448418919,0.1601024955625455,0.37504732366724963
1648465907615694548,106910,4,5,0.265475213528,0.128922522068,-0.231435507536,-0.566431701183,17.8999996185,0.08878769683210702,0.04311790035719063,-0.07740317977792642,17.8999996185,-0.07654482448418919,0.13276167951902731,0.37504733013655367
1648465907615718295,106911,4,6,0.554109930992,0.0351606868207,0.0906204655766,-0.323675245047,17.8999996185,0.18532104715451503,0.011759427030334446,0.030307848018929766,17.8999996185,-0.04373989797932432,0.2623472225143116,0.5625710251185908
1648465907810329850,106912,6,0,0.0132406326011,0.0439508594573,0.00953036453575,0.0,31.7000007629,0.004428305217759197,0.014699284099431437,0.0031874128882107017,31.7000007629,0.0,0.015977757265619744,0.04688091559362861
1648465907810367529,106913,6,1,0.0337503887713,0.0146502861753,-0.0290534067899,0.0,31.7000007629,0.011287755441906355,0.0048997612626421405,-0.009716858458160534,31.7000007629,0.0,0.01669833842822278,0.04688091374249746
1648465907810381596,106914,6,2,0.316865622997,0.574291229248,0.0236340947449,0.0,31.7000007629,0.10597512474816052,0.1920706452334448,0.007904379513344481,31.7000007629,0.0,0.24362386355028562,0.6563328495990939
1648465907810406817,106915,6,3,0.316532194614,-0.0205104015768,0.0841420814395,-0.323675245047,31.7000007629,0.10586361023879598,-0.006859666079197324,0.028141164361036787,31.7000007629,-0.04373989797932432,0.14987082092355905,0.32816641611988306
1648465907810429592,106916,6,4,0.466385573149,0.0293005723506,0.0375233404338,-0.242756426334,31.7000007629,0.1559817970397993,0.009799522525284281,0.01254961218521739,31.7000007629,-0.03280492247756756,0.22080913173429637,0.4688091588897393
