%time,field.header.seq,field.header.frame_id,field.point_id,field.x,field.y,field.z,field.velocity,field.intensity,normalized_x,normalized_y,normalized_z,normalized_intensity,normalized_velocity,normalized_range,range
1648465461399561460,96886,0,0,0.0132512515411,0.0439508594573,0.00951559375972,0.0,12.0,0.0044318567027090295,0.014699284099431437,0.0031824728293377924,12.0,0.0,0.01597972655280721,0.046880915509841144
1648465461399563405,96887,0,1,0.033736359328,0.0146502861753,-0.029069699347,0.0,12.0,0.011283063320401339,0.0048997612626421405,-0.009722307473913042,12.0,0.0,0.016691994974096437,0.046880915582474404
1648465461399566447,96888,0,2,0.749288320541,0.0234404578805,-0.0256815217435,0.0,12.0,0.2505981005153846,0.007839618020234113,-0.008589137706856187,12.0,0.0,0.3544859314197685,0.7500946493102465
1648465461399567567,96889,0,3,0.786675930023,-0.105482056737,0.286545306444,0.0,12.0,0.2631023177334448,-0.035278279845150494,0.09583455065016722,12.0,0.0,0.3737515434379553,0.8438564426584094
1648465461399569390,96890,0,4,2.17517828941,-0.9713139534,0.204152092338,0.0,12.0,0.7274843777290969,-0.3248541650167224,0.06827829175183946,12.0,0.0,1.0788870507186998,2.390926486447489
1648465461399599254,96891,0,5,0.533429920673,0.0527410283685,0.170754179358,-0.485512852669,12.0,0.17840465574347825,0.017639139922575247,0.05710842118996655,12.0,-0.06560984495527027,0.2529181322861336,0.5625709609558549
1648465461699445084,96892,3,0,0.0132478391752,0.0439508594573,0.00952034443617,0.0,45.2000007629,0.004430715443210702,0.014699284099431437,0.0031840616843377923,45.2000007629,0.0,0.015979093582340943,0.046880915605719706
1648465461699451444,96893,3,1,0.033736359328,0.0146502861753,-0.029069699347,0.0,45.2000007629,0.011283063320401339,0.0048997612626421405,-0.009722307473913042,45.2000007629,0.0,0.016691994974096437,0.046880915582474404
1648465461699459640,96894,3,2,2.06003880501,-1.0987714529,0.208548292518,0.0,45.2000007629,0.6889761889665551,-0.3674820912709029,0.0697485928153846,45.2000007629,0.0,1.0413546299559016,2.3440458558157897
1648465461699462039,96895,3,3,0.25102981925,-0.0102552007884,-0.211120963097,0.566431701183,45.2000007629,0.08395646128762542,-0.003429833039598662,-0.07060901775819398,45.2000007629,0.07654482448418919,0.11878189482644488,0.3281664217358365
1648465461699464696,96896,3,4,0.748898029327,0.0234404578805,-0.0352744981647,-0.0809188112617,45.2000007629,0.2504675683367893,0.007839618020234113,-0.011797491024983276,45.2000007629,-0.010934974494824324,0.3543013762149275,0.7500946631034533
