%time,field.header.seq,field.header.frame_id,field.point_id,field.x,field.y,field.z,field.velocity,field.intensity,normalized_x,normalized_y,normalized_z,normalized_intensity,normalized_velocity,normalized_range,range
1648465857108603330,105359,0,0,0.0132406326011,0.0439508594573,0.00953036453575,0.0,25.7999992371,0.004428305217759197,0.014699284099431437,0.0031874128882107017,25.7999992371,0.0,0.015977757265619744,0.04688091559362861
1648465857108608321,105360,0,1,0.0336747989058,0.0146502861753,-0.0291409865022,0.0,25.7999992371,0.011262474550434783,0.0048997612626421405,-0.009746149331839465,25.7999992371,0.0,0.016664162938151764,0.04688091360762563
1648465857108610220,105361,0,2,0.783841073513,-0.124527432024,0.0724991410971,0.0,25.7999992371,0.2621542051882943,-0.04164797057658863,0.024247204380301,25.7999992371,0.0,0.37307399808745856,0.7969755550280834
1648465857108613299,105362,0,3,0.307021856308,-0.0512760058045,0.10393050313,-0.161837622523,25.7999992371,0.10268289508628761,-0.01714916582090301,0.034759365595317726,25.7999992371,-0.021869948989594594,0.14622464831537782,0.3281664189141361
1648465857108616108,105363,0,4,0.298831731081,0.0615312047303,-0.120858252048,-0.161837622523,25.7999992371,0.0999437227695652,0.020578998237558526,-0.04042082008294314,25.7999992371,-0.021869948989594594,0.14283203635928757,0.32816643604202894
1648465857708433142,105364,6,0,0.0132406326011,0.0439508594573,0.00953036453575,0.0,16.2999992371,0.004428305217759197,0.014699284099431437,0.0031874128882107017,16.2999992371,0.0,0.015977757265619744,0.04688091559362861
1648465857708436365,105365,6,1,0.0336091145873,0.0146502861753,-0.0292167179286,0.0,16.2999992371,0.011240506550936455,0.0048997612626421405,-0.009771477568093644,16.2999992371,0.0,0.016634471301312202,0.046880913759010975
1648465857708439609,105366,6,2,0.80148434639,-0.22268435359,0.318508446217,0.0,16.2999992371,0.2680549653478261,-0.07447637243812709,0.1065245639521739,16.2999992371,0.0,0.3863336109462793,0.8907373962922905
1648465857708560643,105367,6,3,0.655786156654,0.083506628871,-0.596979320049,0.0,16.2999992371,0.2193264737973244,0.027928638418394644,-0.19965863546789298,16.2999992371,0.0,0.31142930668233887,0.8907374185979783
1648465857708563400,105368,6,4,2.22606778145,0.990359306335,0.0819535031915,0.0,16.2999992371,0.7445042747324414,0.3312238482725752,0.027409198391806017,16.2999992371,0.0,1.1037583376148292,2.4378075600710214
