%time,field.header.seq,field.header.frame_id,field.point_id,field.x,field.y,field.z,field.velocity,field.intensity,normalized_x,normalized_y,normalized_z,normalized_intensity,normalized_velocity,normalized_range,range
1648465822212283451,104207,0,0,0.0133139379323,0.0439508594573,0.00942768435925,0.0,17.1000003815,0.004452822050936455,0.014699284099431437,0.0031530716920568557,17.1000003815,0.0,0.015991378973384682,0.04688091533532723
1648465822212290488,104208,0,1,0.0337503887713,0.0146502861753,-0.0290534067899,0.0,17.1000003815,0.011287755441906355,0.0048997612626421405,-0.009716858458160534,17.1000003815,0.0,0.01669833842822278,0.04688091374249746
1648465822212307664,104209,0,2,0.31668946147,0.574291229248,0.025887824595,0.0,17.1000003815,0.10591620784949832,0.1920706452334448,0.00865813531605351,17.1000003815,0.0,0.24357261531384858,0.656332850358413
1648465822212311544,104210,0,3,0.794706583023,-0.194848805666,0.351978093386,0.0,17.1000003815,0.2657881548571906,-0.06516682463745818,0.11771842588160535,17.1000003815,0.0,0.3814884029143076,0.8907374407720846
1648465822212388476,104211,0,4,0.600302815437,0.0190453715622,0.10346712172,-0.242756426334,17.1000003815,0.20077017238695652,0.006369689485685618,0.034604388535117055,17.1000003815,-0.03280492247756756,0.28400334009430334,0.6094519190851337
1648465822407346800,104212,2,0,0.0133139379323,0.0439508594573,0.00942768435925,0.0,37.0,0.004452822050936455,0.014699284099431437,0.0031530716920568557,37.0,0.0,0.015991378973384682,0.04688091533532723
1648465822407438848,104213,2,1,0.0336836874485,0.0146502861753,-0.0291307158768,0.0,37.0,0.011265447307190634,0.0048997612626421405,-0.009742714340066889,37.0,0.0,0.016668181259305585,0.046880916081506664
1648465822407442501,104214,2,2,0.316673159599,0.574291229248,0.0260865576565,0.0,37.0,0.10591075571872909,0.1920706452334448,0.008724601222909698,37.0,0.0,0.243567873731772,0.6563328534302991
1648465822407459144,104215,2,3,0.804032683372,-0.194848805666,0.330118983984,0.0,37.0,0.26890725196387955,-0.06516682463745818,0.11040768695117056,37.0,0.0,0.38583537337945056,0.8907374229179292
1648465822407460587,104216,2,4,0.398800700903,0.032230630517,-0.32535430789,0.566431701183,37.0,0.13337816083712375,0.010779475089297658,-0.10881414979598662,37.0,0.07654482448418919,0.18893296340180582,0.5156900602559917
1648465822407463789,104217,2,5,0.543479323387,-0.0,0.145314618945,-0.566431701183,37.0,0.18176565999565217,-0.0,0.04860020700501672,37.0,-0.07654482448418919,0.25705546153954806,0.5625709852350385
1648465822512313596,104218,3,0,0.0132584534585,0.0439508594573,0.00950555689633,0.0,44.5,0.0044342653707357856,0.014699284099431437,0.0031791160188394648,44.5,0.0,0.015981062911834463,0.04688091559532422
1648465822512319676,104219,3,1,0.0336607210338,0.0146502861753,-0.0291572511196,0.0,44.5,0.011257766232040134,0.0048997612626421405,-0.0097515890032107,44.5,0.0,0.016657798819214222,0.046880916356070806
1648465822512331436,104220,3,2,0.316536396742,0.574291229248,0.0276966001838,0.0,44.5,0.10586501563277592,0.1920706452334448,0.009263076984548495,44.5,0.0,0.24352810069938047,0.656332848572528
1648465822512336168,104221,3,3,0.362581282854,0.0439508594573,-0.29391348362,0.566431701183,44.5,0.12126464309498326,0.014699284099431437,-0.09829882395317725,44.5,0.07654482448418919,0.17212291039528452,0.4688091302190388
1648465822512338930,104222,3,4,0.44806984067,-0.0146502861753,0.137116000056,-0.566431701183,44.5,0.14985613400334447,-0.0048997612626421405,0.0458581939986622,44.5,-0.07654482448418919,0.21198521046829555,0.4688091407752353
1648465822512703770,104223,3,5,0.838686287403,-0.194848805666,0.228150054812,-0.0809188112617,44.5,0.28049708608795987,-0.06516682463745818,0.07630436615785953,44.5,-0.010934974494824324,0.4019999323893002,0.8907374435028611
1648465822707152368,104224,5,0,0.0132584534585,0.0439508594573,0.00950555689633,0.0,15.8999996185,0.0044342653707357856,0.014699284099431437,0.0031791160188394648,15.8999996185,0.0,0.015981062911834463,0.04688091559532422
1648465822707157899,104225,5,1,0.0336836874485,0.0146502861753,-0.0291307158768,0.0,15.8999996185,0.011265447307190634,0.0048997612626421405,-0.009742714340066889,15.8999996185,0.0,0.016668181259305585,0.046880916081506664
1648465822707167310,104226,5,2,0.316661775112,0.574291229248,0.026224417612,0.0,15.8999996185,0.1059069481979933,0.1920706452334448,0.008770708231438126,15.8999996185,0.0,0.24356456251601277,0.6563328544933207
1648465822707174253,104227,5,3,0.349878102541,-0.0,0.135077059269,-0.404594063759,15.8999996185,0.1170160878063545,-0.0,0.045176274003010025,15.8999996185,-0.05467487348094594,0.16548573839158748,0.3750473284512922
1648465822707177375,104228,5,4,0.827261924744,-0.22268435359,0.24384945631,-0.0809188112617,15.8999996185,0.2766762290113712,-0.07447637243812709,0.08155500211036788,15.8999996185,-0.010934974494824324,0.39830415695978877,0.8907374309007262
1648465822707182066,104229,5,5,0.570587933064,0.111342176795,-0.674867033958,-0.0809188112617,15.8999996185,0.1908320846367893,0.037238186219063545,-0.22570803811304346,15.8999996185,-0.010934974494824324,0.2724343068824686,0.8907374378653707
1648465822812245235,104230,6,0,0.0132406326011,0.0439508594573,0.00953036453575,0.0,17.1000003815,0.004428305217759197,0.014699284099431437,0.0031874128882107017,17.1000003815,0.0,0.015977757265619744,0.04688091559362861
1648465822812248925,104231,6,1,0.0336977690458,0.0146502861753,-0.0291144233197,0.0,17.1000003815,0.011270156871505016,0.0048997612626421405,-0.009737265324314381,17.1000003815,0.0,0.016674547437563397,0.04688091476198981
1648465822812251229,104232,6,2,0.316527485847,0.574291229248,0.0277982354164,0.0,17.1000003815,0.10586203540033445,0.1920706452334448,0.009297068701137123,17.1000003815,0.0,0.24352550962598382,0.6563328478600376
1648465822812253204,104233,6,3,0.300610840321,-0.0,0.131629526615,-0.323675245047,17.1000003815,0.10053874258227424,-0.0,0.04402325304849498,17.1000003815,-0.04373989797932432,0.14218325330378964,0.3281664358147962
1648465822812255068,104234,6,4,0.264988273382,0.11280720681,-0.157318010926,-0.323675245047,17.1000003815,0.0886248405959866,0.03772816281270903,-0.05261471937324415,17.1000003815,-0.04373989797932432,0.1308897971980641,0.3281664326221692
