%time,field.header.seq,field.header.frame_id,field.point_id,field.x,field.y,field.z,field.velocity,field.intensity,normalized_x,normalized_y,normalized_z,normalized_intensity,normalized_velocity,normalized_range,range
1648466137420891083,114464,0,0,0.0133364023641,0.0439508594573,0.00939587969333,0.0,11.6000003815,0.004460335238829431,0.014699284099431437,0.003142434680043478,11.6000003815,0.0,0.01599556607067362,0.0468809154162335
1648466137420895233,114465,0,1,0.0336977690458,0.0146502861753,-0.0291144233197,0.0,11.6000003815,0.011270156871505016,0.0048997612626421405,-0.009737265324314381,11.6000003815,0.0,0.016674547437563397,0.04688091476198981
1648466137420898524,114466,0,2,0.642899751663,0.175803437829,0.224237918854,0.0,11.6000003815,0.21501663935217388,0.05879713639765886,0.07499595948294313,11.6000003815,0.0,0.30971182354758514,0.7032137539132857
1648466137420914478,114467,0,3,2.03147673607,-1.0987714529,0.40044310689,0.0,11.6000003815,0.679423657548495,-0.3674820912709029,0.13392746049832777,11.6000003815,0.0,1.0287254737188076,2.344045886231179
1648466137420917808,114468,0,4,0.838025391102,0.0263705141842,0.0954555049539,-0.242756426334,11.6000003815,0.28027605053578597,0.008819569961270902,0.031924918044782605,11.6000003815,-0.03280492247756756,0.3964683011568247,0.8438564531814657
1648466137420979957,114469,0,5,0.259245157242,0.34281668067,-0.726197242737,-0.242756426334,11.6000003815,0.08670406596722406,0.1146544082508361,-0.24287533201906353,11.6000003815,-0.03280492247756756,0.16787144915633176,0.8438564827373476
1648466137615963508,114470,2,0,0.0133034354076,0.0439508594573,0.00944249983877,0.0,31.6000003815,0.004449309500869565,0.014699284099431437,0.0031580267019297656,31.6000003815,0.0,0.01598942347631253,0.046880915561502146
1648466137615971377,114471,2,1,0.0336977690458,0.0146502861753,-0.0291144233197,0.0,31.6000003815,0.011270156871505016,0.0048997612626421405,-0.009737265324314381,31.6000003815,0.0,0.016674547437563397,0.04688091476198981
1648466137615976271,114472,2,2,0.66699296236,0.187523663044,0.287397354841,0.0,31.6000003815,0.22307456935117057,0.0627169441618729,0.09611951666923076,31.6000003815,0.0,0.3216487868272223,0.750094644434162
1648466137615983148,114473,2,3,2.03634357452,-1.0987714529,0.374908775091,0.0,31.6000003815,0.681051362715719,-0.3674820912709029,0.12538755019765885,31.6000003815,0.0,1.0308758435033347,2.3440457437595157
1648466137720867787,114474,3,0,0.0133139379323,0.0439508594573,0.00942768435925,0.0,11.8999996185,0.004452822050936455,0.014699284099431437,0.0031530716920568557,11.8999996185,0.0,0.015991378973384682,0.04688091533532723
1648466137720900179,114475,3,1,0.0336091145873,0.0146502861753,-0.0292167179286,0.0,11.8999996185,0.011240506550936455,0.0048997612626421405,-0.009771477568093644,11.8999996185,0.0,0.016634471301312202,0.046880913759010975
1648466137720909263,114476,3,2,0.667210578918,0.187523663044,0.286891758442,0.0,11.8999996185,0.22314735080869563,0.0627169441618729,0.09595042088361203,11.8999996185,0.0,0.3217497403742257,0.750094635285092
1648466137720937865,114477,3,3,2.02964138985,-1.0987714529,0.409644573927,0.0,11.8999996185,0.6788098293812709,-0.3674820912709029,0.13700487422307692,11.8999996185,0.0,1.027914712577895,2.344045979508092
1648466137720969949,114478,3,4,0.994484722614,-0.293005734682,-2.1023080349,0.0,11.8999996185,0.3326035861585284,-0.09799522899063544,-0.7031130551505016,11.8999996185,0.0,0.48047201370730674,2.344045924821927
1648466137721230440,114479,3,5,0.602980792522,-0.0615312047303,0.251795351505,-0.485512852669,11.8999996185,0.20166581689698995,-0.020578998237558526,0.08421249214214045,11.8999996185,-0.06560984495527027,0.28594002619067166,0.656332860936848
1648466137721234640,114480,3,6,0.828386306763,-0.079111546278,0.140040203929,-0.161837622523,11.8999996185,0.27705227650936454,-0.026458711129765885,0.04683618860501672,11.8999996185,-0.021869948989594594,0.3927034392931785,0.8438564858454399
1648466137818467614,114481,4,0,0.0133034354076,0.0439508594573,0.00944249983877,0.0,30.1000003815,0.004449309500869565,0.014699284099431437,0.0031580267019297656,30.1000003815,0.0,0.01598942347631253,0.046880915561502146
1648466137818471479,114482,4,1,0.0337118916214,0.0146502861753,-0.0290980711579,0.0,30.1000003815,0.011274880140936454,0.0048997612626421405,-0.009731796373879597,30.1000003815,0.0,0.016680932372498097,0.04688091580612966
1648466137818476795,114483,4,2,0.636047661304,0.187523663044,0.35059979558,0.0,30.1000003815,0.21272497033578594,0.0627169441618729,0.11725745671571905,30.1000003815,0.0,0.30730642865668384,0.7500946395705447
1648466137818493310,114484,4,3,0.44910505414,0.44536870718,-0.403228640556,0.0,30.1000003815,0.15020235924414715,0.14895274487625418,-0.13485907710903008,30.1000003815,0.0,0.25943865874457905,0.7500946417312396
1648466137818494769,114485,4,4,2.01889038086,-1.0987714529,0.459710896015,0.0,30.1000003815,0.6752141742006688,-0.3674820912709029,0.15374946355016722,30.1000003815,0.0,1.0231673614261836,2.3440459004788976
1648466137818497235,114486,4,5,0.56195962429,-0.133317604661,0.194574922323,-0.647350490093,30.1000003815,0.18794636263879597,-0.0445878276458194,0.06507522485719062,30.1000003815,-0.08747979595851352,0.2695101943015902,0.6094518877169108
1648466137818498820,114487,4,6,0.52783459425,0.0952268540859,-0.289403051138,-0.647350490093,30.1000003815,0.17653330911371237,0.03184844618257525,-0.09679031810635452,30.1000003815,-0.08747979595851352,0.2516790455670067,0.6094519165891131
1648466137921009319,114488,5,0,0.0133139379323,0.0439508594573,0.00942768435925,0.0,39.7000007629,0.004452822050936455,0.014699284099431437,0.0031530716920568557,39.7000007629,0.0,0.015991378973384682,0.04688091533532723
1648466137921018004,114489,5,1,0.0337503887713,0.0146502861753,-0.0290534067899,0.0,39.7000007629,0.011287755441906355,0.0048997612626421405,-0.009716858458160534,39.7000007629,0.0,0.01669833842822278,0.04688091374249746
1648466137921022702,114490,5,2,0.693242669106,0.0879017189145,-0.0787241607904,0.0,39.7000007629,0.23185373548695648,0.02939856819882943,-0.026329150766020062,39.7000007629,0.0,0.3292059919422069,0.7032137683162123
1648466137921033818,114491,5,3,0.712820529938,0.249054864049,0.255006998777,0.0,39.7000007629,0.23840151502943144,0.0832959411535117,0.08528662166454849,39.7000007629,0.0,0.3472877460396576,0.7969755345258787
1648466137921041302,114492,5,4,2.03412342072,-1.0987714529,0.386775106192,0.0,39.7000007629,0.6803088363612039,-0.3674820912709029,0.12935622280668896,39.7000007629,0.0,1.029894806796843,2.344046027534324
1648466137921177748,114493,5,5,0.907712340355,-0.293005734682,-2.14120459557,0.0,39.7000007629,0.30358272252675583,-0.09799522899063544,-0.7161219383177257,39.7000007629,0.0,0.440372573780931,2.3440458983303585
1648466137921181618,114494,5,6,0.386336624622,0.032230630517,-0.340060949326,0.566431701183,39.7000007629,0.1292095734521739,0.010779475089297658,-0.11373275897190635,39.7000007629,0.07654482448418919,0.1830476026245256,0.5156900719660442
1648466137921183811,114495,5,7,1.13056707382,0.227079421282,-0.884510159492,0.566431701183,39.7000007629,0.3781160782006689,0.07594629474314381,-0.2958227958167224,39.7000007629,0.07654482448418919,0.54010311688873,1.4533083617113913
1648466137921186961,114496,5,8,1.38424825668,-0.27249532938,0.348866969347,0.566431701183,39.7000007629,0.46295928317056856,-0.09113556166555183,0.11667791616956522,39.7000007629,0.07654482448418919,0.661035767827815,1.4533083303129088
1648466137921193582,114497,5,9,0.635366976261,-0.143572807312,0.0804268866777,-0.647350490093,39.7000007629,0.21249731647525083,-0.0480176613083612,0.026898624306923073,39.7000007629,-0.08747979595851352,0.3043286296356133,0.65633286495738
1648466137921196240,114498,5,10,0.789519906044,-0.0747164562345,0.0790302976966,-0.404594063759,39.7000007629,0.2640534802822742,-0.024988781349331104,0.026431537691170567,39.7000007629,-0.05467487348094594,0.3742631695634603,0.7969755446850184
1648466138018390221,114499,6,0,0.0133034354076,0.0439508594573,0.00944249983877,0.0,31.5,0.004449309500869565,0.014699284099431437,0.0031580267019297656,31.5,0.0,0.01598942347631253,0.046880915561502146
1648466138018398262,114500,6,1,0.0336091145873,0.0146502861753,-0.0292167179286,0.0,31.5,0.011240506550936455,0.0048997612626421405,-0.009771477568093644,31.5,0.0,0.016634471301312202,0.046880913759010975
1648466138018401444,114501,6,2,0.667976856232,0.219754293561,0.00495294714347,0.0,31.5,0.22340363084682271,0.07349641925117056,0.001656504061361204,31.5,0.0,0.3243764606037724,0.7032137382656045
1648466138018550299,114502,6,3,2.03858304024,-1.0987714529,0.362535238266,0.0,31.5,0.6818003479063544,-0.3674820912709029,0.12124924356722407,31.5,0.0,1.0318655514238702,2.34404592886887
1648466138018559307,114503,6,4,0.418015837669,-0.0586011447012,0.203986957669,-0.647350490093,31.5,0.13980462798294313,-0.019599045050568562,0.06822306276555183,31.5,-0.08747979595851352,0.19868263783680865,0.4688091441103311
1648466138121038275,114504,7,0,0.0133259519935,0.0439508594573,0.00941069517285,0.0,27.7000007629,0.004456840131605351,0.014699284099431437,0.003147389689916388,27.7000007629,0.0,0.015993617506779818,0.04688091538360472
1648466138121046742,114505,7,1,0.0336977690458,0.0146502861753,-0.0291144233197,0.0,27.7000007629,0.011270156871505016,0.0048997612626421405,-0.009737265324314381,27.7000007629,0.0,0.016674547437563397,0.04688091476198981
1648466138121051266,114506,7,2,0.661240160465,0.197778865695,0.134738877416,0.0,27.7000007629,0.22115055533946487,0.06614677782441471,0.04506316970434782,27.7000007629,0.0,0.31967253943756246,0.7032137616789818
1648466138121055431,114507,7,3,0.712097048759,0.323771327734,0.152512088418,0.0,27.7000007629,0.23815954807993311,0.10828472499464883,0.051007387430769234,27.7000007629,0.0,0.3537873971051579,0.7969755433057747
1648466138121059081,114508,7,4,2.03874731064,-1.0987714529,0.361610352993,0.0,27.7000007629,0.6818552878394648,-0.3674820912709029,0.1209399173889632,27.7000007629,0.0,1.0319381544037003,2.344045935928204
1648466138121061839,114509,7,5,0.322248667479,-0.0351606868207,0.188626676798,-0.566431701183,27.7000007629,0.10777547407324414,-0.011759427030334446,0.06308584508294314,27.7000007629,-0.07654482448418919,0.15287049992561286,0.3750473313990537
1648466138121200921,114510,7,6,0.246183529496,0.082041606307,-0.270782828331,-0.566431701183,27.7000007629,0.08233562859397993,0.027438664316722407,-0.09056281883979932,27.7000007629,-0.07654482448418919,0.11962939342576884,0.375047324319847
1648466138121203345,114511,7,7,0.460219562054,0.0879017189145,0.0159146636724,-0.485512852669,27.7000007629,0.15391958597123745,0.02939856819882943,0.00532262999076923,27.7000007629,-0.06560984495527027,0.2196514368340338,0.46880916587147153
1648466138121204689,114512,7,8,0.439971417189,-0.0879017189145,-0.135942801833,-0.485512852669,27.7000007629,0.14714763116688961,-0.02939856819882943,-0.04546582001103679,27.7000007629,-0.06560984495527027,0.21016452252508078,0.4688091354715981
1648466138121205985,114513,7,9,0.545893847942,-0.0879017189145,0.103727087379,-0.485512852669,27.7000007629,0.1825731932916388,-0.02939856819882943,0.0346913335715719,27.7000007629,-0.06560984495527027,0.2598657684835643,0.5625709858010612
1648466138121207187,114514,7,10,0.728823304176,0.093761831522,0.15055668354,-0.0809188112617,27.7000007629,0.2437536134367893,0.03135847208093645,0.05035340586622074,27.7000007629,-0.010934974494824324,0.346143036761155,0.750094663838469
1648466138121321756,114515,7,11,0.492917120457,0.304725944996,0.476252883673,-0.0809188112617,27.7000007629,0.16485522423311036,0.10191503177123744,0.15928190089397992,27.7000007629,-0.010934974494824324,0.2544428494079378,0.750094659626486
