%time,field.header.seq,field.header.frame_id,field.point_id,field.x,field.y,field.z,field.velocity,field.intensity,normalized_x,normalized_y,normalized_z,normalized_intensity,normalized_velocity,normalized_range,range
1648465513804638785,97901,0,0,0.0133139379323,0.0439508594573,0.00942768435925,0.0,12.8999996185,0.004452822050936455,0.014699284099431437,0.0031530716920568557,12.8999996185,0.0,0.015991378973384682,0.04688091533532723
1648465513804645009,97902,0,1,0.0337223596871,0.0146502861753,-0.0290859378874,0.0,12.8999996185,0.011278381166254181,0.0048997612626421405,-0.009727738423879598,12.8999996185,0.0,0.016685665221786113,0.0468809152072997
1648465513804654449,97903,0,2,0.866339921951,-0.083506628871,0.189459487796,0.0,12.8999996185,0.2897457932946488,-0.027928638418394644,0.06336437718929766,12.8999996185,0.0,0.4107131094910365,0.8907373995445494
1648465513804658591,97904,0,3,0.51341509819,0.723724126816,0.0777270272374,0.0,12.8999996185,0.17171073518060198,0.24204820294849494,0.02599566128341137,12.8999996185,0.0,0.3428651129863192,0.8907374279484344
1648465513804678638,97905,0,4,2.09653711319,-1.02552008629,0.217696562409,0.0,12.8999996185,0.701182981,-0.342983306451505,0.07280821485250837,12.8999996185,0.0,1.049262929008978,2.3440458842889584
1648465513804689398,97906,0,5,0.919836461544,0.254914969206,-0.968135416508,0.566431701183,12.8999996185,0.3076376125565217,0.0852558425438127,-0.3237911092,12.8999996185,0.07654482448418919,0.44334000497001,1.3595465943498226
1648465513804790127,97907,0,6,0.620976507664,0.0205104015768,0.21151907742,-0.566431701183,12.8999996185,0.2076844507237458,0.006859666079197324,0.070742166361204,12.8999996185,-0.07654482448418919,0.29379026049814194,0.6563328574405121
1648465513804817502,97908,0,7,0.591717779636,0.114272229373,0.0907938703895,-0.161837622523,12.8999996185,0.19789892295518394,0.03821813691404682,0.030365842939632105,12.8999996185,-0.021869948989594594,0.28246874765684166,0.6094518849290227
1648465513999954857,97909,2,0,0.0133139379323,0.0439508594573,0.00942768435925,0.0,32.2000007629,0.004452822050936455,0.014699284099431437,0.0031530716920568557,32.2000007629,0.0,0.015991378973384682,0.04688091533532723
1648465514000106115,97910,2,1,0.0336696356535,0.0146502861753,-0.0291469544172,0.0,32.2000007629,0.011260747710200669,0.0048997612626421405,-0.009748145290033443,32.2000007629,0.0,0.01666182878367401,0.04688091511325221
1648465514000109747,97911,2,2,0.873662173748,-0.0556710883975,0.164402708411,0.0,32.2000007629,0.2921947069391304,-0.018619093109531772,0.05498418341505016,32.2000007629,0.0,0.41364497356393687,0.8907373992677725
1648465514000111573,97912,2,3,2.09869813919,-1.02552008629,0.195769026875,0.0,32.2000007629,0.7019057321705685,-0.342983306451505,0.06547459092809364,32.2000007629,0.0,1.0502289570432777,2.3440458269213513
1648465514000113382,97913,2,4,0.357954472303,0.096691891551,-0.358406931162,0.566431701183,32.2000007629,0.11971721481705684,0.032338425267892976,-0.11986853885016722,32.2000007629,0.07654482448418919,0.17236646076285772,0.515690075954921
1648465514299902397,97914,5,0,0.0132584534585,0.0439508594573,0.00950555689633,0.0,27.8999996185,0.0044342653707357856,0.014699284099431437,0.0031791160188394648,27.8999996185,0.0,0.015981062911834463,0.04688091559532422
1648465514299908000,97915,5,1,0.0337223596871,0.0146502861753,-0.0290859378874,0.0,27.8999996185,0.011278381166254181,0.0048997612626421405,-0.009727738423879598,27.8999996185,0.0,0.016685665221786113,0.0468809152072997
1648465514299913760,97916,5,2,2.10331368446,-1.02552008629,0.137588813901,0.0,27.8999996185,0.7034493927959866,-0.342983306451505,0.04601632571939799,27.8999996185,0.0,1.0522925662354987,2.344045772661369
1648465514299915671,97917,5,3,0.363030910492,0.0805765762925,-0.357284516096,0.485512852669,27.8999996185,0.12141502023143812,0.026948687723244144,-0.11949314919598661,27.8999996185,0.06560984495527027,0.17380864778717423,0.5156900736504674
1648465514299917340,97918,5,4,0.465161621571,-0.11280720681,0.191925674677,0.485512852669,27.8999996185,0.15557244868595316,-0.03772816281270903,0.06418918885518395,27.8999996185,0.06560984495527027,0.22322407542536565,0.5156900858956452
1648465514300076142,97919,5,5,0.40728405118,0.039555773139,0.102851673961,-0.485512852669,27.8999996185,0.13621540173244145,0.013229355564882942,0.034398553164214044,27.8999996185,-0.06560984495527027,0.1930913959422401,0.4219282218230925
1648465514300079962,97920,5,6,0.263396680355,0.0175803434104,0.0971321463585,-0.323675245047,27.8999996185,0.08809253523578596,0.005879713515183946,0.03248566767842809,27.8999996185,-0.04373989797932432,0.12472032937559546,0.2812855018529585
