%time,field.header.seq,field.header.frame_id,field.point_id,field.x,field.y,field.z,field.velocity,field.intensity,normalized_x,normalized_y,normalized_z,normalized_intensity,normalized_velocity,normalized_range,range
1648466178716568716,116128,0,0,0.0133139379323,0.0439508594573,0.00942768435925,0.0,39.5,0.004452822050936455,0.014699284099431437,0.0031530716920568557,39.5,0.0,0.015991378973384682,0.04688091533532723
1648466178716575599,116129,0,1,0.0336091145873,0.0146502861753,-0.0292167179286,0.0,39.5,0.011240506550936455,0.0048997612626421405,-0.009771477568093644,39.5,0.0,0.016634471301312202,0.046880913759010975
1648466178716592048,116130,0,2,0.68917453289,0.398487776518,-0.0376302339137,0.0,39.5,0.23049315481270902,0.1332735038521739,-0.012585362512943142,39.5,0.0,0.3521590772081082,0.7969755826390222
1648466178716620462,116131,0,3,2.02715826035,-1.0987714529,0.421760231256,0.0,39.5,0.6779793512876253,-0.3674820912709029,0.14105693353043477,39.5,0.0,1.0268179434299027,2.344045863647367
1648466178716624510,116132,0,4,0.577344477177,-0.0571361146867,0.186655953526,-0.647350490093,39.5,0.1930917983869565,-0.0191090684570903,0.062426740309699,39.5,-0.08747979595851352,0.2737408294462408,0.6094519061541899
1648466178716634258,116133,0,5,0.744453251362,-0.046880915761,0.0789525732398,-0.161837622523,39.5,0.248981020522408,-0.015679236040468225,0.026405542889565214,39.5,-0.021869948989594594,0.3524612540458486,0.7500946423933643
1648466178821894598,116134,1,0,0.0132406326011,0.0439508594573,0.00953036453575,0.0,32.2999992371,0.004428305217759197,0.014699284099431437,0.0031874128882107017,32.2999992371,0.0,0.015977757265619744,0.04688091559362861
1648466178821927860,116135,1,1,0.0336624495685,0.0146502861753,-0.029155254364,0.0,32.2999992371,0.01125834433729097,0.0048997612626421405,-0.009750921191973244,32.2999992371,0.0,0.016658580217560913,0.04688091565871483
1648466178821932838,116136,1,2,0.702487409115,0.234404578805,0.119196742773,0.0,32.2999992371,0.23494562177759196,0.07839618020234114,0.03986513136220736,32.2999992371,0.0,0.3413866597499623,0.7500946140438202
1648466178821942703,116137,1,3,0.664805412292,-0.0234404578805,-0.346592396498,0.0,32.2999992371,0.22234294725484946,-0.007839618020234113,-0.11591718946421403,32.2999992371,0.0,0.31453812487304095,0.7500946477536088
1648466178821946396,116138,1,4,2.03020334244,-1.0987714529,0.406849235296,0.0,32.2999992371,0.6789977733913043,-0.3674820912709029,0.1360699783598662,32.2999992371,0.0,1.028162944258124,2.34404577976273
1648466178822056750,116139,1,5,1.01586437225,-0.293005734682,-2.09206080437,0.0,32.2999992371,0.3397539706521739,-0.09799522899063544,-0.6996858877491638,32.2999992371,0.0,0.490375963983517,2.344045902397109
1648466178822060286,116140,1,6,0.393180340528,0.0483459457755,-0.330163806677,0.485512852669,32.2999992371,0.13149844164816052,0.016169212633946488,-0.11042267781839464,32.2999992371,0.06560984495527027,0.18666848622354854,0.5156900715450018
1648466178822066267,116141,1,7,0.53090775013,-0.105482056737,0.153286069632,-0.566431701183,32.2999992371,0.17756112044481606,-0.035278279845150494,0.05126624402408027,32.2999992371,-0.07654482448418919,0.2535753537236411,0.5625709933730965
1648466179016888739,116142,3,0,0.0132299559191,0.0439508594573,0.00954518001527,0.0,38.0999984741,0.004424734421103679,0.014699284099431437,0.0031923678980836116,38.0999984741,0.0,0.01597577861734436,0.04688091554332718
1648466179016893092,116143,3,1,0.0336091145873,0.0146502861753,-0.0292167179286,0.0,38.0999984741,0.011240506550936455,0.0048997612626421405,-0.009771477568093644,38.0999984741,0.0,0.016634471301312202,0.046880913759010975
1648466179016897542,116144,3,2,0.691979885101,0.0879017189145,0.0891442522407,0.0,38.0999984741,0.23143139969933108,0.02939856819882943,0.0298141311841806,38.0999984741,0.0,0.32861110958962464,0.7032137450875591
1648466179017016857,116145,3,3,2.01210832596,-1.0987714529,0.488541126251,0.0,38.0999984741,0.6729459284147157,-0.3674820912709029,0.16339168102040133,38.0999984741,0.0,1.0201742657726294,2.3440458726620785
1648466179017018948,116146,3,4,0.345735162497,-0.0,0.145353704691,-0.647350490093,38.0999984741,0.11563048912943143,-0.0,0.04861327916086956,38.0999984741,-0.08747979595851352,0.16352620595067666,0.37504733308507265
1648466179017021847,116147,3,5,0.451299130917,-0.0732514336705,0.103659667075,-0.404594063759,38.0999984741,0.15093616418628764,-0.02449880724765886,0.034668784974916385,38.0999984741,-0.05467487348094594,0.21485726162989674,0.46880913459458423
1648466179122050507,116148,4,0,0.0132406326011,0.0439508594573,0.00953036453575,0.0,25.2000007629,0.004428305217759197,0.014699284099431437,0.0031874128882107017,25.2000007629,0.0,0.015977757265619744,0.04688091559362861
1648466179122055153,116149,4,1,0.0336091145873,0.0146502861753,-0.0292167179286,0.0,25.2000007629,0.011240506550936455,0.0048997612626421405,-0.009771477568093644,25.2000007629,0.0,0.016634471301312202,0.046880913759010975
1648466179122057633,116150,4,2,0.658218026161,0.281285494566,-0.224208593369,0.0,25.2000007629,0.220139808080602,0.09407541624280935,-0.07498615162842809,25.2000007629,0.0,0.3252280033219562,0.7500946558648632
1648466179122062981,116151,4,3,0.711993575096,-0.0,0.236023649573,0.0,25.2000007629,0.2381249415036789,-0.0,0.07893767544247492,25.2000007629,0.0,0.33675952181380264,0.7500946701155407
1648466179122186769,116152,4,4,2.02463579178,-1.0987714529,0.433707326651,0.0,25.2000007629,0.6771357163143813,-0.3674820912709029,0.14505261760903007,25.2000007629,0.0,1.0257039748494772,2.3440458272515414
1648466179122195570,116153,4,5,0.293451011181,0.0102552007884,0.146541923285,-0.485512852669,25.2000007629,0.0981441508966555,0.003429833039598662,0.04901067668394648,25.2000007629,-0.06560984495527027,0.1388391604163987,0.3281664217838696
1648466179122249017,116154,4,6,0.406851798296,-0.039555773139,0.10454852879,-0.404594063759,25.2000007629,0.13607083555050165,-0.013229355564882942,0.034966063140468226,25.2000007629,-0.05467487348094594,0.19288742940763512,0.42192824015164776
1648466179316949333,116155,6,0,0.013321028091,0.0439508594573,0.00941766425967,0.0,25.2999992371,0.004455193341471571,0.014699284099431437,0.0031497204881839463,25.2999992371,0.0,0.015992699848855513,0.0468809154832157
1648466179316952365,116156,6,1,0.0337503887713,0.0146502861753,-0.0290534067899,0.0,25.2999992371,0.011287755441906355,0.0048997612626421405,-0.009716858458160534,25.2999992371,0.0,0.01669833842822278,0.04688091374249746
1648466179316958279,116157,6,2,0.697554886341,0.0879017189145,0.0141456341371,0.0,25.2999992371,0.2332959486090301,0.02939856819882943,0.004730981316755853,25.2999992371,0.0,0.331237490461022,0.7032137872734506
1648466179316961743,116158,6,3,0.683805346489,0.224149376154,0.342545360327,0.0,25.2999992371,0.22869744029732442,0.07496634653979932,0.114563665661204,25.2999992371,0.0,0.33200149323553024,0.7969755445424427
1648466179316979435,116159,6,4,2.03779149055,-1.0987714529,0.366957873106,0.0,25.2999992371,0.6815356155685619,-0.3674820912709029,0.12272838565418058,25.2999992371,0.0,1.031515718727385,2.344045849658331
1648466179317176363,116160,6,5,1.37048852444,-0.293005734682,-1.87895190716,0.0,25.2999992371,0.4583573660334448,-0.09799522899063544,-0.628412009083612,25.2999992371,0.0,0.6555806700164074,2.3440459521089747
1648466179317443333,116161,6,6,0.264497548342,0.0527410283685,0.0798808932304,-0.242756426334,25.2999992371,0.0884607185090301,0.017639139922575247,0.026716017802809362,25.2999992371,-0.03280492247756756,0.1263397668807249,0.28128548888199356
