%time,field.header.seq,field.header.frame_id,field.point_id,field.x,field.y,field.z,field.velocity,field.intensity,normalized_x,normalized_y,normalized_z,normalized_intensity,normalized_velocity,normalized_range,range
1648465898509611115,106617,0,0,0.0133364023641,0.0439508594573,0.00939587969333,0.0,15.8000001907,0.004460335238829431,0.014699284099431437,0.003142434680043478,15.8000001907,0.0,0.01599556607067362,0.0468809154162335
1648465898509615051,106618,0,1,0.0336977690458,0.0146502861753,-0.0291144233197,0.0,15.8000001907,0.011270156871505016,0.0048997612626421405,-0.009737265324314381,15.8000001907,0.0,0.016674547437563397,0.04688091476198981
1648465898509620344,106619,0,2,0.844552159309,-0.263705164194,0.310353547335,0.0,15.8000001907,0.28245891615685614,-0.0881957070882943,0.10379717302173912,15.8000001907,0.0,0.4090776960209588,0.9376183060070323
1648465898509624175,106620,0,3,0.677452504635,0.0439508594573,0.183401212096,-0.161837622523,15.8000001907,0.22657274402508357,0.014699284099431437,0.06133819802541805,15.8000001907,-0.021869948989594594,0.32075923310662136,0.7032137503501705
1648465898614602605,106621,1,0,0.0133139379323,0.0439508594573,0.00942768435925,0.0,42.5,0.004452822050936455,0.014699284099431437,0.0031530716920568557,42.5,0.0,0.015991378973384682,0.04688091533532723
1648465898614609409,106622,1,1,0.0336977690458,0.0146502861753,-0.0291144233197,0.0,42.5,0.011270156871505016,0.0048997612626421405,-0.009737265324314381,42.5,0.0,0.016674547437563397,0.04688091476198981
1648465898614613100,106623,1,2,0.316488355398,0.574291229248,0.0282404534519,0.0,42.5,0.10584894829364548,0.1920706452334448,0.00944496770966555,42.5,0.0,0.24351413197211672,0.6563328563350144
1648465898614623317,106624,1,3,0.790989041328,-0.0747164562345,0.0626405328512,0.0,42.5,0.26454482987558525,-0.024988781349331104,0.02095001098702341,42.5,0.0,0.3749564951046046,0.7969755634203051
1648465898614647366,106625,1,4,0.425488650799,0.67244809866,0.0440795868635,0.0,42.5,0.14230389658829432,0.2248990296521739,0.014742336743645484,42.5,0.0,0.30179524765461985,0.796975562566544
1648465898614654532,106626,1,5,0.845697283745,-0.234404578805,0.330119162798,0.0,42.5,0.28284190091806016,-0.07839618020234114,0.11040774675518394,42.5,0.0,0.4076089337835979,0.937618293307502
1648465898614658567,106627,1,6,0.826080083847,-0.293005734682,0.332967489958,0.0,42.5,0.2762809644973244,-0.09799522899063544,0.11136036453444816,42.5,0.0,0.40282180625193414,0.9376182671290785
1648465898614741822,106628,1,7,0.671504378319,-0.0219754297286,0.20762591064,-0.485512852669,42.5,0.2245834041200669,-0.007349642049698997,0.06944010389297658,42.5,-0.06560984495527027,0.31769392196038826,0.7032137430272767
1648465898809586956,106629,3,0,0.0133538460359,0.0439508594573,0.00937107205391,0.0,39.2000007629,0.00446616924277592,0.014699284099431437,0.0031341378106722407,39.2000007629,0.0,0.01599882147053442,0.046880915545938644
1648465898809591646,106630,3,1,0.0337503887713,0.0146502861753,-0.0290534067899,0.0,39.2000007629,0.011287755441906355,0.0048997612626421405,-0.009716858458160534,39.2000007629,0.0,0.01669833842822278,0.04688091374249746
1648465898809594260,106631,3,2,0.316751629114,0.574291229248,0.0251158997416,0.0,39.2000007629,0.10593699970367892,0.1920706452334448,0.008399966468762541,39.2000007629,0.0,0.24359069886353696,0.6563328568320971
1648465898809596822,106632,3,3,0.799096047878,-0.293005734682,0.393346130848,0.0,39.2000007629,0.26725620330367894,-0.09799522899063544,0.13155388991571906,39.2000007629,0.0,0.39045463412990994,0.9376182767757193
1648465898809601127,106633,3,4,0.517876267433,-0.0,0.219750583172,-0.485512852669,39.2000007629,0.17320276502775916,-0.0,0.07349517831839464,39.2000007629,-0.06560984495527027,0.2449456993427774,0.5625710152280956
1648465898809603659,106634,3,5,0.748573482037,0.046880915761,0.0090483603999,-0.323675245047,39.2000007629,0.25035902409264216,0.015679236040468225,0.003026207491605351,39.2000007629,-0.04373989797932432,0.35440812678612926,0.7500946280953592
1648465898809730397,106635,3,6,0.0552826225758,0.351606875658,-0.660271465778,-0.323675245047,39.2000007629,0.018489171430033445,0.11759427279531771,-0.22082657718327758,39.2000007629,-0.04373989797932432,0.12046622727801319,0.7500946419549117
1648465898914651571,106636,4,0,0.0133139379323,0.0439508594573,0.00942768435925,0.0,25.5,0.004452822050936455,0.014699284099431437,0.0031530716920568557,25.5,0.0,0.015991378973384682,0.04688091533532723
1648465898914669253,106637,4,1,0.033594943583,0.0146502861753,-0.0292330104858,0.0,25.5,0.011235767084615383,0.0048997612626421405,-0.0097769265838796,25.5,0.0,0.0166280661650819,0.04688091318890911
1648465898914672420,106638,4,2,0.316688209772,0.574291229248,0.0259032379836,0.0,25.5,0.10591578922140468,0.1920706452334448,0.008663290295518393,25.5,0.0,0.24357225123806253,0.6563328545317598
1648465898914675235,106639,4,3,0.835688769817,-0.263705164194,0.333484679461,0.0,25.5,0.2794945718451505,-0.0881957070882943,0.11153333761237458,25.5,0.0,0.404985078898732,0.9376183472266535
1648465898914679054,106640,4,4,1.00890052319,-0.949338495731,-0.963976740837,-0.647350490093,25.5,0.33742492414381264,-0.317504513622408,-0.3224002477715719,25.5,-0.08747979595851352,0.5731668823628222,1.6877129501323909
1648465898914682153,106641,4,5,0.45475551486,0.0161153152585,0.242639586329,-0.566431701183,25.5,0.15209214543812707,0.005389737544648829,0.08115036332073579,25.5,-0.07654482448418919,0.215158292144981,0.5156900721706524
1648465898914684432,106642,4,6,0.750025391579,-0.0,0.0101928608492,-0.242756426334,25.5,0.2508446125682274,-0.0,0.0034089835616053507,25.5,-0.03280492247756756,0.3547478531422117,0.7500946489780629
1648465899109806750,106643,6,0,0.0133139379323,0.0439508594573,0.00942768435925,0.0,30.8999996185,0.004452822050936455,0.014699284099431437,0.0031530716920568557,30.8999996185,0.0,0.015991378973384682,0.04688091533532723
1648465899109810425,106644,6,1,0.0336977690458,0.0146502861753,-0.0291144233197,0.0,30.8999996185,0.011270156871505016,0.0048997612626421405,-0.009737265324314381,30.8999996185,0.0,0.016674547437563397,0.04688091476198981
1648465899109812134,106645,6,2,0.316507816315,0.574291229248,0.0280216131359,0.0,30.8999996185,0.10585545696153846,0.1920706452334448,0.009371776968528428,30.8999996185,0.0,0.24351979036099725,0.6563328611172892
1648465899109818174,106646,6,3,0.812445223331,-0.293005734682,0.364977449179,0.0,30.8999996185,0.2717208104785953,-0.09799522899063544,0.1220660365147157,30.8999996185,0.0,0.39656961885552516,0.9376183338006497
1648465899109876809,106647,6,4,0.363507002592,-0.105482056737,0.186439335346,-0.566431701183,30.8999996185,0.12157424835852841,-0.035278279845150494,0.062354292757859524,30.8999996185,-0.07654482448418919,0.17551396741204117,0.4219282296684428
1648465899109882947,106648,6,5,0.416833132505,0.0263705141842,-0.059817686677,-0.566431701183,30.8999996185,0.13940907441638795,0.008819569961270902,-0.020005915276588626,30.8999996185,-0.07654482448418919,0.1973513741365125,0.42192821665735714
1648465899109893750,106649,6,6,0.443531602621,0.0146502861753,0.151152640581,-0.404594063759,30.8999996185,0.14833832863578594,0.0048997612626421405,0.05055272260234114,30.8999996185,-0.05467487348094594,0.20983928885065292,0.46880916604006345
