%time,field.header.seq,field.header.frame_id,field.point_id,field.x,field.y,field.z,field.velocity,field.intensity,normalized_x,normalized_y,normalized_z,normalized_intensity,normalized_velocity,normalized_range,range
1648465780105841422,102920,0,0,0.0132406326011,0.0439508594573,0.00953036453575,0.0,16.6000003815,0.004428305217759197,0.014699284099431437,0.0031874128882107017,16.6000003815,0.0,0.015977757265619744,0.04688091559362861
1648465780105889670,102921,0,1,0.0336977690458,0.0146502861753,-0.0291144233197,0.0,16.6000003815,0.011270156871505016,0.0048997612626421405,-0.009737265324314381,16.6000003815,0.0,0.016674547437563397,0.04688091476198981
1648465780105898356,102922,0,2,0.316610187292,0.574291229248,0.0268401745707,0.0,16.6000003815,0.1058896947464883,0.1920706452334448,0.00897664701361204,16.6000003815,0.0,0.24354955895546343,0.6563328588903956
1648465780105906347,102923,0,3,0.843831002712,-0.0,0.00655386131257,0.0,16.6000003815,0.28221772665953176,-0.0,0.002191926860391304,16.6000003815,0.0,0.39911613658401285,0.8438564535725515
1648465780105909034,102924,0,4,0.855448186398,-0.263705164194,0.278919607401,0.0,16.6000003815,0.286103072373913,-0.0881957070882943,0.09328414963244147,16.6000003815,0.0,0.41411160185678114,0.9376183448647641
1648465780105913596,102925,0,5,0.742429018021,0.498109728098,0.282513618469,0.0,16.6000003815,0.2483040194050167,0.1665918823070234,0.09448616002307693,16.6000003815,0.0,0.3886677596044866,0.9376183086128053
1648465780105915872,102926,0,6,0.552451431751,0.133317604661,0.220125973225,-0.404594063759,16.6000003815,0.18476636513411368,0.0445878276458194,0.07362072683110367,16.6000003815,-0.05467487348094594,0.2650760150294978,0.6094518949388293
1648465780210751595,102927,1,0,0.0132299559191,0.0439508594573,0.00954518001527,0.0,44.7000007629,0.004424734421103679,0.014699284099431437,0.0031923678980836116,44.7000007629,0.0,0.01597577861734436,0.04688091554332718
1648465780210765054,102928,1,1,0.0336836874485,0.0146502861753,-0.0291307158768,0.0,44.7000007629,0.011265447307190634,0.0048997612626421405,-0.009742714340066889,44.7000007629,0.0,0.016668181259305585,0.046880916081506664
1648465780210772757,102929,1,2,0.316518813372,0.574291229248,0.0278968196362,0.0,44.7000007629,0.10585913490702341,0.1920706452334448,0.009330040012107021,44.7000007629,0.0,0.2435229879229445,0.6563328482983406
1648465780210776908,102930,1,3,0.852381765842,-0.234404578805,0.312454670668,0.0,44.7000007629,0.28507751365953177,-0.07839618020234114,0.10449988985551838,44.7000007629,0.0,0.4107119899137582,0.9376183138819996
1648465780210782011,102931,1,4,0.52076202631,0.0351606868207,0.209897100925,-0.242756426334,44.7000007629,0.17416790177591973,0.011759427030334446,0.07019969930602006,44.7000007629,-0.03280492247756756,0.24659115990265063,0.562571022112693
1648465780405784075,102932,3,0,0.0133139379323,0.0439508594573,0.00942768435925,0.0,39.7000007629,0.004452822050936455,0.014699284099431437,0.0031530716920568557,39.7000007629,0.0,0.015991378973384682,0.04688091533532723
1648465780405788911,102933,3,1,0.0336977690458,0.0146502861753,-0.0291144233197,0.0,39.7000007629,0.011270156871505016,0.0048997612626421405,-0.009737265324314381,39.7000007629,0.0,0.016674547437563397,0.04688091476198981
1648465780405792780,102934,3,2,0.316331654787,0.574291229248,0.0299447756261,0.0,39.7000007629,0.1057965400625418,0.1920706452334448,0.010014975125785953,39.7000007629,0.0,0.24346857813443162,0.6563328586919583
1648465780405803273,102935,3,3,1.04898691177,0.0673913136125,0.240273728967,0.0,39.7000007629,0.3508317430668896,0.02253890087374582,0.08035910667792641,39.7000007629,0.0,0.4966626882898499,1.0782609123245113
1648465780405983942,102936,3,4,0.532202601433,-0.158223092556,0.0906197801232,0.242756426334,39.7000007629,0.1779941810812709,-0.05291742225953177,0.030307618770301,39.7000007629,0.03280492247756756,0.2572238530466763,0.562570973779855
1648465780510836338,102937,4,0,0.0132406326011,0.0439508594573,0.00953036453575,0.0,29.3999996185,0.004428305217759197,0.014699284099431437,0.0031874128882107017,29.3999996185,0.0,0.015977757265619744,0.04688091559362861
1648465780510840886,102938,4,1,0.0336836874485,0.0146502861753,-0.0291307158768,0.0,29.3999996185,0.011265447307190634,0.0048997612626421405,-0.009742714340066889,29.3999996185,0.0,0.016668181259305585,0.046880916081506664
1648465780510858874,102939,4,2,0.316857486963,0.574291229248,0.0237430054694,0.0,29.3999996185,0.10597240366655516,0.1920706452334448,0.007940804504816053,29.3999996185,0.0,0.24362149625623444,0.6563328525560842
1648465780510862573,102940,4,3,1.04521536827,0.0673913136125,0.25618365407,0.0,29.3999996185,0.34957035728093644,0.02253890087374582,0.08568015186287624,29.3999996185,0.0,0.49488066382880597,1.0782610165590092
1648465780510869233,102941,4,4,0.571395993233,-0.190453708172,0.0930895283818,0.242756426334,29.3999996185,0.19110233887391304,-0.06369689236521739,0.03113362153237458,29.3999996185,0.03280492247756756,0.2776643692358562,0.6094519311098603
1648465780510980731,102942,4,5,1.31087422371,-0.0,-0.0685560032725,0.242756426334,29.3999996185,0.438419472812709,-0.0,-0.022928429188127087,29.3999996185,0.03280492247756756,0.6200187644601954,1.3126656680099447
1648465780705793853,102943,6,0,0.0133034354076,0.0439508594573,0.00944249983877,0.0,13.5,0.004449309500869565,0.014699284099431437,0.0031580267019297656,13.5,0.0,0.01598942347631253,0.046880915561502146
1648465780705798531,102944,6,1,0.033594943583,0.0146502861753,-0.0292330104858,0.0,13.5,0.011235767084615383,0.0048997612626421405,-0.0097769265838796,13.5,0.0,0.0166280661650819,0.04688091318890911
1648465780705805674,102945,6,2,0.316233962774,0.574291229248,0.0309591703117,0.0,13.5,0.10576386714849498,0.1920706452334448,0.01035423756244147,13.5,0.0,0.24344018556680572,0.6563328465262998
