%time,field.header.seq,field.header.frame_id,field.point_id,field.x,field.y,field.z,field.velocity,field.intensity,normalized_x,normalized_y,normalized_z,normalized_intensity,normalized_velocity,normalized_range,range
1648465396698991061,95811,0,0,0.343000531197,0.0117202289402,0.151240766048,0.0,12.5,0.11471589672140468,0.003919809010100334,0.05058219600267558,12.5,0.0,0.16228012454970459,0.375047326990369
1648465396698995666,95812,0,1,2.17249202728,-0.9713139534,0.230991467834,0.0,12.5,0.7265859623010034,-0.3248541650167224,0.07725467151638796,12.5,0.0,1.077675530832199,2.3909264862970607
1648465396698997726,95813,0,2,0.341685295105,0.0703213736415,0.137719109654,-0.161837622523,12.5,0.11427601842976588,0.023518854060702338,0.04605990289431438,12.5,-0.021869948989594594,0.16331305297694057,0.3750473165424716
1648465396999235207,95814,3,0,2.5292828083,-0.835066318512,0.214731395245,0.0,21.6000003815,0.8459139827090301,-0.2792863941511705,0.07181652014882943,21.6000003815,0.0,1.2284713355399342,2.6722119775158153
1648465396999239265,95815,3,1,0.322809636593,-0.187523663044,0.0359068550169,-0.242756426334,21.6000003815,0.10796308916153845,-0.0627169441618729,0.012008981611003342,21.6000003815,-0.03280492247756756,0.16506202569824496,0.3750473142364161
1648465397299294914,95816,6,0,0.855592310429,0.0278355441988,0.246170967817,0.0,20.2000007629,0.2861512743909699,0.009309546554782609,0.08233142736354515,20.2000007629,0.0,0.4047860809467242,0.8907374274060993
1648465397299299217,95817,6,1,0.713733136654,-0.843856453896,0.210797801614,0.0,20.2000007629,0.2387067346668896,-0.28222623876120395,0.07050093699464882,20.2000007629,0.0,0.44001529541136836,1.1251419547351278
1648465397299301306,95818,6,2,0.452873945236,0.98449921608,0.302673041821,0.0,20.2000007629,0.15146285793846154,0.3292639518662207,0.10122844208060201,20.2000007629,0.0,0.39280624316364177,1.1251419852538305
