%time,field.header.seq,field.header.frame_id,field.point_id,field.x,field.y,field.z,field.velocity,field.intensity,normalized_x,normalized_y,normalized_z,normalized_intensity,normalized_velocity,normalized_range,range
1648466046818658380,111496,0,0,0.0133139379323,0.0439508594573,0.00942768435925,0.0,29.7999992371,0.004452822050936455,0.014699284099431437,0.0031530716920568557,29.7999992371,0.0,0.015991378973384682,0.04688091533532723
1648466046818683796,111497,0,1,0.0336977690458,0.0146502861753,-0.0291144233197,0.0,29.7999992371,0.011270156871505016,0.0048997612626421405,-0.009737265324314381,29.7999992371,0.0,0.016674547437563397,0.04688091476198981
1648466046818686074,111498,0,2,0.994477570057,0.193383783102,0.193292871118,0.0,29.7999992371,0.3326011939989966,0.06467685053578595,0.06464644518996655,29.7999992371,0.0,0.4747949067695912,1.0313801718757039
1648466046818695141,111499,0,3,2.0415930748,-1.0987714529,0.345181643963,0.0,29.7999992371,0.6828070484280937,-0.3674820912709029,0.11544536587391303,29.7999992371,0.0,1.0331960211745912,2.3440459372862756
1648466046818729120,111500,0,4,0.635457336903,0.164083212614,0.00659467978403,-0.404594063759,29.7999992371,0.21252753742575248,0.054877328633444813,0.0022055785230869563,29.7999992371,-0.05467487348094594,0.30552811577079503,0.6563328557119763
1648466047013754009,111501,2,0,0.0132299559191,0.0439508594573,0.00954518001527,0.0,35.7999992371,0.004424734421103679,0.014699284099431437,0.0031923678980836116,35.7999992371,0.0,0.01597577861734436,0.04688091554332718
1648466047013771838,111502,2,1,0.0336977690458,0.0146502861753,-0.0291144233197,0.0,35.7999992371,0.011270156871505016,0.0048997612626421405,-0.009737265324314381,35.7999992371,0.0,0.016674547437563397,0.04688091476198981
1648466047013775864,111503,2,2,2.05067253113,-1.0987714529,0.286347955465,0.0,35.7999992371,0.685843655896321,-0.3674820912709029,0.09576854697826087,35.7999992371,0.0,1.0372107442903291,2.344046007918378
1648466047013818695,111504,2,3,0.518384218216,0.193383783102,0.101816527545,-0.566431701183,35.7999992371,0.1733726482327759,0.06467685053578595,0.03405235034949832,35.7999992371,-0.07654482448418919,0.2535729585458988,0.562570964895609
1648466047013831393,111505,2,4,0.513198256493,0.140642747283,0.182573989034,-0.323675245047,35.7999992371,0.17163821287391304,0.047037708121404675,0.061061534793979924,35.7999992371,-0.04373989797932432,0.2472486566645324,0.562570968236499
1648466047013845511,111506,2,5,0.647044062614,-0.0,0.110030829906,-0.161837622523,35.7999992371,0.2164026965264214,-0.0,0.03679960866421404,35.7999992371,-0.021869948989594594,0.30603962836177423,0.6563328442900241
1648466047118934483,111507,3,0,0.0133259519935,0.0439508594573,0.00941069517285,0.0,25.2999992371,0.004456840131605351,0.014699284099431437,0.003147389689916388,25.2999992371,0.0,0.015993617506779818,0.04688091538360472
1648466047118940260,111508,3,1,0.0337118916214,0.0146502861753,-0.0290980711579,0.0,25.2999992371,0.011274880140936454,0.0048997612626421405,-0.009731796373879597,25.2999992371,0.0,0.016680932372498097,0.04688091580612966
1648466047118944554,111509,3,2,2.01685023308,-1.17202293873,0.230713397264,0.0,25.2999992371,0.674531850528428,-0.3919809159632107,0.07716167132575251,25.2999992371,0.0,1.031327044750582,2.3440459260136635
1648466047118948249,111510,3,3,0.537261009216,0.105482056737,0.129268169403,-0.323675245047,25.2999992371,0.17968595625953174,0.035278279845150494,0.04323350147257525,25.2999992371,-0.04373989797932432,0.25655144276077935,0.5625709874656399
1648466047313815138,111511,5,0,0.0133139379323,0.0439508594573,0.00942768435925,0.0,36.2000007629,0.004452822050936455,0.014699284099431437,0.0031530716920568557,36.2000007629,0.0,0.015991378973384682,0.04688091533532723
1648466047313821691,111512,5,1,0.0337118916214,0.0146502861753,-0.0290980711579,0.0,36.2000007629,0.011274880140936454,0.0048997612626421405,-0.009731796373879597,36.2000007629,0.0,0.016680932372498097,0.04688091580612966
1648466047313827338,111513,5,2,0.987887084484,0.128922522068,0.266839087009,0.0,36.2000007629,0.33039701822207357,0.04311790035719063,0.0892438418090301,36.2000007629,0.0,0.46923718163769484,1.0313801465718002
1648466047313836149,111514,5,3,2.00288963318,-1.17202293873,0.330675691366,0.0,36.2000007629,0.6698627535719064,-0.3919809159632107,0.11059387671103678,36.2000007629,0.0,1.025222539610416,2.3440458750778754
1648466047313985290,111515,5,4,0.437905102968,-0.0483459457755,0.268026232719,0.161837622523,36.2000007629,0.14645655617658862,-0.016169212633946488,0.08964088050802675,36.2000007629,0.021869948989594594,0.20775102678787002,0.5156900921133561
1648466047418815267,111516,6,0,0.0133139379323,0.0439508594573,0.00942768435925,0.0,13.1999998093,0.004452822050936455,0.014699284099431437,0.0031530716920568557,13.1999998093,0.0,0.015991378973384682,0.04688091533532723
1648466047418825777,111517,6,1,0.0336977690458,0.0146502861753,-0.0291144233197,0.0,13.1999998093,0.011270156871505016,0.0048997612626421405,-0.009737265324314381,13.1999998093,0.0,0.016674547437563397,0.04688091476198981
1648466047418829086,111518,6,2,2.00065159798,-1.17202293873,0.343957155943,0.0,13.1999998093,0.6691142468160535,-0.3919809159632107,0.11503583810802676,13.1999998093,0.0,1.0242444967212598,2.3440458849036276
1648466047418832181,111519,6,3,0.401900976896,-0.096691891551,0.308322131634,0.242756426334,13.1999998093,0.13441504244013378,-0.032338425267892976,0.10311776977725752,13.1999998093,0.03280492247756756,0.19282266728051717,0.51569007550757
