%time,field.header.seq,field.header.frame_id,field.point_id,field.x,field.y,field.z,field.velocity,field.intensity,normalized_x,normalized_y,normalized_z,normalized_intensity,normalized_velocity,normalized_range,range
1648466016412960891,110540,0,0,0.0133364023641,0.0439508594573,0.00939587969333,0.0,32.9000015259,0.004460335238829431,0.014699284099431437,0.003142434680043478,32.9000015259,0.0,0.01599556607067362,0.0468809154162335
1648466016412969759,110541,0,1,0.0336977690458,0.0146502861753,-0.0291144233197,0.0,32.9000015259,0.011270156871505016,0.0048997612626421405,-0.009737265324314381,32.9000015259,0.0,0.016674547437563397,0.04688091476198981
1648466016412975951,110542,0,2,2.03722238541,-1.0987714529,0.370104074478,0.0,32.9000015259,0.6813452794013377,-0.3674820912709029,0.12378062691571905,32.9000015259,0.0,1.0312642081105161,2.344045814242717
1648466016413080628,110543,0,3,0.624161541462,0.123062409461,0.161402612925,-0.404594063759,32.9000015259,0.20874967941872907,0.041157996475250834,0.05398080699832775,32.9000015259,-0.05467487348094594,0.2980718671540491,0.6563328347123768
1648466016413087218,110544,0,4,1.41152966022,0.0454158857465,0.342967033386,-0.404594063759,32.9000015259,0.4720834984013378,0.015189259446989964,0.11470469344013377,32.9000015259,-0.05467487348094594,0.6677996499911031,1.4533082846899763
1648466016518070322,110545,1,0,0.0133139379323,0.0439508594573,0.00942768435925,0.0,23.7999992371,0.004452822050936455,0.014699284099431437,0.0031530716920568557,23.7999992371,0.0,0.015991378973384682,0.04688091533532723
1648466016518092868,110546,1,1,0.0336977690458,0.0146502861753,-0.0291144233197,0.0,23.7999992371,0.011270156871505016,0.0048997612626421405,-0.009737265324314381,23.7999992371,0.0,0.016674547437563397,0.04688091476198981
1648466016518095143,110547,1,2,1.03203701973,0.168478280306,0.262985467911,0.0,23.7999992371,0.34516288285284275,0.05634725093846154,0.08795500599030101,23.7999992371,0.0,0.49137546142119515,1.0782609597682813
1648466016518102119,110548,1,3,2.03372550011,-1.0987714529,0.388860732317,0.0,23.7999992371,0.6801757525451505,-0.3674820912709029,0.1300537566277592,23.7999992371,0.0,1.0297189889020983,2.3440458153892303
1648466016518107450,110549,1,4,0.8379753232,0.079111546278,0.0602701194584,0.242756426334,23.7999992371,0.2802593054180602,0.026458711129765885,0.020157230588093645,23.7999992371,0.03280492247756756,0.3972286746214018,0.8438564844487304
1648466016518621569,110550,1,5,0.579148828983,0.114272229373,0.151525825262,-0.161837622523,23.7999992371,0.19369526052943142,0.03821813691404682,0.05067753353244147,23.7999992371,-0.021869948989594594,0.27657970621921896,0.6094518719633125
1648466016713045070,110551,3,0,0.0133364023641,0.0439508594573,0.00939587969333,0.0,31.2000007629,0.004460335238829431,0.014699284099431437,0.003142434680043478,31.2000007629,0.0,0.01599556607067362,0.0468809154162335
1648466016713049444,110552,3,1,0.0337503887713,0.0146502861753,-0.0290534067899,0.0,31.2000007629,0.011287755441906355,0.0048997612626421405,-0.009716858458160534,31.2000007629,0.0,0.01669833842822278,0.04688091374249746
1648466016713052215,110553,3,2,0.998000144958,0.128922522068,0.22609680891,0.0,31.2000007629,0.3337793126949833,0.04311790035719063,0.07561766184280937,31.2000007629,0.0,0.474000435123728,1.0313801787080497
1648466016713224873,110554,3,3,2.03250336647,-1.0987714529,0.395199269056,0.0,31.2000007629,0.6797670121973243,-0.3674820912709029,0.132173668580602,31.2000007629,0.0,1.029179026772403,2.344045883228879
1648466016818036105,110555,4,0,0.013321028091,0.0439508594573,0.00941766425967,0.0,12.6999998093,0.004455193341471571,0.014699284099431437,0.0031497204881839463,12.6999998093,0.0,0.015992699848855513,0.0468809154832157
1648466016818045626,110556,4,1,0.0336977690458,0.0146502861753,-0.0291144233197,0.0,12.6999998093,0.011270156871505016,0.0048997612626421405,-0.009737265324314381,12.6999998093,0.0,0.016674547437563397,0.04688091476198981
1648466016818051835,110557,4,2,0.980118572712,0.193383783102,0.256350010633,0.0,12.6999998093,0.32779885374983275,0.06467685053578595,0.08573578950936454,12.6999998093,0.0,0.46806759344632787,1.0313801588616045
1648466016818054882,110558,4,3,2.0267765522,-1.0987714529,0.423590987921,0.0,12.6999998093,0.6778516896989966,-0.3674820912709029,0.1416692267294314,12.6999998093,0.0,1.026649362664978,2.3440459089581807
1648466016818058414,110559,4,4,0.578996002674,-0.102552011609,0.291581064463,0.0809188112617,12.6999998093,0.19364414805150498,-0.03429833164180602,0.09751875065652173,12.6999998093,0.010934974494824324,0.2759936370690413,0.6563328449429444
1648466016818326291,110560,4,5,0.530844449997,0.143572807312,-0.358278900385,0.0809188112617,12.6999998093,0.17753994983177254,0.0480176613083612,-0.11982571919230768,12.6999998093,0.010934974494824324,0.25562973882172063,0.6563328054829736
1648466017013054331,110561,6,0,0.0132406326011,0.0439508594573,0.00953036453575,0.0,13.3000001907,0.004428305217759197,0.014699284099431437,0.0031874128882107017,13.3000001907,0.0,0.015977757265619744,0.04688091559362861
1648466017013057377,110562,6,1,0.0336977690458,0.0146502861753,-0.0291144233197,0.0,13.3000001907,0.011270156871505016,0.0048997612626421405,-0.009737265324314381,13.3000001907,0.0,0.016674547437563397,0.04688091476198981
1648466017013059830,110563,6,2,0.989010512829,0.193383783102,0.219558387995,0.0,13.3000001907,0.3307727467655518,0.06467685053578595,0.07343089899498327,13.3000001907,0.0,0.4722333268638334,1.0313801276891492
1648466017013066521,110564,6,3,2.043664217,-1.0987714529,0.332698762417,0.0,13.3000001907,0.6834997381270902,-0.3674820912709029,0.11127048910267559,13.3000001907,0.0,1.0341116339372833,2.344045776871263
