%time,field.header.seq,field.header.frame_id,field.point_id,field.x,field.y,field.z,field.velocity,field.intensity,normalized_x,normalized_y,normalized_z,normalized_intensity,normalized_velocity,normalized_range,range
1648466088714707862,112748,0,0,0.0133259519935,0.0439508594573,0.00941069517285,0.0,25.6000003815,0.004456840131605351,0.014699284099431437,0.003147389689916388,25.6000003815,0.0,0.015993617506779818,0.04688091538360472
1648466088714738838,112749,0,1,0.0336977690458,0.0146502861753,-0.0291144233197,0.0,25.6000003815,0.011270156871505016,0.0048997612626421405,-0.009737265324314381,25.6000003815,0.0,0.016674547437563397,0.04688091476198981
1648466088714758566,112750,0,2,0.933404564857,0.128922522068,0.419380486012,0.0,25.6000003815,0.31217543975150497,0.04311790035719063,0.14026103211103677,25.6000003815,0.0,0.4435833221609032,1.0313801871472617
1648466088714770116,112751,0,3,0.7093141675,0.483459472656,-0.571738898754,0.0,25.6000003815,0.2372288185618729,0.16169213132307692,-0.1912170229946488,25.6000003815,0.0,0.37242364324022603,1.0313801521580064
1648466088714781356,112752,0,4,2.02962851524,-1.0987714529,0.409707665443,0.0,25.6000003815,0.6788055234916388,-0.3674820912709029,0.1370259750645485,25.6000003815,0.0,1.0279090255710142,2.344045858490413
1648466088714785794,112753,0,5,0.590613782406,-0.0410208031535,0.283311605453,-0.0809188112617,25.6000003815,0.1975296931123746,-0.013719332158361203,0.09475304530200668,25.6000003815,-0.010934974494824324,0.2796858584144168,0.6563328515651464
1648466088820370799,112754,1,0,0.0133259519935,0.0439508594573,0.00941069517285,0.0,12.1999998093,0.004456840131605351,0.014699284099431437,0.003147389689916388,12.1999998093,0.0,0.015993617506779818,0.04688091538360472
1648466088820386045,112755,1,1,0.0337206497788,0.0146502861753,-0.0290879197419,0.0,12.1999998093,0.011277809290568562,0.0048997612626421405,-0.00972840125147157,12.1999998093,0.0,0.01668489212490622,0.04688091489544425
1648466088820459211,112756,1,2,2.02526092529,-1.0987714529,0.430779010057,0.0,12.1999998093,0.6773447910668896,-0.3674820912709029,0.14407324751070233,12.1999998093,0.0,1.0259800287411704,2.3440458776910003
1648466088820491317,112757,1,3,0.542301654816,-0.143572807312,0.340688318014,-0.242756426334,12.1999998093,0.1813717909083612,-0.0480176613083612,0.11394258127558528,12.1999998093,-0.03280492247756756,0.2609543041839645,0.656332816372021
1648466089015222736,112758,3,0,0.013252383098,0.0439508594573,0.00951401796192,0.0,35.4000015259,0.004432235149832775,0.014699284099431437,0.003181945806662207,35.4000015259,0.0,0.015979936479305047,0.046880915547706924
1648466089015241272,112759,3,1,0.0336977690458,0.0146502861753,-0.0291144233197,0.0,35.4000015259,0.011270156871505016,0.0048997612626421405,-0.009737265324314381,35.4000015259,0.0,0.016674547437563397,0.04688091476198981
1648466089015279738,112760,3,2,0.573416352272,-0.225614413619,0.225974857807,0.0,35.4000015259,0.19177804423812708,-0.07545632562508361,0.07557687552073578,35.4000015259,0.0,0.28151606273966095,0.6563328523291102
1648466089015329549,112761,3,3,0.995356082916,0.128922522068,0.237466439605,0.0,35.4000015259,0.3328950110086956,0.04311790035719063,0.07942021391471571,35.4000015259,0.0,0.4727550423212552,1.0313801716306805
1648466089015347768,112762,3,4,0.617779552937,0.483459472656,-0.669597148895,0.0,35.4000015259,0.20661523509598662,0.16169213132307692,-0.22394553474749163,35.4000015259,0.0,0.3339521763356825,1.0313801333825323
1648466089015382814,112763,3,5,2.01752018929,-1.0987714529,0.465687632561,0.0,35.4000015259,0.6747559161505016,-0.3674820912709029,0.15574837209397993,35.4000015259,0.0,1.0225625556243694,2.34404594473338
1648466089120483889,112764,4,0,0.0133259519935,0.0439508594573,0.00941069517285,0.0,11.6000003815,0.004456840131605351,0.014699284099431437,0.003147389689916388,11.6000003815,0.0,0.015993617506779818,0.04688091538360472
1648466089120547550,112765,4,1,0.0336977690458,0.0146502861753,-0.0291144233197,0.0,11.6000003815,0.011270156871505016,0.0048997612626421405,-0.009737265324314381,11.6000003815,0.0,0.016674547437563397,0.04688091476198981
1648466089120607956,112766,4,2,0.939878702164,0.128922522068,0.404662936926,0.0,11.6000003815,0.31434070306488293,0.04311790035719063,0.13533877489163879,11.6000003815,0.0,0.44663106535244773,1.031380184024996
1648466089120627379,112767,4,3,0.660722494125,0.483459472656,-0.627262115479,0.0,11.6000003815,0.2209774227842809,0.16169213132307692,-0.2097866606953177,11.6000003815,0.0,0.3518613194037742,1.0313801614626725
1648466089120663474,112768,4,4,1.98181736469,-1.17202293873,0.439674198627,0.0,11.6000003815,0.6628151721371237,-0.3919809159632107,0.14704822696555184,11.6000003815,0.0,1.0160201490667828,2.344045911844394
1648466089120678175,112769,4,5,0.845103263855,-0.293005734682,-2.16667938232,0.0,11.6000003815,0.2826432320585284,-0.09799522899063544,-0.7246419338862875,11.6000003815,0.0,0.4115549272720585,2.344045953667609
1648466089120706422,112770,4,6,0.536735236645,-0.328166425228,0.187069281936,0.161837622523,11.6000003815,0.179510112590301,-0.10975465726688963,0.0625649772361204,11.6000003815,0.021869948989594594,0.27657520828182974,0.6563328676421282
