%time,field.header.seq,field.header.frame_id,field.point_id,field.x,field.y,field.z,field.velocity,field.intensity,normalized_x,normalized_y,normalized_z,normalized_intensity,normalized_velocity,normalized_range,range
1648465414399283125,96042,0,0,0.859132051468,-0.0556710883975,0.228486359119,0.0,11.6999998093,0.2873351342702341,-0.018619093109531772,0.07641684251471571,11.6999998093,0.0,0.40677958331313574,0.890737429463045
1648465414399301185,96043,0,1,2.13716483116,-1.04603040218,0.234257176518,0.0,11.6999998093,0.7147708465418059,-0.34984294387290965,0.0783468817785953,11.6999998093,0.0,1.069665747563155,2.390926502965365
1648465414399306652,96044,0,2,0.284670472145,0.199243888259,0.1411562711,-0.0809188112617,11.6999998093,0.09520751576755852,0.06663675192608695,0.047209455217391304,11.6999998093,-0.010934974494824324,0.15023115131196546,0.37504732713442823
1648465414699343516,96045,3,0,0.0133034354076,0.0439508594573,0.00944249983877,0.0,11.3000001907,0.004449309500869565,0.014699284099431437,0.0031580267019297656,11.3000001907,0.0,0.01598942347631253,0.046880915561502146
1648465414699347975,96046,3,1,0.0337503887713,0.0146502861753,-0.0290534067899,0.0,11.3000001907,0.011287755441906355,0.0048997612626421405,-0.009716858458160534,11.3000001907,0.0,0.01669833842822278,0.04688091374249746
1648465414699351911,96047,3,2,2.1396021843,-1.04603040218,0.21083907783,0.0,11.3000001907,0.7155860148160536,-0.34984294387290965,0.07051474174916388,11.3000001907,0.0,1.0707552356063015,2.3909266459024603
1648465414999270558,96048,6,0,0.0133034354076,0.0439508594573,0.00944249983877,0.0,13.0,0.004449309500869565,0.014699284099431437,0.0031580267019297656,13.0,0.0,0.01598942347631253,0.046880915561502146
1648465414999276149,96049,6,1,0.0337206497788,0.0146502861753,-0.0290879197419,0.0,13.0,0.011277809290568562,0.0048997612626421405,-0.00972840125147157,13.0,0.0,0.01668489212490622,0.04688091489544425
1648465414999287559,96050,6,2,0.842391073704,-0.0556710883975,0.284061998129,0.0,13.0,0.281736145051505,-0.018619093109531772,0.0950040127521739,13.0,0.0,0.3988698803935774,0.8907374528561041
1648465414999399388,96051,6,3,0.906933248043,-0.572826147079,0.109494447708,0.0,13.0,0.3033221565361204,-0.19158065119698997,0.03662021662474916,13.0,0.0,0.46979975223972625,1.0782609819807438
1648465414999410695,96052,6,4,1.01187229156,0.370652228594,0.0371241867542,0.0,13.0,0.33841882660869566,0.12396395605150501,0.012416115971304346,13.0,0.0,0.4943901969157078,1.0782610139621784
1648465414999459908,96053,6,5,2.52804899216,-0.835066318512,0.228799775243,0.0,13.0,0.8455013351705685,-0.2792863941511705,0.07652166396086955,13.0,0.0,1.2279030521618517,2.6722119676825087
1648465414999465156,96054,6,6,0.393553078175,-0.145037829876,0.0458632744849,0.161837622523,13.0,0.13162310306856187,-0.048507635410033445,0.015338887787591972,13.0,0.021869948989594594,0.19235974946923604,0.42192823724258427
1648465414999468050,96055,6,7,0.31559163332,-0.0,-0.280045241117,0.161837622523,13.0,0.10554904124414716,-0.0,-0.09366061575819398,13.0,0.021869948989594594,0.1492688856229501,0.4219282120146317
