%time,field.header.seq,field.header.frame_id,field.point_id,field.x,field.y,field.z,field.velocity,field.intensity,normalized_x,normalized_y,normalized_z,normalized_intensity,normalized_velocity,normalized_range,range
1648465384098935988,95657,0,0,0.2886980474,0.0205104015768,0.154680177569,0.0,13.5,0.09655453090301003,0.006859666079197324,0.05173250085919732,13.5,0.0,0.13672091973988007,0.3281664158292125
1648465384098940099,95658,0,1,2.14129638672,-1.04603040218,0.192872419953,0.0,13.5,0.7161526376989966,-0.34984294387290965,0.06450582607123745,13.5,0.0,1.0715126160452448,2.390926512556065
1648465384098942579,95659,0,2,0.368380486965,-0.0703213736415,-0.00334750278853,0.0809188112617,13.5,0.1232041762424749,-0.023518854060702338,-0.0011195661500100333,13.5,0.010934974494824324,0.1758171623690425,0.37504730973880773
1648465384098945629,95660,0,3,0.212902963161,0.046880915761,-0.305180281401,0.0809188112617,13.5,0.07120500440167224,0.015679236040468225,-0.10206698374615385,13.5,0.010934974494824324,0.10191243175637134,0.37504732520219053
1648465384399000325,95661,3,0,0.0133259519935,0.0439508594573,0.00941069517285,0.0,16.3999996185,0.004456840131605351,0.014699284099431437,0.003147389689916388,16.3999996185,0.0,0.015993617506779818,0.04688091538360472
1648465384399008117,95662,3,1,0.0336321368814,0.0146502861753,-0.0291902143508,0.0,16.3999996185,0.011248206314849497,0.0048997612626421405,-0.009762613495250835,16.3999996185,0.0,0.016644877621470478,0.04688091434766458
1648465384399010952,95663,3,2,0.771848261356,-0.0,0.341092288494,0.0,16.3999996185,0.25814323122274246,-0.0,0.11407768845953176,16.3999996185,0.0,0.3650696586300162,0.8438564379255243
