%time,field.header.seq,field.header.frame_id,field.point_id,field.x,field.y,field.z,field.velocity,field.intensity,normalized_x,normalized_y,normalized_z,normalized_intensity,normalized_velocity,normalized_range,range
1648465784605929701,103093,0,0,0.0133364023641,0.0439508594573,0.00939587969333,0.0,16.5,0.004460335238829431,0.014699284099431437,0.003142434680043478,16.5,0.0,0.01599556607067362,0.0468809154162335
1648465784605934564,103094,0,1,0.0336977690458,0.0146502861753,-0.0291144233197,0.0,16.5,0.011270156871505016,0.0048997612626421405,-0.009737265324314381,16.5,0.0,0.016674547437563397,0.04688091476198981
1648465784605937033,103095,0,2,0.340232700109,0.615312039852,0.0119319716468,0.0,16.5,0.11379020070535116,0.20578997988361203,0.003990625968829431,16.5,0.0,0.2612392301581553,0.7032137431518741
1648465784605942399,103096,0,3,0.843633890152,-0.0,0.0193797405809,0.0,16.5,0.2821518027264214,-0.0,0.0064815185889297655,16.5,0.0,0.39902290606372315,0.8438564540003115
1648465784605945745,103097,0,4,0.923852741718,-0.215359210968,0.263353705406,0.0,16.5,0.3089808500729097,-0.07202649196254181,0.0880781623431438,16.5,0.0,0.44286131798564876,0.9844991885622331
1648465784710827889,103098,1,0,0.0132406326011,0.0439508594573,0.00953036453575,0.0,14.1999998093,0.004428305217759197,0.014699284099431437,0.0031874128882107017,14.1999998093,0.0,0.015977757265619744,0.04688091559362861
1648465784710835086,103099,1,1,0.0336836874485,0.0146502861753,-0.0291307158768,0.0,14.1999998093,0.011265447307190634,0.0048997612626421405,-0.009742714340066889,14.1999998093,0.0,0.016668181259305585,0.046880916081506664
1648465784710837338,103100,1,2,0.31732621789,0.574291229248,0.0163240395486,0.0,14.1999998093,0.10612916986287624,0.1920706452334448,0.005459544999531773,14.1999998093,0.0,0.24375794172079457,0.6563328567264745
1648465784710846892,103101,1,3,0.787279188633,-0.0,0.123941592872,0.0,14.1999998093,0.26330407646588627,-0.0,0.041452037749832776,14.1999998093,0.0,0.3723681959661788,0.7969755575287635
1648465784710929851,103102,1,4,0.384640395641,0.697353601456,0.0303274337202,0.0,14.1999998093,0.12864227278963208,0.2332286292494983,0.010142954421471572,14.1999998093,0.0,0.29579259997262297,0.7969755533631956
1648465784710934917,103103,1,5,0.908302605152,-0.24612480402,0.289219111204,0.0,14.1999998093,0.3037801355023411,-0.08231598796655518,0.09672879973377926,14.1999998093,0.0,0.43742503737960803,0.9844992310639075
1648465784710940748,103104,1,6,0.568213164806,0.307656019926,0.115127600729,-0.161837622523,14.1999998093,0.190037847761204,0.10289498994180601,0.03850421429063545,14.1999998093,-0.021869948989594594,0.2877779458515636,0.6563328360711308
1648465784905882557,103105,3,0,0.0132584534585,0.0439508594573,0.00950555689633,0.0,36.2000007629,0.0044342653707357856,0.014699284099431437,0.0031791160188394648,36.2000007629,0.0,0.015981062911834463,0.04688091559532422
1648465784905886552,103106,3,1,0.033736359328,0.0146502861753,-0.029069699347,0.0,36.2000007629,0.011283063320401339,0.0048997612626421405,-0.009722307473913042,36.2000007629,0.0,0.016691994974096437,0.046880915582474404
1648465784905892255,103107,3,2,0.316237300634,0.574291229248,0.0309253707528,0.0,36.2000007629,0.1057649834896321,0.1920706452334448,0.010342933362140467,36.2000007629,0.0,0.24344115557053234,0.6563328613285
1648465784905898284,103108,3,3,0.784756243229,-0.124527432024,0.0618107803166,0.0,36.2000007629,0.26246028201638794,-0.04164797057658863,0.02067250177812709,36.2000007629,0.0,0.3735041535584205,0.7969755423955821
1648465784905901757,103109,3,4,0.463693201542,0.647542655468,0.0291063115001,0.0,36.2000007629,0.15508133830836118,0.21656944998929767,0.009734552341170568,36.2000007629,0.0,0.3082251930840366,0.7969755662352264
1648465784905904709,103110,3,5,0.864943504333,-0.234404578805,0.275781214237,0.0,36.2000007629,0.2892787639909699,-0.07839618020234114,0.09223451981170569,36.2000007629,0.0,0.4165457569854775,0.9376182860730875
1648465784906160777,103111,3,6,0.547931611538,0.20949909091,0.165265485644,-0.161837622523,36.2000007629,0.18325471957792638,0.07006658558862876,0.0552727376735786,36.2000007629,-0.021869948989594594,0.2684658468245403,0.6094518855167267
1648465785010925587,103112,4,0,0.0132584534585,0.0439508594573,0.00950555689633,0.0,33.2999992371,0.0044342653707357856,0.014699284099431437,0.0031791160188394648,33.2999992371,0.0,0.015981062911834463,0.04688091559532422
1648465785010934071,103113,4,1,0.033727504313,0.0146502861753,-0.0290799699724,0.0,33.2999992371,0.011280101776923075,0.0048997612626421405,-0.00972574246568562,33.2999992371,0.0,0.0166879912699634,0.04688091387544942
1648465785010937060,103114,4,2,0.31684204936,0.574291229248,0.0239481534809,0.0,33.2999992371,0.10596724058862875,0.1920706452334448,0.008009415879899664,33.2999992371,0.0,0.2436170045713732,0.6563328532756595
1648465785010939392,103115,4,3,0.787036657333,-0.124527432024,0.0153693873435,0.0,33.2999992371,0.26322296231872905,-0.04164797057658863,0.0051402633255852835,33.2999992371,0.0,0.37457603932558536,0.7969755324849744
1648465785010941159,103116,4,4,0.496199399233,0.622637152672,-0.035765722394,0.0,33.2999992371,0.165952976332107,0.20823985039197324,-0.011961780064882943,33.2999992371,0.0,0.3137588500715815,0.7969755671192501
1648465785010942847,103117,4,5,0.860018849373,-0.234404578805,0.290775090456,0.0,33.2999992371,0.2876317221983277,-0.07839618020234114,0.09724919413244146,33.2999992371,0.0,0.4142583448765636,0.9376183024404458
1648465785010945603,103118,4,6,0.578066706657,0.190453708172,-0.0315896570683,-0.161837622523,33.2999992371,0.19333334670802674,0.06369689236521739,-0.010565102698428093,33.2999992371,-0.021869948989594594,0.28073628193669276,0.6094519166722082
