%time,field.header.seq,field.header.frame_id,field.point_id,field.x,field.y,field.z,field.velocity,field.intensity,normalized_x,normalized_y,normalized_z,normalized_intensity,normalized_velocity,normalized_range,range
1648465401199082650,95862,0,0,0.0133034354076,0.0439508594573,0.00944249983877,0.0,12.6999998093,0.004449309500869565,0.014699284099431437,0.0031580267019297656,12.6999998093,0.0,0.01598942347631253,0.046880915561502146
1648465401199090249,95863,0,1,0.0336853861809,0.0146502861753,-0.0291287489235,0.0,12.6999998093,0.011266015445117057,0.0048997612626421405,-0.009742056496153846,12.6999998093,0.0,0.016668949230534018,0.04688091446444766
1648465401199099499,95864,0,2,0.866005003452,0.0278355441988,0.206576168537,0.0,12.6999998093,0.2896337804187291,0.009309546554782609,0.06908901957759198,12.6999998093,0.0,0.409709801171933,0.8907374455652849
1648465401199101481,95865,0,3,2.17625331879,-0.9713139534,0.192354142666,0.0,12.6999998093,0.7278439193277592,-0.3248541650167224,0.06433248918595318,12.6999998093,0.0,1.0793719332711496,2.390926477291763
1648465401199121986,95866,0,4,0.29688128829,0.22268435359,0.0541634075344,-0.161837622523,12.6999998093,0.09929140076588627,0.07447637243812709,0.01811485201819398,12.6999998093,-0.021869948989594594,0.1589474585630305,0.37504732419557896
1648465401499264727,95867,3,0,2.16531801224,-0.9713139534,0.290648043156,0.0,23.5,0.7241866261672241,-0.3248541650167224,0.09720670339665552,23.5,0.0,1.074440676616278,2.390926426135053
1648465401799165104,95868,6,0,0.797401785851,-0.0263705141842,0.27486127615,0.0,13.3999996185,0.26668956048528425,-0.008819569961270902,0.09192684821070234,13.3999996185,0.0,0.377259099503206,0.8438564648229636
1648465401799170694,95869,6,1,2.52985930443,-0.835066318512,0.207831203938,0.0,13.3999996185,0.8461067907792641,-0.2792863941511705,0.06950876385886287,13.3999996185,0.0,1.2287368688061466,2.6722121296511148
1648465401799177216,95870,6,2,0.296332091093,-0.102552011609,0.096765562892,0.0809188112617,13.3999996185,0.0991077227735786,-0.03429833164180602,0.03236306451237458,13.3999996185,0.010934974494824324,0.1442950344957869,0.32816641732268725
1648465401799182881,95871,6,3,0.70069026947,-0.722259104252,-0.914189100266,0.161837622523,13.3999996185,0.23434457172909698,-0.24155822884682274,-0.30574886296521736,13.3999996185,0.021869948989594594,0.410103809445123,1.3595465341245225
1648465401799283095,95872,6,4,1.32817196846,-0.254914969206,0.139084503055,0.161837622523,13.3999996185,0.44420467172575245,-0.0852558425438127,0.046516556205685615,13.3999996185,0.021869948989594594,0.6339590991963302,1.3595465855638282
