%time,field.header.seq,field.header.frame_id,field.point_id,field.x,field.y,field.z,field.velocity,field.intensity,normalized_x,normalized_y,normalized_z,normalized_intensity,normalized_velocity,normalized_range,range
1648465434199187726,96404,0,0,0.0132299559191,0.0439508594573,0.00954518001527,0.0,12.1999998093,0.004424734421103679,0.014699284099431437,0.0031923678980836116,12.1999998093,0.0,0.01597577861734436,0.04688091554332718
1648465434199218098,96405,0,1,0.0336321368814,0.0146502861753,-0.0291902143508,0.0,12.1999998093,0.011248206314849497,0.0048997612626421405,-0.009762613495250835,12.1999998093,0.0,0.016644877621470478,0.04688091434766458
1648465434199229153,96406,0,2,0.84817647934,-0.0556710883975,0.266290277243,0.0,12.1999998093,0.28367106332441466,-0.018619093109531772,0.08906029339230767,12.1999998093,0.0,0.4016033054687543,0.8907374034714796
1648465434199238898,96407,0,3,2.17431855202,-0.9713139534,0.213114351034,0.0,12.1999998093,0.7271968401404681,-0.3248541650167224,0.07127570268695652,12.1999998093,0.0,1.0784992893596523,2.3909265334477614
1648465434199244115,96408,0,4,0.376109331846,0.0263705141842,0.189393207431,0.404594063759,12.1999998093,0.12578907419598662,0.008819569961270902,0.0633422098431438,12.1999998093,0.05467487348094594,0.17811110911020853,0.4219282172846294
1648465434199251843,96409,0,5,0.496075004339,0.128922522068,0.0567875467241,-0.161837622523,12.1999998093,0.16591137268862874,0.04311790035719063,0.018992490543177257,12.1999998093,-0.021869948989594594,0.2385630325638546,0.5156900736772569
