%time,field.header.seq,field.header.frame_id,field.point_id,field.x,field.y,field.z,field.velocity,field.intensity,normalized_x,normalized_y,normalized_z,normalized_intensity,normalized_velocity,normalized_range,range
1648465361808963207,95240,0,0,2.17153191566,-0.9713139534,0.239850580692,0.0,13.3000001907,0.726264854735786,-0.3248541650167224,0.08021758551571906,13.3000001907,0.0,1.0772425478867311,2.390926589809444
1648465361808975712,95241,0,1,0.35395643115,0.105482056737,0.0651834979653,-0.0809188112617,13.3000001907,0.11838007730769229,0.035278279845150494,0.02180050099173913,13.3000001907,-0.010934974494824324,0.17109132776264013,0.3750473408156691
1648465361898877197,95242,1,0,2.17808222771,-0.9713139534,0.170401245356,0.0,13.6000003815,0.7284555945518394,-0.3248541650167224,0.05699038306220735,13.6000003815,0.0,1.0801968964019752,2.390926508940534
1648465361898883089,95243,1,1,0.330973029137,0.082041606307,0.156161874533,-0.0809188112617,13.6000003815,0.11069332078160535,0.027438664316722407,0.05222805168327759,13.6000003815,-0.010934974494824324,0.15893049685571534,0.3750473333316938
1648465362109538590,95244,3,0,2.17519640923,-0.9713139534,0.203960627317,0.0,16.2999992371,0.7274904378695651,-0.3248541650167224,0.06821425662775919,16.2999992371,0.0,1.078895223324311,2.3909266304703216
1648465362109546643,95245,3,1,0.350013524294,-0.0586011447012,0.121313393116,0.0809188112617,16.2999992371,0.1170613793625418,-0.019599045050568562,0.040573041175919734,16.2999992371,0.010934974494824324,0.16670589564684288,0.3750473312774198
1648465362199540692,95246,4,0,0.808999121189,-0.0,0.240029513836,0.0,25.1000003815,0.27056826795618727,-0.0,0.08027742937658862,25.1000003815,0.0,0.38264131409143776,0.8438564721544303
1648465362199569338,95247,4,1,2.09184098244,-1.02552008629,0.258960276842,0.0,25.1000003815,0.69961236870903,-0.342983306451505,0.08660878824147157,25.1000003815,0.0,1.047164018387629,2.344045769216523
1648465362199588158,95248,4,2,0.339418679476,-0.105482056737,0.119703732431,0.161837622523,25.1000003815,0.11351795300200669,-0.035278279845150494,0.040034693120735786,25.1000003815,0.021869948989594594,0.16436912221084699,0.3750473141199811
1648465362409420051,95249,6,0,0.0133259519935,0.0439508594573,0.00941069517285,0.0,27.3999996185,0.004456840131605351,0.014699284099431437,0.003147389689916388,27.3999996185,0.0,0.015993617506779818,0.04688091538360472
1648465362409439868,95250,6,1,0.0336091145873,0.0146502861753,-0.0292167179286,0.0,27.3999996185,0.011240506550936455,0.0048997612626421405,-0.009771477568093644,27.3999996185,0.0,0.016634471301312202,0.046880913759010975
1648465362409452111,95251,6,2,0.860177457333,-0.0,0.23131762445,0.0,27.3999996185,0.28768476833879597,-0.0,0.07736375399665552,27.3999996185,0.0,0.40684770107288726,0.8907373919877037
1648465362409460705,95252,6,3,0.336492061615,-0.128922522068,0.103983536363,0.161837622523,27.3999996185,0.11253915104180601,-0.04311790035719063,0.03477710246254181,27.3999996185,0.021869948989594594,0.16489170496308622,0.37504733042756383
1648465362409470958,95253,6,4,0.406820178032,-0.219754293561,0.0773783102632,0.242756426334,27.3999996185,0.13606026021137121,-0.07349641925117056,0.025879033532842807,27.3999996185,0.03280492247756756,0.20597697070380447,0.4688091399404137
