%time,field.header.seq,field.header.frame_id,field.point_id,field.x,field.y,field.z,field.velocity,field.intensity,normalized_x,normalized_y,normalized_z,normalized_intensity,normalized_velocity,normalized_range,range
1648466051318867402,111636,0,0,0.0133034354076,0.0439508594573,0.00944249983877,0.0,31.7999992371,0.004449309500869565,0.014699284099431437,0.0031580267019297656,31.7999992371,0.0,0.01598942347631253,0.046880915561502146
1648466051318879833,111637,0,1,0.0336091145873,0.0146502861753,-0.0292167179286,0.0,31.7999992371,0.011240506550936455,0.0048997612626421405,-0.009771477568093644,31.7999992371,0.0,0.016634471301312202,0.046880913759010975
1648466051318940944,111638,0,2,1.9904551506,-1.17202293873,0.398750394583,0.0,31.7999992371,0.6657040637458194,-0.3919809159632107,0.13336133598093644,31.7999992371,0.0,1.0197905860787075,2.3440459365463537
1648466051318956094,111639,0,3,0.757609367371,0.180198520422,-1.75729691982,0.566431701183,31.7999992371,0.2533810593214047,0.06026706368628762,-0.587724722347826,31.7999992371,0.07654482448418919,0.36336763946592915,1.9221175626634872
1648466051318967054,111640,0,4,0.646626114845,0.102552011609,0.0461576394737,-0.566431701183,31.7999992371,0.2162629146638796,0.03429833164180602,0.015437337616622073,31.7999992371,-0.07654482448418919,0.30775911370947934,0.6563328234717319
1648466051514046673,111641,2,0,0.0132858110592,0.0439508594573,0.00946728046983,0.0,32.9000015259,0.004443415069966555,0.014699284099431437,0.003166314538404682,32.9000015259,0.0,0.015986144876229843,0.04688091532842039
1648466051514061266,111642,2,1,0.0336977690458,0.0146502861753,-0.0291144233197,0.0,32.9000015259,0.011270156871505016,0.0048997612626421405,-0.009737265324314381,32.9000015259,0.0,0.016674547437563397,0.04688091476198981
1648466051514068493,111643,2,2,2.02793741226,-1.0987714529,0.417998313904,0.0,32.9000015259,0.6782399372107023,-0.3674820912709029,0.13979876719197323,32.9000015259,0.0,1.027162067183164,2.344045956072182
1648466051514078240,111644,2,3,0.582212746143,0.0571361146867,0.170866623521,-0.242756426334,32.9000015259,0.1947199819876254,0.0191090684570903,0.05714602793344481,32.9000015259,-0.03280492247756756,0.2760378583959456,0.6094519016348479
1648466051619043679,111645,3,0,0.0133034354076,0.0439508594573,0.00944249983877,0.0,31.7000007629,0.004449309500869565,0.014699284099431437,0.0031580267019297656,31.7000007629,0.0,0.01598942347631253,0.046880915561502146
1648466051619050787,111646,3,1,0.0337118916214,0.0146502861753,-0.0290980711579,0.0,31.7000007629,0.011274880140936454,0.0048997612626421405,-0.009731796373879597,31.7000007629,0.0,0.016680932372498097,0.04688091580612966
1648466051619053419,111647,3,2,0.960873663425,0.128922522068,0.351917386055,0.0,31.7000007629,0.32136242923913044,0.04311790035719063,0.1176981224264214,31.7000007629,0.0,0.45651590901540645,1.0313801725687468
1648466051619055216,111648,3,3,2.00350832939,-1.17202293873,0.32690730691,0.0,31.7000007629,0.6700696753812708,-0.3919809159632107,0.10933354746153845,31.7000007629,0.0,1.0254929440081395,2.3440460281648825
1648466051619171550,111649,3,4,0.61809027195,-0.082041606307,0.204954728484,0.0809188112617,31.7000007629,0.20671915449832773,-0.027438664316722407,0.06854673193444816,31.7000007629,0.010934974494824324,0.2936298656003724,0.6563328806121235
1648466051814137846,111650,5,0,0.0133139379323,0.0439508594573,0.00942768435925,0.0,11.8999996185,0.004452822050936455,0.014699284099431437,0.0031530716920568557,11.8999996185,0.0,0.015991378973384682,0.04688091533532723
1648466051814140707,111651,5,1,0.0336463488638,0.0146502861753,-0.0291738305241,0.0,11.8999996185,0.011252959486220735,0.0048997612626421405,-0.009757133954548495,11.8999996185,0.0,0.016651301895886067,0.0468809136465111
1648466051814169884,111652,5,2,0.99215066433,0.161153152585,0.231109723449,0.0,11.8999996185,0.33182296465886285,0.05389737544648829,0.07729422188929765,11.8999996185,0.0,0.4723535612547169,1.031380135348368
1648466051814219873,111653,5,3,0.500480890274,-0.152362972498,0.312627583742,0.161837622523,11.8999996185,0.16738491313511705,-0.05095751588561872,0.10455772031505016,11.8999996185,0.021869948989594594,0.2421406341689359,0.6094518873826245
1648466051919076694,111654,6,0,0.0133034354076,0.0439508594573,0.00944249983877,0.0,29.6000003815,0.004449309500869565,0.014699284099431437,0.0031580267019297656,29.6000003815,0.0,0.01598942347631253,0.046880915561502146
1648466051919086167,111655,6,1,0.0336977690458,0.0146502861753,-0.0291144233197,0.0,29.6000003815,0.011270156871505016,0.0048997612626421405,-0.009737265324314381,29.6000003815,0.0,0.016674547437563397,0.04688091476198981
1648466051919096491,111656,6,2,0.957472443581,0.161153152585,0.347881048918,0.0,29.6000003815,0.32022489751872907,0.05389737544648829,0.11634817689565216,29.6000003815,0.0,0.4560623828620168,1.0313801641496425
1648466051919101870,111657,6,3,2.03539991379,-1.0987714529,0.379999190569,0.0,29.6000003815,0.6807357571204014,-0.3674820912709029,0.12709003029063545,29.6000003815,0.0,1.0304588441317821,2.344045839909581
1648466051919108403,111658,6,4,0.450709581375,-0.20949909091,0.352707535028,0.242756426334,29.6000003815,0.1507389904264214,-0.07006658558862876,0.11796238629698996,29.6000003815,0.03280492247756756,0.2243965527489274,0.6094518857964688
