%time,field.header.seq,field.header.frame_id,field.point_id,field.x,field.y,field.z,field.velocity,field.intensity,normalized_x,normalized_y,normalized_z,normalized_intensity,normalized_velocity,normalized_range,range
1648466079714493245,112496,0,0,0.0133434562013,0.0439508594573,0.00938585959375,0.0,11.6000003815,0.004462694381705685,0.014699284099431437,0.0031390834761705687,11.6000003815,0.0,0.01599688205010004,0.04688091542136242
1648466079714500192,112497,0,1,0.0336624495685,0.0146502861753,-0.029155254364,0.0,11.6000003815,0.01125834433729097,0.0048997612626421405,-0.009750921191973244,11.6000003815,0.0,0.016658580217560913,0.04688091565871483
1648466079714502239,112498,0,2,0.889259636402,0.0278355441988,0.0430768765509,0.0,11.6000003815,0.2974112496327759,0.009309546554782609,0.014406982124046822,11.6000003815,0.0,0.4207060380756548,0.890737411220637
1648466079714598420,112499,0,3,2.03656458855,-1.0987714529,0.373707801104,0.0,11.6000003815,0.681125280451505,-0.3674820912709029,0.12498588665685617,11.6000003815,0.0,1.0309735121452532,2.3440459785699157
1648466079819713112,112500,1,0,0.0132701778784,0.0439508594573,0.00948918238282,0.0,11.1999998093,0.0044381865814046816,0.014699284099431437,0.0031736395929163877,11.1999998093,0.0,0.015983239762279708,0.04688091562943427
1648466079819716801,112501,1,1,0.0336977690458,0.0146502861753,-0.0291144233197,0.0,11.1999998093,0.011270156871505016,0.0048997612626421405,-0.009737265324314381,11.1999998093,0.0,0.016674547437563397,0.04688091476198981
1648466079819744591,112502,1,2,0.938373208046,0.257845044136,0.341638118029,0.0,11.1999998093,0.3138371933264214,0.08623580071438126,0.11426024014347826,11.1999998093,0.0,0.4521329242101947,1.0313801181205862
1648466079819778511,112503,1,3,2.04251503944,-1.0987714529,0.339683949947,0.0,11.1999998093,0.68311539780602,-0.3674820912709029,0.11360667222307692,11.1999998093,0.0,1.0336035897984248,2.3440459845954726
1648466079819787843,112504,1,4,0.652490139008,0.219754293561,0.143088176847,0.0809188112617,11.1999998093,0.21822412675852843,0.07349641925117056,0.04785557754080268,11.1999998093,0.010934974494824324,0.31724637530126076,0.7032137352146727
1648466080014670581,112505,3,0,0.0133139379323,0.0439508594573,0.00942768435925,0.0,16.8999996185,0.004452822050936455,0.014699284099431437,0.0031530716920568557,16.8999996185,0.0,0.015991378973384682,0.04688091533532723
1648466080014675062,112506,3,1,0.0337118916214,0.0146502861753,-0.0290980711579,0.0,16.8999996185,0.011274880140936454,0.0048997612626421405,-0.009731796373879597,16.8999996185,0.0,0.016680932372498097,0.04688091580612966
1648466080014677201,112507,3,2,2.04355669022,-1.0987714529,0.333359658718,0.0,16.8999996185,0.683463775993311,-0.3674820912709029,0.11149152465484949,16.8999996185,0.0,1.034064095496457,2.344045928285425
1648466080014680599,112508,3,3,0.633822321892,0.131852582097,0.274579226971,0.323675245047,16.8999996185,0.21198070966287624,0.04409785354414715,0.09183251738160535,16.8999996185,0.04373989797932432,0.3030119852836754,0.7032137591217937
1648466080119697115,112509,4,0,0.0132478391752,0.0439508594573,0.00952034443617,0.0,38.0999984741,0.004430715443210702,0.014699284099431437,0.0031840616843377923,38.0999984741,0.0,0.015979093582340943,0.046880915605719706
1648466080119704846,112510,4,1,0.0336977690458,0.0146502861753,-0.0291144233197,0.0,38.0999984741,0.011270156871505016,0.0048997612626421405,-0.009737265324314381,38.0999984741,0.0,0.016674547437563397,0.04688091476198981
1648466080119742436,112511,4,2,0.635963618755,-0.0,0.300099790096,0.161837622523,38.0999984741,0.2126968624598662,-0.0,0.10036782277458194,38.0999984741,0.021869948989594594,0.3007987875649476,0.7032137714775061
1648466080314676622,112512,6,0,0.0133034354076,0.0439508594573,0.00944249983877,0.0,36.2999992371,0.004449309500869565,0.014699284099431437,0.0031580267019297656,36.2999992371,0.0,0.01598942347631253,0.046880915561502146
1648466080314683901,112513,6,1,0.0336977690458,0.0146502861753,-0.0291144233197,0.0,36.2999992371,0.011270156871505016,0.0048997612626421405,-0.009737265324314381,36.2999992371,0.0,0.016674547437563397,0.04688091476198981
1648466080314687876,112514,6,2,2.03273320198,-1.0987714529,0.394015610218,0.0,36.2999992371,0.6798438802608696,-0.3674820912709029,0.13177779605953177,36.2999992371,0.0,1.0292805693595637,2.344045920462162
1648466080314727462,112515,6,3,0.678659319878,-0.093761831522,0.305405050516,0.161837622523,36.2999992371,0.22697636116321068,-0.03135847208093645,0.10214215736321068,36.2999992371,0.021869948989594594,0.3225211478725626,0.7500946596185777
1648466080419754324,112516,7,0,0.0133139379323,0.0439508594573,0.00942768435925,0.0,40.7999992371,0.004452822050936455,0.014699284099431437,0.0031530716920568557,40.7999992371,0.0,0.015991378973384682,0.04688091533532723
1648466080419762805,112517,7,1,0.0336977690458,0.0146502861753,-0.0291144233197,0.0,40.7999992371,0.011270156871505016,0.0048997612626421405,-0.009737265324314381,40.7999992371,0.0,0.016674547437563397,0.04688091476198981
1648466080419768005,112518,7,2,2.03274416924,-1.0987714529,0.393958836794,0.0,40.7999992371,0.6798475482408026,-0.3674820912709029,0.13175880829230768,40.7999992371,0.0,1.029285414791688,2.3440458887093647
1648466080419769929,112519,7,3,0.665002286434,-0.140642747283,0.317227840424,0.0809188112617,40.7999992371,0.2224087914494983,-0.047037708121404675,0.10609626770033444,40.7999992371,0.010934974494824324,0.31803126735176107,0.7500946114096756
