%time,field.header.seq,field.header.frame_id,field.point_id,field.x,field.y,field.z,field.velocity,field.intensity,normalized_x,normalized_y,normalized_z,normalized_intensity,normalized_velocity,normalized_range,range
1648465363998848561,95295,0,0,0.0133259519935,0.0439508594573,0.00941069517285,0.0,12.5,0.004456840131605351,0.014699284099431437,0.003147389689916388,12.5,0.0,0.015993617506779818,0.04688091538360472
1648465363998942291,95296,0,1,0.0336321368814,0.0146502861753,-0.0291902143508,0.0,12.5,0.011248206314849497,0.0048997612626421405,-0.009762613495250835,12.5,0.0,0.016644877621470478,0.04688091434766458
1648465363998950804,95297,0,2,0.799500226974,-0.0,0.269987344742,0.0,12.5,0.2673913802588629,-0.0,0.0902967708167224,12.5,0.0,0.37814851642374536,0.8438564920958499
1648465363998961210,95298,0,3,0.393056958914,-0.249054864049,0.0570957399905,-0.323675245047,12.5,0.13145717689431438,-0.0832959411535117,0.019095565214214044,12.5,-0.04373989797932432,0.20371596041227455,0.4688091528354054
1648465363998982616,95299,0,4,1.21559023857,-0.0,-0.0898151248693,-0.323675245047,12.5,0.40655191925418055,-0.0,-0.03003850330076923,12.5,-0.04373989797932432,0.5749512380180736,1.2189037635358901
1648465364209040647,95300,2,0,0.0133259519935,0.0439508594573,0.00941069517285,0.0,16.7000007629,0.004456840131605351,0.014699284099431437,0.003147389689916388,16.7000007629,0.0,0.015993617506779818,0.04688091538360472
1648465364209157303,95301,2,1,0.0336977690458,0.0146502861753,-0.0291144233197,0.0,16.7000007629,0.011270156871505016,0.0048997612626421405,-0.009737265324314381,16.7000007629,0.0,0.016674547437563397,0.04688091476198981
1648465364209160967,95302,2,2,2.54983353615,-0.75155967474,0.272441923618,0.0,16.7000007629,0.8527871358361203,-0.25135775074916383,0.09111770020668897,16.7000007629,0.0,1.2319385199582105,2.6722121189222956
1648465364209208087,95303,2,3,0.326906681061,-0.210964113474,0.163247004151,-0.323675245047,16.7000007629,0.10933333814749163,-0.07055655969030099,0.05459766025117056,16.7000007629,-0.04373989797932432,0.16995818831782863,0.4219282162411821
1648465364209355430,95304,2,4,0.351052820683,-0.0527410283685,-0.228043273091,-0.323675245047,16.7000007629,0.11740897012809363,-0.017639139922575247,-0.0762686532076923,16.7000007629,-0.04373989797932432,0.16697566226934796,0.42192823250514283
1648465364209360109,95305,2,5,0.417486339808,-0.0263705141842,0.0550742521882,-0.161837622523,16.7000007629,0.1396275383973244,-0.008819569961270902,0.018419482337190634,16.7000007629,-0.021869948989594594,0.19766002067209834,0.4219282180640557
1648465364298981513,95306,3,0,0.01323455479,0.0439508594573,0.0095388032496,0.0,19.0,0.004426272505016722,0.014699284099431437,0.003190235200535117,19.0,0.0,0.015976630734079445,0.04688091567961774
1648465364298994283,95307,3,1,0.0337206497788,0.0146502861753,-0.0290879197419,0.0,19.0,0.011277809290568562,0.0048997612626421405,-0.00972840125147157,19.0,0.0,0.01668489212490622,0.04688091489544425
1648465364299013625,95308,3,2,2.1747815609,-0.9713139534,0.208336025476,0.0,19.0,0.7273516926086956,-0.3248541650167224,0.06967760049364548,19.0,0.0,1.0787081152981934,2.3909265010056906
1648465364299037234,95309,3,3,0.336301982403,-0.082041606307,0.144328281283,-0.242756426334,19.0,0.11247557939899666,-0.027438664316722407,0.048270328188294305,19.0,-0.03280492247756756,0.1614137299667094,0.3750473320951974
1648465364299042581,95310,3,4,0.292372465134,-0.0205104015768,0.147617325187,-0.161837622523,19.0,0.09778343315518394,-0.006859666079197324,0.04937034287190635,19.0,-0.021869948989594594,0.13845668859952825,0.3281664358777999
1648465364299046068,95311,3,5,0.239066004753,0.102552011609,-0.200059309602,-0.161837622523,19.0,0.0799551855361204,0.03429833164180602,-0.06690946809431438,19.0,-0.021869948989594594,0.11816107202307444,0.32816641673401437
1648465364509228104,95312,5,0,2.17719078064,-0.9713139534,0.181435674429,0.0,21.2000007629,0.7281574517190635,-0.3248541650167224,0.060680827568227416,21.2000007629,0.0,1.0797947849090181,2.390926472171166
1648465364509229947,95313,5,1,0.332441389561,0.117202289402,0.128089144826,0.0809188112617,21.2000007629,0.1111844112244147,0.03919809010100334,0.042839178871571904,21.2000007629,0.010934974494824324,0.16205072312768581,0.3750473078913842
1648465364509240782,95314,5,2,0.309269249439,-0.0,0.109753102064,-0.0809188112617,21.2000007629,0.10343453158494983,-0.0,0.03670672309832776,21.2000007629,-0.010934974494824324,0.14627851738514433,0.3281664395718021
1648465364599088719,95315,6,0,0.0133259519935,0.0439508594573,0.00941069517285,0.0,13.3999996185,0.004456840131605351,0.014699284099431437,0.003147389689916388,13.3999996185,0.0,0.015993617506779818,0.04688091538360472
1648465364599098430,95316,6,1,0.0336853861809,0.0146502861753,-0.0291287489235,0.0,13.3999996185,0.011266015445117057,0.0048997612626421405,-0.009742056496153846,13.3999996185,0.0,0.016668949230534018,0.04688091446444766
1648465364599102727,95317,6,2,2.17578244209,-0.9713139534,0.197610720992,0.0,13.3999996185,0.7276864354816053,-0.3248541650167224,0.06609054213779264,13.3999996185,0.0,1.079159545802455,2.3909266045672837
1648465364599121928,95318,6,3,0.339186966419,0.140642747283,0.0763695538044,0.161837622523,13.3999996185,0.11344045699632106,0.047037708121404675,0.025541656790769227,13.3999996185,0.021869948989594594,0.16718259643988903,0.37504731608174025
