%time,field.header.seq,field.header.frame_id,field.point_id,field.x,field.y,field.z,field.velocity,field.intensity,normalized_x,normalized_y,normalized_z,normalized_intensity,normalized_velocity,normalized_range,range
1648466009617775956,110309,0,0,0.0132299559191,0.0439508594573,0.00954518001527,0.0,27.1000003815,0.004424734421103679,0.014699284099431437,0.0031923678980836116,27.1000003815,0.0,0.01597577861734436,0.04688091554332718
1648466009617782340,110310,0,1,0.0336977690458,0.0146502861753,-0.0291144233197,0.0,27.1000003815,0.011270156871505016,0.0048997612626421405,-0.009737265324314381,27.1000003815,0.0,0.016674547437563397,0.04688091476198981
1648466009617816519,110311,0,2,0.904916644096,0.161153152585,0.467868030071,0.0,27.1000003815,0.3026477070555184,0.05389737544648829,0.15647760203043476,27.1000003815,0.0,0.4313886835000954,1.031380126293196
1648466009617822902,110312,0,3,0.634911775589,0.805765748024,-0.10664716363,0.0,27.1000003815,0.21234507544782608,0.26948687224882945,-0.035667947702341135,27.1000003815,0.0,0.4034898219885389,1.0313801534742548
1648466009617829559,110313,0,4,2.51912307739,-0.738374471664,-0.0344414152205,0.0,27.1000003815,0.8425160793946488,-0.2469479838341137,-0.011518867966722409,27.1000003815,0.0,1.2168196229502521,2.625331245867147
1648466009617871422,110314,0,5,0.573454320431,-0.44536870718,0.188252061605,-0.566431701183,27.1000003815,0.19179074261906354,-0.14895274487625418,0.06296055572073578,27.1000003815,-0.07654482448418919,0.3094419139594929,0.7500946484642437
1648466009617877003,110315,0,6,0.709262371063,-0.323771327734,0.165194138885,-0.242756426334,27.1000003815,0.23721149533879599,-0.10828472499464883,0.0552488758812709,27.1000003815,-0.03280492247756756,0.3525112320322602,0.7969755875749913
1648466009812847315,110316,2,0,0.0133139379323,0.0439508594573,0.00942768435925,0.0,35.4000015259,0.004452822050936455,0.014699284099431437,0.0031530716920568557,35.4000015259,0.0,0.015991378973384682,0.04688091533532723
1648466009812852044,110317,2,1,0.0336977690458,0.0146502861753,-0.0291144233197,0.0,35.4000015259,0.011270156871505016,0.0048997612626421405,-0.009737265324314381,35.4000015259,0.0,0.016674547437563397,0.04688091476198981
1648466009812853868,110318,2,2,1.03118669987,0.168478280306,0.266300201416,0.0,35.4000015259,0.3448784949397993,0.05634725093846154,0.08906361251371238,35.4000015259,0.0,0.4909759314184396,1.0782609787049937
1648466009812858086,110319,2,3,2.0419960022,-1.0987714529,0.342789918184,0.0,35.4000015259,0.6829418067558528,-0.3674820912709029,0.11464545758662206,35.4000015259,0.0,1.0333741385552153,2.3440459267508715
1648466009813055950,110320,2,4,2.49054217339,-0.820416092873,0.128382861614,0.0,35.4000015259,0.8329572486254181,-0.2743866531347826,0.04293741191103679,35.4000015259,0.0,1.2095137830937523,2.6253314156569614
1648466009813154111,110321,2,5,0.553750097752,-0.266635209322,0.230302616954,-0.485512852669,35.4000015259,0.18520070158929766,-0.0891756552916388,0.07702428660668896,35.4000015259,-0.06560984495527027,0.27667832809063553,0.6563328431416465
1648466009813158756,110322,2,6,0.651876688004,-0.219754293561,0.14585763216,-0.323675245047,35.4000015259,0.21801895919866218,-0.07349641925117056,0.04878181677591973,35.4000015259,-0.04373989797932432,0.3169641253878421,0.7032137760033433
1648466009917895797,110323,3,0,0.0133364023641,0.0439508594573,0.00939587969333,0.0,29.7000007629,0.004460335238829431,0.014699284099431437,0.003142434680043478,29.7000007629,0.0,0.01599556607067362,0.0468809154162335
1648466009917899406,110324,3,1,0.0336977690458,0.0146502861753,-0.0291144233197,0.0,29.7000007629,0.011270156871505016,0.0048997612626421405,-0.009737265324314381,29.7000007629,0.0,0.016674547437563397,0.04688091476198981
1648466009917903023,110325,3,2,0.965785443783,0.225614413619,0.283022224903,0.0,29.7000007629,0.32300516514481603,0.07545632562508361,0.09465626250936454,29.7000007629,0.0,0.46298847771548096,1.0313801272299248
1648466009918009079,110326,3,3,2.03511476517,-1.0987714529,0.381524145603,0.0,29.7000007629,0.6806403896889631,-0.3674820912709029,0.1276000486966555,29.7000007629,0.0,1.0303328430933003,2.3440459651634433
1648466009918013904,110327,3,4,0.544424772263,-0.133317604661,0.239289969206,-0.242756426334,29.7000007629,0.18208186363311035,-0.0445878276458194,0.0800300900354515,29.7000007629,-0.03280492247756756,0.26133443038066473,0.609451889593243
1648466010113016307,110328,5,0,0.0133139379323,0.0439508594573,0.00942768435925,0.0,31.8999996185,0.004452822050936455,0.014699284099431437,0.0031530716920568557,31.8999996185,0.0,0.015991378973384682,0.04688091533532723
1648466010113024125,110329,5,1,0.0336836874485,0.0146502861753,-0.0291307158768,0.0,31.8999996185,0.011265447307190634,0.0048997612626421405,-0.009742714340066889,31.8999996185,0.0,0.016668181259305585,0.046880916081506664
1648466010113029032,110330,5,2,0.97297257185,0.161153152585,0.301826119423,0.0,31.8999996185,0.3254088869063545,0.05389737544648829,0.10094519044247492,31.8999996185,0.0,0.4633430850193892,1.0313801290147269
1648466010113030636,110331,5,3,2.0378882885,-1.0987714529,0.366419672966,0.0,31.8999996185,0.681567989464883,-0.3674820912709029,0.12254838560735784,31.8999996185,0.0,1.031558498550248,2.344045809887244
1648466010217829366,110332,6,0,0.0133259519935,0.0439508594573,0.00941069517285,0.0,12.0,0.004456840131605351,0.014699284099431437,0.003147389689916388,12.0,0.0,0.015993617506779818,0.04688091538360472
1648466010217834462,110333,6,1,0.0336977690458,0.0146502861753,-0.0291144233197,0.0,12.0,0.011270156871505016,0.0048997612626421405,-0.009737265324314381,12.0,0.0,0.016674547437563397,0.04688091476198981
1648466010217840922,110334,6,2,0.884699046612,0.083506628871,0.0612156130373,0.0,12.0,0.2958859687665552,0.027928638418394644,0.020473449176354512,12.0,0.0,0.41937694484765276,0.8907373975651371
1648466010217847007,110335,6,3,0.986057937145,0.225614413619,0.201327830553,0.0,12.0,0.3297852632591973,0.07545632562508361,0.06733372259297658,12.0,0.0,0.47245136977546676,1.0313801502813962
1648466010218005917,110336,6,4,2.04226088524,-1.0987714529,0.341208070517,0.0,12.0,0.6830303964013378,-0.3674820912709029,0.11411641154414714,12.0,0.0,1.0334912347094065,2.3440458989693824
1648466010218017742,110337,6,5,0.569844484329,0.0952268540859,0.194012120366,0.161837622523,12.0,0.19058343957491639,0.03184844618257525,0.06488699677792642,12.0,0.021869948989594594,0.27140084451721225,0.6094518790751182
