%time,field.header.seq,field.header.frame_id,field.point_id,field.x,field.y,field.z,field.velocity,field.intensity,normalized_x,normalized_y,normalized_z,normalized_intensity,normalized_velocity,normalized_range,range
1648465412299229156,96016,0,0,0.785958588123,-0.0263705141842,0.306051313877,0.0,12.1000003815,0.26286240405451505,-0.008819569961270902,0.1023582989555184,12.1000003815,0.0,0.37184818373220546,0.8438564528333458
1648465412299246593,96017,0,1,2.17249631882,-0.9713139534,0.230951398611,0.0,12.1000003815,0.7265873975986621,-0.3248541650167224,0.07724127043846153,12.1000003815,0.0,1.0776774662333366,2.3909265149469494
1648465412299249919,96018,0,2,0.395526230335,-0.0922968015075,0.114296711981,0.0809188112617,12.1000003815,0.13228302017892976,-0.03086849548745819,0.038226325077257525,12.1000003815,0.010934974494824324,0.18960606232127047,0.4219282365772621
1648465412599276308,96019,3,0,0.800683200359,-0.0263705141842,0.265150278807,0.0,13.8999996185,0.26778702353143813,-0.008819569961270902,0.08867902301237457,13.8999996185,0.0,0.37881072418551687,0.843856422448096
1648465412599283085,96020,3,1,2.17371726036,-0.9713139534,0.219162717462,0.0,13.8999996185,0.7269957392508362,-0.3248541650167224,0.07329856771304347,13.8999996185,0.0,1.0782281012413149,2.390926561143577
1648465412599288905,96021,3,2,0.397584795952,0.0527410283685,0.131027206779,-0.0809188112617,13.8999996185,0.13297150366287624,0.017639139922575247,0.04382180828729097,13.8999996185,-0.010934974494824324,0.18887556970116812,0.4219282106731751
