%time,field.header.seq,field.header.frame_id,field.point_id,field.x,field.y,field.z,field.velocity,field.intensity,normalized_x,normalized_y,normalized_z,normalized_intensity,normalized_velocity,normalized_range,range
1648465350798876282,94968,0,0,0.0133034354076,0.0439508594573,0.00944249983877,0.0,22.5,0.004449309500869565,0.014699284099431437,0.0031580267019297656,22.5,0.0,0.01598942347631253,0.046880915561502146
1648465350798889348,94969,0,1,0.0337206497788,0.0146502861753,-0.0290879197419,0.0,22.5,0.011277809290568562,0.0048997612626421405,-0.00972840125147157,22.5,0.0,0.01668489212490622,0.04688091489544425
1648465350798899701,94970,0,2,0.237058699131,-0.215359210968,0.07153172791,-0.242756426334,22.5,0.0792838458632107,-0.07202649196254181,0.02392365481939799,22.5,-0.03280492247756756,0.13326541927354152,0.32816642832598186
1648465350798905341,94971,0,3,0.215236932039,-0.102552011609,-0.225497990847,-0.242756426334,22.5,0.07198559599966554,-0.03429833164180602,-0.07541738824314381,22.5,-0.03280492247756756,0.10742545143617242,0.32816641490964193
1648465351009183194,94972,2,0,0.784635186195,0.0263705141842,0.309428364038,0.0,24.2999992371,0.2624197947140468,0.008819569961270902,0.10348774716989965,24.2999992371,0.0,0.37122241598511624,0.8438564403409116
1648465351009184987,94973,2,1,0.262950152159,-0.0439508594573,0.0897054895759,-0.0809188112617,24.2999992371,0.08794319470200668,-0.014699284099431437,0.030001835978561868,24.2999992371,-0.010934974494824324,0.1252360968005068,0.28128550518561823
1648465351099126722,94974,3,0,2.10471892357,-1.02552008629,0.114094525576,0.0,17.8999996185,0.7039193724314381,-0.342983306451505,0.038158704206020064,17.8999996185,0.0,1.0529209439805756,2.3440458091480045
1648465351099129434,94975,3,1,2.52490568161,-0.835066318512,0.26121366024,0.0,17.8999996185,0.8444500607391303,-0.2792863941511705,0.08736242817391303,17.8999996185,0.0,1.2264553396363866,2.672212011356064
1648465351099133582,94976,3,2,0.257372677326,-0.0527410283685,0.100494883955,-0.161837622523,17.8999996185,0.08607781850367892,-0.017639139922575247,0.033610329081939797,17.8999996185,-0.021869948989594594,0.12300374357682275,0.28128550053006496
1648465351309081342,94977,5,0,0.262338727713,0.0351606868207,0.0952031835914,0.0,29.1000003815,0.08773870492073578,0.011759427030334446,0.031840529629230764,29.1000003815,0.0,0.12463725288378932,0.28128549219914756
1648465351309086718,94978,5,1,2.17712020874,-0.9713139534,0.18228200078,0.0,29.1000003815,0.728133849076923,-0.3248541650167224,0.06096387985953177,29.1000003815,0.0,1.0797629521667533,2.390926583394396
1648465351399078606,94979,6,0,0.265129119158,0.0527410283685,0.0777590498328,0.0,13.1000003815,0.08867194620668896,0.017639139922575247,0.02600637118153846,13.1000003815,0.0,0.12663556903718667,0.2812855057228576
1648465351399083504,94980,6,1,0.133460327983,0.158223092556,-0.190460816026,0.0,13.1000003815,0.044635561198327754,0.05291742225953177,-0.06369926957391304,13.1000003815,0.0,0.08237062720152684,0.2812854930575061
1648465351399085711,94981,6,2,0.818700671196,-0.0,0.204506620765,0.0,13.1000003815,0.2738129335103679,-0.0,0.06839686313210702,13.1000003815,0.0,0.3872299641235248,0.8438564729582279
1648465351399087493,94982,6,3,2.17760467529,-0.9713139534,0.176399588585,0.0,13.1000003815,0.7282958780234113,-0.3248541650167224,0.05899651792140467,13.1000003815,0.0,1.0799814815173894,2.3909265427376396
