%time,field.header.seq,field.header.frame_id,field.point_id,field.x,field.y,field.z,field.velocity,field.intensity,normalized_x,normalized_y,normalized_z,normalized_intensity,normalized_velocity,normalized_range,range
1648465760605022139,102337,0,0,0.013252383098,0.0439508594573,0.00951401796192,0.0,15.0,0.004432235149832775,0.014699284099431437,0.003181945806662207,15.0,0.0,0.015979936479305047,0.046880915547706924
1648465760605041562,102338,0,1,0.0336977690458,0.0146502861753,-0.0291144233197,0.0,15.0,0.011270156871505016,0.0048997612626421405,-0.009737265324314381,15.0,0.0,0.016674547437563397,0.04688091476198981
1648465760605045481,102339,0,2,0.28587153554,0.637287437916,0.0815583318472,0.0,15.0,0.09560920921070233,0.21313961134314377,0.027277034062608695,15.0,0.0,0.2524098565731895,0.7032137476267333
1648465760605131669,102340,0,3,0.696037948132,-0.0879017189145,0.0481049269438,0.0,15.0,0.23278861141538462,-0.02939856819882943,0.0160886043290301,15.0,0.0,0.3305228449314012,0.7032137807411035
1648465760605142638,102341,0,4,0.502403497696,-0.0161153152585,0.115183673799,0.161837622523,15.0,0.1680279256508361,-0.005389737544648829,0.038522967825752506,15.0,0.021869948989594594,0.23768848703259904,0.5156900780438674
1648465760904925345,102342,3,0,0.0132299559191,0.0439508594573,0.00954518001527,0.0,23.2000007629,0.004424734421103679,0.014699284099431437,0.0031923678980836116,23.2000007629,0.0,0.01597577861734436,0.04688091554332718
1648465760904931923,102343,3,1,0.0336977690458,0.0146502861753,-0.0291144233197,0.0,23.2000007629,0.011270156871505016,0.0048997612626421405,-0.009737265324314381,23.2000007629,0.0,0.016674547437563397,0.04688091476198981
1648465760904948024,102344,3,2,0.3365688622,0.615312039852,0.0512060597539,0.0,23.2000007629,0.11256483685618728,0.20578997988361203,0.017125772492943142,23.2000007629,0.0,0.26017532706507274,0.7032137412941757
1648465760904954653,102345,3,3,0.67194545269,0.0439508594573,0.202650398016,0.0,23.2000007629,0.22473092063210698,0.014699284099431437,0.06777605284816053,23.2000007629,0.0,0.31815726037502984,0.7032137322705292
1648465760904956773,102346,3,4,0.525198400021,0.12306240201,0.159713476896,0.161837622523,23.2000007629,0.17565163880301005,0.04115799398327759,0.05341587856053511,23.2000007629,0.021869948989594594,0.2517955061098068,0.5625709811884171
