%time,field.header.seq,field.header.frame_id,field.point_id,field.x,field.y,field.z,field.velocity,field.intensity,normalized_x,normalized_y,normalized_z,normalized_intensity,normalized_velocity,normalized_range,range
1648465386199051512,95680,0,0,0.361214309931,-0.093761831522,0.0373286753893,0.0,11.3000001907,0.12080746151538461,-0.03135847208093645,0.012484506819163878,11.3000001907,0.0,0.1737015811293413,0.37504731535582037
1648465386199059809,95681,0,1,2.17163920403,-0.9713139534,0.238876953721,0.0,11.3000001907,0.7263007371337792,-0.3248541650167224,0.07989195776622074,11.3000001907,0.0,1.0772909310167118,2.3909265625628517
1648465386199063250,95682,0,2,0.285310924053,-0.082041606307,0.139857247472,-0.161837622523,11.3000001907,0.09542171373010033,-0.027438664316722407,0.04677499915451505,11.3000001907,-0.021869948989594594,0.1377079779891645,0.32816641848283895
1648465386499452400,95683,3,0,0.798266768456,-0.0,0.273612588644,0.0,24.0,0.2669788523264214,-0.0,0.09150922697123745,24.0,0.0,0.37756511382682884,0.8438564346413766
1648465386499502784,95684,3,1,2.17547988892,-0.9713139534,0.200913190842,0.0,24.0,0.7275852471304347,-0.3248541650167224,0.06719504710434782,24.0,0.0,1.079023082335324,2.390926526144044
