%time,field.header.seq,field.header.frame_id,field.point_id,field.x,field.y,field.z,field.velocity,field.intensity,normalized_x,normalized_y,normalized_z,normalized_intensity,normalized_velocity,normalized_range,range
1648465742904161029,101916,0,0,0.0132630066946,0.0439508594573,0.0094992024824,0.0,14.1999998093,0.004435788192173913,0.014699284099431437,0.0031769907967892975,14.1999998093,0.0,0.015981908109091884,0.046880915535193794
1648465742904173928,101917,0,1,0.0337503887713,0.0146502861753,-0.0290534067899,0.0,14.1999998093,0.011287755441906355,0.0048997612626421405,-0.009716858458160534,14.1999998093,0.0,0.01669833842822278,0.04688091374249746
1648465742904184379,101918,0,2,0.28450229764,0.637287437916,0.0862133055925,0.0,14.1999998093,0.09515127011371237,0.21313961134314377,0.028833881469063544,14.1999998093,0.0,0.2520635283653938,0.7032137441412564
1648465742904263120,101919,0,3,0.694457232952,-0.10987714678,-0.0128758195788,0.0,14.1999998093,0.23225994413110368,-0.03674820962541806,-0.0043062941735117054,14.1999998093,0.0,0.33051443872581493,0.703213781515755
1648465742904272454,101920,0,4,0.520466089249,-0.193383783102,0.0905751511455,-0.242756426334,14.1999998093,0.1740689261702341,-0.06467685053578595,0.03029269269080267,14.1999998093,-0.03280492247756756,0.2545251993641203,0.5625709694163213
1648465742904278121,101921,0,5,0.489812552929,-0.096691891551,0.12911465764,-0.0809188112617,14.1999998093,0.1638169073341137,-0.032338425267892976,0.04318215974581939,14.1999998093,-0.010934974494824324,0.23391821648993966,0.5156900752545361
1648465743009792154,101922,1,0,0.0132299559191,0.0439508594573,0.00954518001527,0.0,12.1000003815,0.004424734421103679,0.014699284099431437,0.0031923678980836116,12.1000003815,0.0,0.01597577861734436,0.04688091554332718
1648465743009845326,101923,1,1,0.0336977690458,0.0146502861753,-0.0291144233197,0.0,12.1000003815,0.011270156871505016,0.0048997612626421405,-0.009737265324314381,12.1000003815,0.0,0.016674547437563397,0.04688091476198981
1648465743009852215,101924,1,2,0.694331049919,-0.10987714678,-0.0184669718146,0.0,12.1000003815,0.23221774244782606,-0.03674820962541806,-0.006176244754046822,12.1000003815,0.0,0.33045512664475857,0.7032137820848904
1648465743009857807,101925,1,3,0.275945454836,0.637287437916,0.110582068563,0.0,12.1000003815,0.09228944977792643,0.21313961134314377,0.03698396941906354,12.1000003815,0.0,0.24992634715878034,0.7032137416588633
1648465743009866593,101926,1,4,0.497889459133,-0.064461261034,0.117843575776,-0.0809188112617,12.1000003815,0.16651821375685616,-0.021558950178595316,0.03941256714916388,12.1000003815,-0.010934974494824324,0.23647710112894912,0.5156900969007633
1648465743205021593,101927,3,0,0.0132584534585,0.0439508594573,0.00950555689633,0.0,13.3000001907,0.0044342653707357856,0.014699284099431437,0.0031791160188394648,13.3000001907,0.0,0.015981062911834463,0.04688091559532422
1648465743205077396,101928,3,1,0.0336836874485,0.0146502861753,-0.0291307158768,0.0,13.3000001907,0.011265447307190634,0.0048997612626421405,-0.009742714340066889,13.3000001907,0.0,0.016668181259305585,0.046880916081506664
1648465743205089157,101929,3,2,0.33710962534,0.615312039852,0.0475160479546,0.0,13.3000001907,0.11274569409364547,0.20578997988361203,0.01589165483431438,13.3000001907,0.0,0.2603319014139704,0.7032137517831462
1648465743205098806,101930,3,3,0.854527115822,-0.139177724719,0.209346935153,0.0,13.3000001907,0.28579502201404683,-0.04654773401973244,0.07001569737558529,13.3000001907,0.0,0.4068467534077061,0.890737430442315
1648465743205106682,101931,3,4,0.530430197716,0.12306240201,0.141370356083,0.161837622523,13.3000001907,0.17740140391839462,0.04115799398327759,0.04728105554615384,13.3000001907,0.021869948989594594,0.25423708756427005,0.5625709973119303
1648465743504879322,101932,6,0,0.0132478391752,0.0439508594573,0.00952034443617,0.0,35.4000015259,0.004430715443210702,0.014699284099431437,0.0031840616843377923,35.4000015259,0.0,0.015979093582340943,0.046880915605719706
1648465743504939910,101933,6,1,0.0336091145873,0.0146502861753,-0.0292167179286,0.0,35.4000015259,0.011240506550936455,0.0048997612626421405,-0.009771477568093644,35.4000015259,0.0,0.016634471301312202,0.046880913759010975
1648465743504979618,101934,6,2,0.520008087158,0.228544458747,0.220886111259,0.0,35.4000015259,0.1739157482133779,0.07643627382842809,0.07387495359832776,35.4000015259,0.0,0.25755752543851745,0.6094519295898608
1648465743504988491,101935,6,3,0.318334549665,0.457088917494,-0.247314482927,0.0,35.4000015259,0.10646640457023411,0.15287254765685618,-0.08271387388862876,35.4000015259,0.0,0.21456981714892542,0.609451899227252
1648465743504995348,101936,6,4,0.795305490494,-0.079111546278,0.270784646273,0.0,35.4000015259,0.2659884583591973,-0.026458711129765885,0.09056342684715718,35.4000015259,0.0,0.3770938654436761,0.843856495277243
