%time,field.header.seq,field.header.frame_id,field.point_id,field.x,field.y,field.z,field.velocity,field.intensity,normalized_x,normalized_y,normalized_z,normalized_intensity,normalized_velocity,normalized_range,range
1648465751709780648,102120,0,0,0.0133314700797,0.0439508594573,0.00940287671983,0.0,23.3999996185,0.004458685645384615,0.014699284099431437,0.0031447748226856188,23.3999996185,0.0,0.01599464624193094,0.04688091543613023
1648465751709784177,102121,0,1,0.033594943583,0.0146502861753,-0.0292330104858,0.0,23.3999996185,0.011235767084615383,0.0048997612626421405,-0.0097769265838796,23.3999996185,0.0,0.0166280661650819,0.04688091318890911
1648465751709787295,102122,0,2,0.316570192575,0.574291229248,0.0273078214377,0.0,23.3999996185,0.10587631858695652,0.1920706452334448,0.0091330506480602,23.3999996185,0.0,0.24353792812505662,0.6563328575729124
1648465751709789981,102123,0,3,0.503617405891,-0.175803437829,0.17874212563,0.161837622523,23.3999996185,0.16843391501371235,-0.05879713639765886,0.059779975127090296,23.3999996185,0.021869948989594594,0.24535091339193718,0.5625709624070603
1648465751709793194,102124,0,4,0.362611830235,0.0175803434104,-0.42975538969,0.161837622523,23.3999996185,0.12127485961036788,0.005879713515183946,-0.1437308995618729,23.3999996185,0.021869948989594594,0.17160930679322003,0.5625709758496326
1648465751709799693,102125,0,5,0.483603745699,-0.0805765762925,0.159909620881,0.323675245047,23.3999996185,0.16174038317692307,-0.026948687723244144,0.05348147855551839,23.3999996185,0.04373989797932432,0.23031746540469034,0.515690075870604
1648465751709937121,102126,0,6,1.54200816154,-0.298865824938,0.271238267422,-0.161837622523,23.3999996185,0.5157217931571906,-0.09995512539732442,0.09071513960602007,23.3999996185,-0.021869948989594594,0.7361582458736239,1.5939511125771488
1648465751904781212,102127,2,0,0.0132584534585,0.0439508594573,0.00950555689633,0.0,12.3999996185,0.0044342653707357856,0.014699284099431437,0.0031791160188394648,12.3999996185,0.0,0.015981062911834463,0.04688091559532422
1648465751904784115,102128,2,1,0.0336977690458,0.0146502861753,-0.0291144233197,0.0,12.3999996185,0.011270156871505016,0.0048997612626421405,-0.009737265324314381,12.3999996185,0.0,0.016674547437563397,0.04688091476198981
1648465751904944478,102129,2,2,0.315236032009,0.574291229248,0.0398578308523,0.0,12.3999996185,0.10543011103979934,0.1920706452334448,0.01333037821147157,12.3999996185,0.0,0.24315046655953726,0.6563328565203853
1648465751904948005,102130,2,3,0.833430111408,-0.111342176795,0.293956518173,0.0,12.3999996185,0.27873916769498325,-0.037238186219063545,0.09831321678026755,12.3999996185,0.0,0.39595167600032916,0.8907374840610413
1648465751904949768,102131,2,4,0.748137295246,-0.0,0.0541533343494,0.242756426334,12.3999996185,0.2502131422227425,-0.0,0.01811148306,12.3999996185,0.03280492247756756,0.3538548192153905,0.7500946581326643
1648465752009756553,102132,3,0,0.0132406326011,0.0439508594573,0.00953036453575,0.0,28.7999992371,0.004428305217759197,0.014699284099431437,0.0031874128882107017,28.7999992371,0.0,0.015977757265619744,0.04688091559362861
1648465752009763944,102133,3,1,0.033594943583,0.0146502861753,-0.0292330104858,0.0,28.7999992371,0.011235767084615383,0.0048997612626421405,-0.0097769265838796,28.7999992371,0.0,0.0166280661650819,0.04688091318890911
1648465752009767153,102134,3,2,0.317260682583,0.574291229248,0.0175516400486,0.0,28.7999992371,0.10610725169999999,0.1920706452334448,0.005870113728628762,28.7999992371,0.0,0.24373885715463203,0.6563328551677157
1648465752009769261,102135,3,3,0.761515021324,0.0498109720647,0.229747086763,0.0,28.7999992371,0.25468729810167223,0.016659187981505015,0.07683849055618729,28.7999992371,0.0,0.3605672866093973,0.7969755231600327
1648465752009776476,102136,3,4,0.531067073345,0.140642747283,0.1211341694,0.0809188112617,28.7999992371,0.17761440580100335,0.047037708121404675,0.04051310013377926,28.7999992371,0.010934974494824324,0.25555097393945,0.5625709784114014
1648465752009779409,102137,3,5,0.806058645248,-0.0,0.379054844379,0.242756426334,28.7999992371,0.269584831186622,-0.0,0.1267741954444816,28.7999992371,0.03280492247756756,0.3812505244741822,0.8907373993642733
1648465752009872812,102138,3,6,0.536384403706,0.306190997362,-0.64183485508,0.242756426334,28.7999992371,0.17939277715919733,0.10240501584013377,-0.21466048664882942,28.7999992371,0.03280492247756756,0.2735878730188838,0.8907374116989485
1648465752204819482,102139,5,0,0.0132406326011,0.0439508594573,0.00953036453575,0.0,19.7999992371,0.004428305217759197,0.014699284099431437,0.0031874128882107017,19.7999992371,0.0,0.015977757265619744,0.04688091559362861
1648465752204822744,102140,5,1,0.0336977690458,0.0146502861753,-0.0291144233197,0.0,19.7999992371,0.011270156871505016,0.0048997612626421405,-0.009737265324314381,19.7999992371,0.0,0.016674547437563397,0.04688091476198981
1648465752204826948,102141,5,2,0.331459283829,0.615312039852,0.0776878371835,0.0,19.7999992371,0.1108559477688963,0.20578997988361203,0.02598255424197324,19.7999992371,0.0,0.2587036878979076,0.7032137393918814
1648465752204830512,102142,5,3,0.69934374094,-0.0659262910485,0.0328883379698,0.0,19.7999992371,0.2338942277391304,-0.022048926772073575,0.010999444137056856,19.7999992371,0.0,0.33151044434703514,0.703213755992999
1648465752204843597,102143,5,4,0.50770252943,0.285680562258,0.179042875767,0.0809188112617,19.7999992371,0.16980017706688963,0.09554533854782607,0.05988056045719063,19.7999992371,0.010934974494824324,0.2584436340522104,0.6094518794823628
1648465752204974864,102144,5,5,0.663150012493,0.32230630517,-0.579205334187,0.242756426334,19.7999992371,0.22178930183712373,0.10779475089297658,-0.1937141585909699,19.7999992371,0.03280492247756756,0.33166353001027477,0.9376183192389522
1648465752204979928,102145,5,6,0.753302276134,-0.0586011447012,-0.555184364319,0.242756426334,19.7999992371,0.2519405605799331,-0.019599045050568562,-0.1856803894043478,19.7999992371,0.03280492247756756,0.3568363976636297,0.9376183081474296
