%time,field.header.seq,field.header.frame_id,field.point_id,field.x,field.y,field.z,field.velocity,field.intensity,normalized_x,normalized_y,normalized_z,normalized_intensity,normalized_velocity,normalized_range,range
1648465756104827540,102229,0,0,0.0132584534585,0.0439508594573,0.00950555689633,0.0,21.3999996185,0.0044342653707357856,0.014699284099431437,0.0031791160188394648,21.3999996185,0.0,0.015981062911834463,0.04688091559532422
1648465756104833289,102230,0,1,0.0336836874485,0.0146502861753,-0.0291307158768,0.0,21.3999996185,0.011265447307190634,0.0048997612626421405,-0.009742714340066889,21.3999996185,0.0,0.016668181259305585,0.046880916081506664
1648465756104836397,102231,0,2,0.316567212343,0.574291229248,0.0273422468454,0.0,21.3999996185,0.10587532185384614,0.1920706452334448,0.009144564162341136,21.3999996185,0.0,0.2435370614828528,0.6563328533483234
1648465756404843279,102232,3,0,0.013321028091,0.0439508594573,0.00941766425967,0.0,12.1000003815,0.004455193341471571,0.014699284099431437,0.0031497204881839463,12.1000003815,0.0,0.015992699848855513,0.0468809154832157
1648465756404849004,102233,3,1,0.0337206497788,0.0146502861753,-0.0290879197419,0.0,12.1000003815,0.011277809290568562,0.0048997612626421405,-0.00972840125147157,12.1000003815,0.0,0.01668489212490622,0.04688091489544425
1648465756404853068,102234,3,2,0.316752552986,0.574291229248,0.0251042414457,0.0,12.1000003815,0.1059373086909699,0.1920706452334448,0.008396067373143813,12.1000003815,0.0,0.2435909676194163,0.6563328566763146
1648465756404859498,102235,3,3,0.803166091442,-0.167013257742,0.347050309181,0.0,12.1000003815,0.26861742188695653,-0.05585727683678929,0.11607033751872908,12.1000003815,0.0,0.38396702209696615,0.8907374000267657
1648465756404904503,102236,3,4,0.53721511364,0.105482056737,0.129458859563,0.161837622523,12.1000003815,0.17967060656856185,0.035278279845150494,0.04329727744581939,12.1000003815,0.021869948989594594,0.25652994125104117,0.5625710079057206
1648465756510040365,102237,4,0,0.0132406326011,0.0439508594573,0.00953036453575,0.0,30.2999992371,0.004428305217759197,0.014699284099431437,0.0031874128882107017,30.2999992371,0.0,0.015977757265619744,0.04688091559362861
1648465756510043384,102238,4,1,0.0336977690458,0.0146502861753,-0.0291144233197,0.0,30.2999992371,0.011270156871505016,0.0048997612626421405,-0.009737265324314381,30.2999992371,0.0,0.016674547437563397,0.04688091476198981
1648465756510045812,102239,4,2,0.748625338078,-0.046880915761,0.0020687689539,0.0,30.2999992371,0.2503763672501672,-0.015679236040468225,0.0006918959712040134,30.2999992371,0.0,0.3544326297021677,0.7500946586131476
1648465756510048199,102240,4,3,0.836993396282,-0.111342176795,0.283651471138,0.0,30.2999992371,0.27993090176655516,-0.037238186219063545,0.09486671275518394,30.2999992371,0.0,0.3976296040796751,0.8907374376503313
1648465756510225917,102241,4,4,0.512877523899,0.158223092556,0.168547347188,0.161837622523,30.2999992371,0.17153094444782607,0.05291742225953177,0.05637035023010033,30.2999992371,0.021869948989594594,0.2482860918072536,0.5625709819950422
1648465756704888627,102242,6,0,0.0132299559191,0.0439508594573,0.00954518001527,0.0,32.5999984741,0.004424734421103679,0.014699284099431437,0.0031923678980836116,32.5999984741,0.0,0.01597577861734436,0.04688091554332718
1648465756704894851,102243,6,1,0.033727504313,0.0146502861753,-0.0290799699724,0.0,32.5999984741,0.011280101776923075,0.0048997612626421405,-0.00972574246568562,32.5999984741,0.0,0.0166879912699634,0.04688091387544942
1648465756704896619,102244,6,2,0.519935429096,0.247589826584,0.199494421482,0.0,32.5999984741,0.17389144785819396,0.08280596206822742,0.06672054230167224,32.5999984741,0.0,0.25948660587876726,0.609451882316869
