%time,field.header.seq,field.header.frame_id,field.point_id,field.x,field.y,field.z,field.velocity,field.intensity,normalized_x,normalized_y,normalized_z,normalized_intensity,normalized_velocity,normalized_range,range
1648465810706560793,103825,0,0,0.0132478391752,0.0439508594573,0.00952034443617,0.0,12.5,0.004430715443210702,0.014699284099431437,0.0031840616843377923,12.5,0.0,0.015979093582340943,0.046880915605719706
1648465810706941422,103826,0,1,0.0336607210338,0.0146502861753,-0.0291572511196,0.0,12.5,0.011257766232040134,0.0048997612626421405,-0.0097515890032107,12.5,0.0,0.016657798819214222,0.046880916356070806
1648465810706951955,103827,0,2,0.639048814774,-0.102552011609,0.108961194754,0.0809188112617,12.5,0.21372870059331103,-0.03429833164180602,0.03644187115518394,12.5,0.010934974494824324,0.30419778182626794,0.6563328764516719
1648465810811749662,103828,1,0,0.0132406326011,0.0439508594573,0.00953036453575,0.0,23.7000007629,0.004428305217759197,0.014699284099431437,0.0031874128882107017,23.7000007629,0.0,0.015977757265619744,0.04688091559362861
1648465810811772317,103829,1,1,0.0336747989058,0.0146502861753,-0.0291409865022,0.0,23.7000007629,0.011262474550434783,0.0048997612626421405,-0.009746149331839465,23.7000007629,0.0,0.016664162938151764,0.04688091360762563
1648465810811776466,103830,1,2,0.635799109936,-0.0205104015768,0.161590963602,0.161837622523,23.7000007629,0.21264184278795983,-0.006859666079197324,0.05404380053578595,23.7000007629,0.021869948989594594,0.30079920483145717,0.6563328608915405
1648465810811778766,103831,1,3,0.770595014095,-0.199243888259,0.0406848788261,0.323675245047,23.7000007629,0.2577240849816053,-0.06663675192608695,0.013606982884983278,23.7000007629,0.04373989797932432,0.37051837291350387,0.796975571847552
1648465811006936141,103832,3,0,0.0132701778784,0.0439508594573,0.00948918238282,0.0,25.8999996185,0.0044381865814046816,0.014699284099431437,0.0031736395929163877,25.8999996185,0.0,0.015983239762279708,0.04688091562943427
1648465811006942252,103833,3,1,0.0336607210338,0.0146502861753,-0.0291572511196,0.0,25.8999996185,0.011257766232040134,0.0048997612626421405,-0.0097515890032107,25.8999996185,0.0,0.016657798819214222,0.046880916356070806
1648465811006964925,103834,3,2,0.643590092659,-0.0,0.128703534603,0.0,25.8999996185,0.21524752262842808,-0.0,0.04304466040234113,25.8999996185,0.0,0.3044059657683327,0.6563328478661767
1648465811007150648,103835,3,3,0.308812558651,0.574291229248,0.0748144090176,0.0,25.8999996185,0.10328179219096989,0.1920706452334448,0.025021541477458192,25.8999996185,0.0,0.2412993782767564,0.6563328486129648
1648465811007163262,103836,3,4,0.626124024391,-0.164083212614,0.379061162472,0.404594063759,25.8999996185,0.2094060282244147,-0.054877328633444813,0.12677630851906355,25.8999996185,0.05467487348094594,0.3011864713286303,0.7500946336802689
1648465811111835555,103837,4,0,0.0132584534585,0.0439508594573,0.00950555689633,0.0,32.9000015259,0.0044342653707357856,0.014699284099431437,0.0031791160188394648,32.9000015259,0.0,0.015981062911834463,0.04688091559532422
1648465811111841186,103838,4,1,0.0336836874485,0.0146502861753,-0.0291307158768,0.0,32.9000015259,0.011265447307190634,0.0048997612626421405,-0.009742714340066889,32.9000015259,0.0,0.016668181259305585,0.046880916081506664
1648465811111843040,103839,4,2,0.639419674873,0.0205104015768,0.146610498428,0.0,32.9000015259,0.21385273407123745,0.006859666079197324,0.04903361151438127,32.9000015259,0.0,0.30251122087982935,0.6563328693862903
1648465811111844691,103840,4,3,0.83816576004,-0.0527410283685,0.0824032202363,0.0,32.9000015259,0.2803229966688963,-0.017639139922575247,0.027559605430200668,32.9000015259,0.0,0.39682880966490863,0.8438564736269492
1648465811111845710,103841,4,4,0.716540396214,0.421928226948,0.143666505814,0.0,32.9000015259,0.23964561746287624,0.14111311938060198,0.0480489986,32.9000015259,0.0,0.3671143641968405,0.8438564054356661
1648465811111858428,103842,4,5,0.923974514008,-0.215359210968,0.262926250696,0.0,32.9000015259,0.3090215765913043,-0.07202649196254181,0.08793520090167224,32.9000015259,0.0,0.4429181472263028,0.9844992156371356
1648465811111866275,103843,4,6,0.799698174,0.553780794144,0.151816785336,0.0,32.9000015259,0.26745758327759195,0.18521096794113712,0.05077484459397993,32.9000015259,0.0,0.4211534403885037,0.9844991994773031
1648465811306759571,103844,6,0,0.0132584534585,0.0439508594573,0.00950555689633,0.0,12.5,0.0044342653707357856,0.014699284099431437,0.0031791160188394648,12.5,0.0,0.015981062911834463,0.04688091559532422
1648465811306763837,103845,6,1,0.0336836874485,0.0146502861753,-0.0291307158768,0.0,12.5,0.011265447307190634,0.0048997612626421405,-0.009742714340066889,12.5,0.0,0.016668181259305585,0.046880916081506664
1648465811306765996,103846,6,2,0.689685404301,0.0659262910485,0.120404921472,0.0809188112617,12.5,0.23066401481638796,0.022048926772073575,0.04026920450568562,12.5,0.010934974494824324,0.32695248987311587,0.7032137497745077
1648465811306767728,103847,6,3,1.49768424034,-0.0,0.545547306538,0.323675245047,12.5,0.500897739244147,-0.0,0.18245729315652173,12.5,0.04373989797932432,0.7083763762010948,1.593951049258938
