%time,field.header.seq,field.header.frame_id,field.point_id,field.x,field.y,field.z,field.velocity,field.intensity,normalized_x,normalized_y,normalized_z,normalized_intensity,normalized_velocity,normalized_range,range
1648465729703777105,101587,0,0,0.0133364023641,0.0439508594573,0.00939587969333,0.0,21.2999992371,0.004460335238829431,0.014699284099431437,0.003142434680043478,21.2999992371,0.0,0.01599556607067362,0.0468809154162335
1648465729703784903,101588,0,1,0.0336977690458,0.0146502861753,-0.0291144233197,0.0,21.2999992371,0.011270156871505016,0.0048997612626421405,-0.009737265324314381,21.2999992371,0.0,0.016674547437563397,0.04688091476198981
1648465729703786956,101589,0,2,0.316264629364,0.574291229248,0.030644485727,0.0,21.2999992371,0.10577412353311036,0.1920706452334448,0.0102489918819398,21.2999992371,0.0,0.24344909771610818,0.6563328547950343
1648465729703826723,101590,0,3,0.780193507671,-0.158223092556,0.27992361784,0.0,21.2999992371,0.2609342835020067,-0.05291742225953177,0.09361993907692308,21.2999992371,0.0,0.37279170349137974,0.8438564381780812
1648465730003768109,101591,3,0,0.802863836288,-0.105482056737,0.237438291311,0.0,21.1000003815,0.26851633320668894,-0.035278279845150494,0.07941079976956521,21.1000003815,0.0,0.3813746182251304,0.8438564724485079
