%time,field.header.seq,field.header.frame_id,field.point_id,field.x,field.y,field.z,field.velocity,field.intensity,normalized_x,normalized_y,normalized_z,normalized_intensity,normalized_velocity,normalized_range,range
1648465778005451614,102828,0,0,0.0133259519935,0.0439508594573,0.00941069517285,0.0,11.6000003815,0.004456840131605351,0.014699284099431437,0.003147389689916388,11.6000003815,0.0,0.015993617506779818,0.04688091538360472
1648465778005456665,102829,0,1,0.0336836874485,0.0146502861753,-0.0291307158768,0.0,11.6000003815,0.011265447307190634,0.0048997612626421405,-0.009742714340066889,11.6000003815,0.0,0.016668181259305585,0.046880916081506664
1648465778005458601,102830,0,2,0.31637442112,0.574291229248,0.0294893365353,0.0,11.6000003815,0.10581084318394648,0.1920706452334448,0.009862654359632106,11.6000003815,0.0,0.24348100917933463,0.6563328509982463
1648465778005464868,102831,0,3,0.743880867958,-0.093761831522,0.0221802871674,0.0809188112617,11.6000003815,0.24878958794581937,-0.03135847208093645,0.007418156243277591,11.6000003815,0.010934974494824324,0.35323628340213303,0.7500946552956738
1648465778005550831,102832,0,4,0.546530604362,-0.0703213736415,0.113337099552,0.161837622523,11.6000003815,0.18278615530501668,-0.023518854060702338,0.037905384465551833,11.6000003815,0.021869948989594594,0.2595663569084175,0.5625709690607757
1648465778110730395,102833,1,0,0.0132299559191,0.0439508594573,0.00954518001527,0.0,33.2000007629,0.004424734421103679,0.014699284099431437,0.0031923678980836116,33.2000007629,0.0,0.01597577861734436,0.04688091554332718
1648465778110752204,102834,1,1,0.033594943583,0.0146502861753,-0.0292330104858,0.0,33.2000007629,0.011235767084615383,0.0048997612626421405,-0.0097769265838796,33.2000007629,0.0,0.0166280661650819,0.04688091318890911
1648465778110755509,102835,1,2,0.316198766232,0.574291229248,0.0313169658184,0.0,33.2000007629,0.10575209572976588,0.1920706452334448,0.010473901611505018,33.2000007629,0.0,0.24342995761176756,0.6563328638015079
1648465778110757396,102836,1,3,0.742550671101,-0.093761831522,-0.0496908463538,0.0809188112617,33.2000007629,0.24834470605384615,-0.03135847208093645,-0.016619012158461538,33.2000007629,0.010934974494824324,0.35260961390919754,0.7500946343057404
1648465778110780725,102837,1,4,0.383600383997,0.632892370224,0.122229114175,0.0809188112617,33.2000007629,0.1282944428083612,0.21166968903812708,0.04087930239966555,33.2000007629,0.010934974494824324,0.27878842402171783,0.7500946361909301
1648465778110808383,102838,1,5,0.825766921043,-0.194848805666,0.271212249994,0.0809188112617,33.2000007629,0.2761762277735786,-0.06516682463745818,0.09070643812508361,33.2000007629,0.010934974494824324,0.39597137852099407,0.8907374189429289
1648465778110829507,102839,1,6,0.673286020756,0.111342176795,-0.572452664375,0.0809188112617,33.2000007629,0.22517927115585282,0.037238186219063545,-0.19145574059364545,33.2000007629,0.010934974494824324,0.32062141355412904,0.8907374467422676
1648465778110874604,102840,1,7,0.551081895828,0.0175803434104,0.111739836633,0.161837622523,33.2000007629,0.1843083263638796,0.005879713515183946,0.03737118282040133,33.2000007629,0.021869948989594594,0.26071764298782957,0.5625709870537049
1648465778305736505,102841,3,0,0.0132299559191,0.0439508594573,0.00954518001527,0.0,35.2999992371,0.004424734421103679,0.014699284099431437,0.0031923678980836116,35.2999992371,0.0,0.01597577861734436,0.04688091554332718
1648465778305883696,102842,3,1,0.0336091145873,0.0146502861753,-0.0292167179286,0.0,35.2999992371,0.011240506550936455,0.0048997612626421405,-0.009771477568093644,35.2999992371,0.0,0.016634471301312202,0.046880913759010975
1648465778305888501,102843,3,2,0.316479325294,0.574291229248,0.0283415410668,0.0,35.2999992371,0.10584592819197325,0.1920706452334448,0.009478776276521739,35.2999992371,0.0,0.24351150648384673,0.6563328593631174
1648465778305891003,102844,3,3,0.740849435329,-0.117202289402,-0.00690465467051,0.0809188112617,35.2999992371,0.24777573087926422,-0.03919809010100334,-0.002309249053682274,35.2999992371,0.010934974494824324,0.3525934144210205,0.7500946185145494
1648465778305892149,102845,3,4,0.426612645388,0.609451889992,0.0959792286158,0.0809188112617,35.2999992371,0.14267981451103678,0.20383006354247488,0.032100076460133777,35.2999992371,0.010934974494824324,0.2868130989713285,0.7500946391925837
1648465778306003747,102846,3,5,0.834238827229,-0.234404578805,0.358089506626,0.0809188112617,35.2999992371,0.27900964121371236,-0.07839618020234114,0.1197623767979933,35.2999992371,0.010934974494824324,0.4022918354263817,0.9376182710340167
1648465778306007600,102847,3,6,0.582870066166,0.076181486249,0.16090516746,0.242756426334,35.2999992371,0.19493982146020067,0.02547875794280936,0.05381443727759197,35.2999992371,0.03280492247756756,0.2768614005024502,0.6094518896474064
1648465778410807981,102848,4,0,0.0132406326011,0.0439508594573,0.00953036453575,0.0,39.0999984741,0.004428305217759197,0.014699284099431437,0.0031874128882107017,39.0999984741,0.0,0.015977757265619744,0.04688091559362861
1648465778410814765,102849,4,1,0.0336091145873,0.0146502861753,-0.0292167179286,0.0,39.0999984741,0.011240506550936455,0.0048997612626421405,-0.009771477568093644,39.0999984741,0.0,0.016634471301312202,0.046880913759010975
1648465778410816982,102850,4,2,0.316612303257,0.574291229248,0.0268152151257,0.0,39.0999984741,0.1058904024270903,0.1920706452334448,0.008968299373143812,39.0999984741,0.0,0.2435501743229392,0.6563328593991916
1648465778410841465,102851,4,3,1.04820072651,0.0673913136125,0.243681058288,0.0,39.0999984741,0.35056880485284275,0.02253890087374582,0.08149868170167224,39.0999984741,0.0,0.49629122088195116,1.078261012174172
1648465778410844153,102852,4,4,0.778992295265,-0.0747164562345,0.150859177113,0.0809188112617,39.0999984741,0.260532540222408,-0.024988781349331104,0.05045457428528428,39.0999984741,0.010934974494824324,0.36929506931829725,0.7969755556061217
1648465778410954157,102853,4,5,0.451650172472,0.647542655468,0.108952663839,0.0809188112617,39.0999984741,0.15105356938862877,0.21656944998929767,0.03643901800635451,39.0999984741,0.010934974494824324,0.30419843575987937,0.7969755654360744
1648465778410962542,102854,4,6,0.816676020622,-0.293005734682,0.355409532785,0.0809188112617,39.0999984741,0.2731357928501672,-0.09799522899063544,0.11886606447658861,39.0999984741,0.010934974494824324,0.3985089554535832,0.9376182694519001
1648465778410971185,102855,4,7,0.602888643742,0.164083212614,0.200934767723,0.242756426334,39.0999984741,0.2016349979070234,0.054877328633444813,0.06720226345250836,39.0999984741,0.03280492247756756,0.2903874411194013,0.6563328410910849
