%time,field.header.seq,field.header.frame_id,field.point_id,field.x,field.y,field.z,field.velocity,field.intensity,normalized_x,normalized_y,normalized_z,normalized_intensity,normalized_velocity,normalized_range,range
1648466053614002130,111697,0,0,0.0132406326011,0.0439508594573,0.00953036453575,0.0,11.8999996185,0.004428305217759197,0.014699284099431437,0.0031874128882107017,11.8999996185,0.0,0.015977757265619744,0.04688091559362861
1648466053614007416,111698,0,1,0.0336233228445,0.0146502861753,-0.0292003657669,0.0,11.8999996185,0.011245258476421405,0.0048997612626421405,-0.009766008617692307,11.8999996185,0.0,0.016640893510684557,0.046880913867419514
1648466053614010345,111699,0,2,0.967679798603,0.061531201005,0.17043581605,0.0,11.8999996185,0.3236387286297659,0.020578996991638794,0.05700194516722407,11.8999996185,0.0,0.4581566854858328,0.9844991867513603
1648466053614180727,111700,0,3,2.03613328934,-1.0987714529,0.37604919076,0.0,11.8999996185,0.6809810332240802,-0.3674820912709029,0.1257689601204013,11.8999996185,0.0,1.0307829173141685,2.3440457486017108
1648466053614185644,111701,0,4,0.488000273705,-0.307656019926,0.313011646271,-0.161837622523,11.8999996185,0.16321079388127088,-0.10289498994180601,0.10468616932140466,11.8999996185,-0.021869948989594594,0.25271111062601453,0.6563328305319975
1648466053719073367,111702,1,0,0.0133139379323,0.0439508594573,0.00942768435925,0.0,30.5,0.004452822050936455,0.014699284099431437,0.0031530716920568557,30.5,0.0,0.015991378973384682,0.04688091533532723
1648466053719079937,111703,1,1,0.0336977690458,0.0146502861753,-0.0291144233197,0.0,30.5,0.011270156871505016,0.0048997612626421405,-0.009737265324314381,30.5,0.0,0.016674547437563397,0.04688091476198981
1648466053719109221,111704,1,2,2.03944373131,-1.0987714529,0.35766145587,0.0,30.5,0.682088204451505,-0.3674820912709029,0.11961921601003343,30.5,0.0,1.0322459613428343,2.344045894581136
1648466053914087892,111705,3,0,0.0133139379323,0.0439508594573,0.00942768435925,0.0,12.0,0.004452822050936455,0.014699284099431437,0.0031530716920568557,12.0,0.0,0.015991378973384682,0.04688091533532723
1648466053914103479,111706,3,1,0.0337503887713,0.0146502861753,-0.0290534067899,0.0,12.0,0.011287755441906355,0.0048997612626421405,-0.009716858458160534,12.0,0.0,0.01669833842822278,0.04688091374249746
1648466053914125168,111707,3,2,1.99675536156,-1.17202293873,0.36589807272,0.0,12.0,0.6678111577123745,-0.3919809159632107,0.12237393736454849,12.0,0.0,1.0225421865183077,2.3440458917111933
1648466053914227839,111708,3,3,0.54155921936,-0.102552011609,0.356327801943,-0.0809188112617,12.0,0.18112348473578593,-0.03429833164180602,0.11917317790735786,12.0,-0.010934974494824324,0.2584333743909255,0.6563328466535824
1648466054019079024,111709,4,0,0.0133139379323,0.0439508594573,0.00942768435925,0.0,16.3999996185,0.004452822050936455,0.014699284099431437,0.0031530716920568557,16.3999996185,0.0,0.015991378973384682,0.04688091533532723
1648466054019102084,111710,4,1,0.0336977690458,0.0146502861753,-0.0291144233197,0.0,16.3999996185,0.011270156871505016,0.0048997612626421405,-0.009737265324314381,16.3999996185,0.0,0.016674547437563397,0.04688091476198981
1648466054019108039,111711,4,2,2.0240111351,-1.0987714529,0.436612784863,0.0,16.3999996185,0.6769268010367891,-0.3674820912709029,0.14602434276354515,16.3999996185,0.0,1.025428142450088,2.3440457556589185
