%time,field.header.seq,field.header.frame_id,field.point_id,field.x,field.y,field.z,field.velocity,field.intensity,normalized_x,normalized_y,normalized_z,normalized_intensity,normalized_velocity,normalized_range,range
1648466062314242636,111953,0,0,0.0133139379323,0.0439508594573,0.00942768435925,0.0,16.0,0.004452822050936455,0.014699284099431437,0.0031530716920568557,16.0,0.0,0.015991378973384682,0.04688091533532723
1648466062314268937,111954,0,1,0.0337118916214,0.0146502861753,-0.0290980711579,0.0,16.0,0.011274880140936454,0.0048997612626421405,-0.009731796373879597,16.0,0.0,0.016680932372498097,0.04688091580612966
1648466062314406715,111955,0,2,0.967986881733,0.193383783102,0.298913389444,0.0,16.0,0.3237414320177257,0.06467685053578595,0.09997103325886286,16.0,0.0,0.4623852556094364,1.0313801942847838
1648466062314416462,111956,0,3,0.713190674782,0.580151319504,-0.467470318079,0.0,16.0,0.2385253092916388,0.19403054164013378,-0.15634458798628761,16.0,0.0,0.3891484259694591,1.031380138650691
1648466062314425275,111957,0,4,0.527526319027,-0.417533159256,0.204674378037,-0.161837622523,16.0,0.17643020703244144,-0.13964319707558526,0.06845296924314381,16.0,-0.021869948989594594,0.28592911428623535,0.7032137351967076
1648466062314440329,111958,0,5,0.64425766468,-0.219754293561,-0.176492661238,-0.161837622523,16.0,0.21547079086287624,-0.07349641925117056,-0.05902764589899665,16.0,-0.021869948989594594,0.31345980136676305,0.703213728185317
1648466062419136058,111959,1,0,0.0133139379323,0.0439508594573,0.00942768435925,0.0,31.1000003815,0.004452822050936455,0.014699284099431437,0.0031530716920568557,31.1000003815,0.0,0.015991378973384682,0.04688091533532723
1648466062419254360,111960,1,1,0.0336977690458,0.0146502861753,-0.0291144233197,0.0,31.1000003815,0.011270156871505016,0.0048997612626421405,-0.009737265324314381,31.1000003815,0.0,0.016674547437563397,0.04688091476198981
1648466062419263680,111961,1,2,1.0002797842,0.161153152585,0.19291216135,0.0,31.1000003815,0.3345417338461538,0.05389737544648829,0.0645191175083612,31.1000003815,0.0,0.47617357176727204,1.0313801856076212
1648466062419273236,111962,1,3,0.791486382484,0.64461261034,0.147542700171,0.0,31.1000003815,0.2647111647103679,0.21558950178595315,0.049345384672575245,31.1000003815,0.0,0.4319986512999254,1.031380123640507
1648466062419304572,111963,1,4,0.562439024448,-0.373582303524,0.196489676833,-0.323675245047,31.1000003815,0.1881066971397993,-0.12494391422207357,0.06571561098093645,31.1000003815,-0.04373989797932432,0.29390345475822705,0.7032137561440709
1648466062614312221,111964,3,0,0.0133139379323,0.0439508594573,0.00942768435925,0.0,39.9000015259,0.004452822050936455,0.014699284099431437,0.0031530716920568557,39.9000015259,0.0,0.015991378973384682,0.04688091533532723
1648466062614314210,111965,3,1,0.0337347723544,0.0146502861753,-0.0290715377778,0.0,39.9000015259,0.011282532559999999,0.0048997612626421405,-0.009722922333712374,39.9000015259,0.0,0.016691277433612105,0.04688091359591267
1648466062614447463,111966,3,2,0.991184771061,0.202173948288,0.373262792826,0.0,39.9000015259,0.33149992343177254,0.06761670511304348,0.12483705445685618,39.9000015259,0.0,0.4736627674631883,1.0782609462731512
1648466062614455592,111967,3,3,2.02276730537,-1.0987714529,0.442339867353,0.0,39.9000015259,0.6765108044715719,-0.3674820912709029,0.1479397549675585,39.9000015259,0.0,1.0248789316491889,2.344045826265275
1648466062614456712,111968,3,4,0.525674045086,-0.246124818921,0.306369364262,-0.161837622523,39.9000015259,0.17581071742006688,-0.08231599295016721,0.10246467032173913,39.9000015259,-0.021869948989594594,0.26190597437799923,0.6563328542167267
1648466062719310674,111969,4,0,0.0133139379323,0.0439508594573,0.00942768435925,0.0,27.1000003815,0.004452822050936455,0.014699284099431437,0.0031530716920568557,27.1000003815,0.0,0.015991378973384682,0.04688091533532723
1648466062719316835,111970,4,1,0.0336233228445,0.0146502861753,-0.0292003657669,0.0,27.1000003815,0.011245258476421405,0.0048997612626421405,-0.009766008617692307,27.1000003815,0.0,0.016640893510684557,0.046880913867419514
1648466062719318926,111971,4,2,1.01024723053,0.202173948288,0.3180770576,0.0,27.1000003815,0.33787532793645486,0.06761670511304348,0.10638028682274246,27.1000003815,0.0,0.48258832690677267,1.0782610012104528
1648466062719325688,111972,4,3,2.00143933296,-1.17202293873,0.339344084263,0.0,27.1000003815,0.6693777033311036,-0.3919809159632107,0.11349300477023411,27.1000003815,0.0,1.0245887262277502,2.3440459850337767
1648466062719330993,111973,4,4,0.547127485275,-0.164083212614,0.323266208172,-0.0809188112617,27.1000003815,0.18298578102842808,-0.054877328633444813,0.10811578868628763,27.1000003815,-0.010934974494824324,0.26453565603734924,0.6563328630740497
1648466062914260831,111974,6,0,0.0133034354076,0.0439508594573,0.00944249983877,0.0,11.8000001907,0.004449309500869565,0.014699284099431437,0.0031580267019297656,11.8000001907,0.0,0.01598942347631253,0.046880915561502146
1648466062914265604,111975,6,1,0.0337118916214,0.0146502861753,-0.0290980711579,0.0,11.8000001907,0.011274880140936454,0.0048997612626421405,-0.009731796373879597,11.8000001907,0.0,0.016680932372498097,0.04688091580612966
1648466062914442125,111976,6,2,0.994592428207,0.161153152585,0.22036460042,0.0,11.8000001907,0.3326396080959866,0.05389737544648829,0.07370053525752508,11.8000001907,0.0,0.4735009449077402,1.0313801403716514
1648466062914445562,111977,6,3,2.02909588814,-1.0987714529,0.412337362766,0.0,11.8000001907,0.6786273873377926,-0.3674820912709029,0.13790547249698998,11.8000001907,0.0,1.0276737561574067,2.344045846332245
1648466062914447573,111978,6,4,0.920257985592,-0.293005734682,-2.13584280014,0.0,11.8000001907,0.30777859049899664,-0.09799522899063544,-0.7143286956989966,11.8000001907,0.0,0.44615959750298456,2.3440459866462215
