%time,field.header.seq,field.header.frame_id,field.point_id,field.x,field.y,field.z,field.velocity,field.intensity,normalized_x,normalized_y,normalized_z,normalized_intensity,normalized_velocity,normalized_range,range
1648466027513325238,110872,0,0,0.0132299559191,0.0439508594573,0.00954518001527,0.0,15.3000001907,0.004424734421103679,0.014699284099431437,0.0031923678980836116,15.3000001907,0.0,0.01597577861734436,0.04688091554332718
1648466027513363418,110873,0,1,0.0336977690458,0.0146502861753,-0.0291144233197,0.0,15.3000001907,0.011270156871505016,0.0048997612626421405,-0.009737265324314381,15.3000001907,0.0,0.016674547437563397,0.04688091476198981
1648466027513378713,110874,0,2,0.979380607605,0.161153152585,0.280336052179,0.0,15.3000001907,0.3275520426772575,0.05389737544648829,0.09375787698294313,15.3000001907,0.0,0.4663535229888454,1.0313801507165679
1648466027513645621,110875,0,3,2.49296855927,-0.820416092873,0.066259264946,0.0,15.3000001907,0.8337687489197324,-0.2743866531347826,0.02216028927959866,15.3000001907,0.0,1.2106315247707946,2.625331425390882
1648466027513650372,110876,0,4,0.583126425743,-0.421928226948,0.211144700646,-0.323675245047,15.3000001907,0.19502556044916386,-0.14111311938060198,0.07061695673779264,15.3000001907,-0.04373989797932432,0.3098109922490565,0.7500946218352578
1648466027513660668,110877,0,5,0.567222476006,-0.329631447792,0.253202229738,-0.242756426334,15.3000001907,0.18970651371438124,-0.11024463136856186,0.08468301997926421,15.3000001907,-0.03280492247756756,0.29005344582838444,0.7032137639467264
1648466027618436977,110878,1,0,0.0132299559191,0.0439508594573,0.00954518001527,0.0,27.2000007629,0.004424734421103679,0.014699284099431437,0.0031923678980836116,27.2000007629,0.0,0.01597577861734436,0.04688091554332718
1648466027618446187,110879,1,1,0.0336977690458,0.0146502861753,-0.0291144233197,0.0,27.2000007629,0.011270156871505016,0.0048997612626421405,-0.009737265324314381,27.2000007629,0.0,0.016674547437563397,0.04688091476198981
1648466027618452633,110880,1,2,0.996332287788,0.193383783102,0.183493211865,0.0,27.2000007629,0.33322150093244146,0.06467685053578595,0.06136896717892976,27.2000007629,0.0,0.47566399102997753,1.0313801792046642
1648466027618457633,110881,1,3,0.633613049984,0.805765748024,0.11410998553,0.0,27.2000007629,0.21191071905819397,0.26948687224882945,0.038163874759197323,27.2000007629,0.0,0.4030328522812731,1.0313801561967149
1648466027618659206,110882,1,4,2.05541706085,-1.0987714529,0.250025600195,0.0,27.2000007629,0.6874304551337792,-0.3674820912709029,0.08362060207190634,27.2000007629,0.0,1.0393095538364427,2.344045818770209
1648466027618683978,110883,1,5,0.576765239239,-0.329631447792,0.2306394279,-0.161837622523,27.2000007629,0.19289807332408027,-0.11024463136856186,0.07713693240802676,27.2000007629,-0.021869948989594594,0.29423326142683903,0.7032137500574845
1648466027813374342,110884,3,0,0.0133139379323,0.0439508594573,0.00942768435925,0.0,31.2000007629,0.004452822050936455,0.014699284099431437,0.0031530716920568557,31.2000007629,0.0,0.015991378973384682,0.04688091533532723
1648466027813377943,110885,3,1,0.033727504313,0.0146502861753,-0.0290799699724,0.0,31.2000007629,0.011280101776923075,0.0048997612626421405,-0.00972574246568562,31.2000007629,0.0,0.0166879912699634,0.04688091387544942
1648466027813384885,110886,3,2,0.996022224426,0.193383783102,0.185168847442,0.0,31.2000007629,0.3331178008113712,0.06467685053578595,0.06192938041538461,31.2000007629,0.0,0.4755186993484454,1.0313801729625973
1648466027813600522,110887,3,3,0.558626174927,0.83799636364,0.222359925508,0.0,31.2000007629,0.18683149663110366,0.28026634235451503,0.07436786806287625,31.2000007629,0.0,0.3851768930291827,1.0313801652442989
1648466027813603923,110888,3,4,2.04169154167,-1.0987714529,0.344597995281,0.0,31.2000007629,0.6828399804916387,-0.3674820912709029,0.11525016564581939,31.2000007629,0.0,1.0332395488561592,2.344045826212978
1648466027813774406,110889,3,5,0.541260480881,-0.28568059206,0.346313863993,-0.161837622523,31.2000007629,0.18102357220100332,-0.09554534851505017,0.11582403478026755,31.2000007629,-0.021869948989594594,0.27325442541281214,0.7032137663876081
1648466027918488028,110890,4,0,0.0133139379323,0.0439508594573,0.00942768435925,0.0,32.7000007629,0.004452822050936455,0.014699284099431437,0.0031530716920568557,32.7000007629,0.0,0.015991378973384682,0.04688091533532723
1648466027918495331,110891,4,1,0.0337644591928,0.0146502861753,-0.0290370546281,0.0,32.7000007629,0.011292461268494983,0.0048997612626421405,-0.009711389507725751,32.7000007629,0.0,0.01670470063879647,0.046880914358358096
1648466027918497078,110892,4,2,0.993419229984,0.193383783102,0.198660358787,0.0,32.7000007629,0.33224723410836116,0.06467685053578595,0.06644159156755852,32.7000007629,0.0,0.4742990028879891,1.0313801395325704
1648466027918498761,110893,4,3,2.08017659187,-1.02552008629,0.340183526278,0.0,32.7000007629,0.6957112347391303,-0.342983306451505,0.11377375460802676,32.7000007629,0.0,1.0419528745528261,2.3440458468850545
1648466027918499915,110894,4,4,0.621547877789,-0.197778865695,0.262814253569,-0.0809188112617,32.7000007629,0.20787554441103678,-0.06614677782441471,0.08789774366856187,32.7000007629,-0.010934974494824324,0.301330184589799,0.7032137484283432
