%time,field.header.seq,field.header.frame_id,field.point_id,field.x,field.y,field.z,field.velocity,field.intensity,normalized_x,normalized_y,normalized_z,normalized_intensity,normalized_velocity,normalized_range,range
1648466077419571974,112423,0,0,0.0133259519935,0.0439508594573,0.00941069517285,0.0,28.0,0.004456840131605351,0.014699284099431437,0.003147389689916388,28.0,0.0,0.015993617506779818,0.04688091538360472
1648466077419576364,112424,0,1,0.0336091145873,0.0146502861753,-0.0292167179286,0.0,28.0,0.011240506550936455,0.0048997612626421405,-0.009771477568093644,28.0,0.0,0.016634471301312202,0.046880913759010975
1648466077419581454,112425,0,2,0.964925706387,0.193383783102,0.308652192354,0.0,28.0,0.3227176275541806,0.06467685053578595,0.10322815797792641,28.0,0.0,0.4609516561024876,1.0313801831808789
1648466077419584250,112426,0,3,0.796341061592,0.64461261034,-0.11857701093,0.0,28.0,0.26633480320802677,0.21558950178595315,-0.03965786318729097,28.0,0.0,0.4339899631097846,1.0313801487850711
1648466077614483075,112427,2,0,0.0132299559191,0.0439508594573,0.00954518001527,0.0,13.6999998093,0.004424734421103679,0.014699284099431437,0.0031923678980836116,13.6999998093,0.0,0.01597577861734436,0.04688091554332718
1648466077614488288,112428,2,1,0.0336091145873,0.0146502861753,-0.0292167179286,0.0,13.6999998093,0.011240506550936455,0.0048997612626421405,-0.009771477568093644,13.6999998093,0.0,0.016634471301312202,0.046880913759010975
1648466077614495434,112429,2,2,0.960908770561,0.193383783102,0.320939421654,0.0,13.6999998093,0.32137417075618724,0.06467685053578595,0.10733759921538462,13.6999998093,0.0,0.4590705939762232,1.0313801749498086
1648466077614499626,112430,2,3,0.63731610775,-0.351606875658,0.181225806475,-0.0809188112617,13.6999998093,0.21314919991638795,-0.11759427279531771,0.06061063761705685,13.6999998093,-0.010934974494824324,0.3235638667160662,0.7500946667855358
1648466077719831620,112431,3,0,0.0133034354076,0.0439508594573,0.00944249983877,0.0,17.2000007629,0.004449309500869565,0.014699284099431437,0.0031580267019297656,17.2000007629,0.0,0.01598942347631253,0.046880915561502146
1648466077719873759,112432,3,1,0.0336091145873,0.0146502861753,-0.0292167179286,0.0,17.2000007629,0.011240506550936455,0.0048997612626421405,-0.009771477568093644,17.2000007629,0.0,0.016634471301312202,0.046880913759010975
1648466077719899697,112433,3,2,1.01012897491,0.202173948288,0.318452328444,0.0,17.2000007629,0.3378357775618729,0.06761670511304348,0.10650579546622073,17.2000007629,0.0,0.48253294603789987,1.0782609780616619
1648466077719927462,112434,3,3,2.03012919426,-1.0987714529,0.407219797373,0.0,17.2000007629,0.6789729746688963,-0.3674820912709029,0.13619391216488294,17.2000007629,0.0,1.0281301902319062,2.3440459070733324
1648466077719944644,112435,3,4,0.642762541771,-0.304725944996,0.237992435694,0.0809188112617,17.2000007629,0.21497074975618727,-0.10191503177123744,0.07959613233913043,17.2000007629,0.010934974494824324,0.320642355596398,0.7500946514308607
1648466077914890077,112436,5,0,0.0132406326011,0.0439508594573,0.00953036453575,0.0,15.5,0.004428305217759197,0.014699284099431437,0.0031874128882107017,15.5,0.0,0.015977757265619744,0.04688091559362861
1648466077914920625,112437,5,1,0.0336977690458,0.0146502861753,-0.0291144233197,0.0,15.5,0.011270156871505016,0.0048997612626421405,-0.009737265324314381,15.5,0.0,0.016674547437563397,0.04688091476198981
1648466077914945934,112438,5,2,0.976729393005,0.193383783102,0.268974810839,0.0,15.5,0.32666534883110365,0.06467685053578595,0.08995813071538461,15.5,0.0,0.4664800051975665,1.031380164436292
1648466077914957717,112439,5,3,2.02895593643,-1.0987714529,0.413025319576,0.0,15.5,0.6785805807458194,-0.3674820912709029,0.13813555838662206,15.5,0.0,1.027611938688678,2.3440458212870694
1648466077915212255,112440,5,4,0.620764672756,-0.293005734682,-2.24128317833,0.0,15.5,0.2076136029284281,-0.09799522899063544,-0.7495930362307691,15.5,0.0,0.3095317126673341,2.344045951973516
1648466078020002445,112441,6,0,0.0132630066946,0.0439508594573,0.0094992024824,0.0,12.0,0.004435788192173913,0.014699284099431437,0.0031769907967892975,12.0,0.0,0.015981908109091884,0.046880915535193794
1648466078020050883,112442,6,1,0.0336233228445,0.0146502861753,-0.0292003657669,0.0,12.0,0.011245258476421405,0.0048997612626421405,-0.009766008617692307,12.0,0.0,0.016640893510684557,0.046880913867419514
1648466078020078562,112443,6,2,0.943617045879,0.193383783102,0.368693083525,0.0,12.0,0.3155909852438127,0.06467685053578595,0.12330872358695652,12.0,0.0,0.45097498259831353,1.0313801465412376
1648466078020104009,112444,6,3,2.03083610535,-1.0987714529,0.403679519892,0.0,12.0,0.6792093997826087,-0.3674820912709029,0.1350098728735786,12.0,0.0,1.028442465532681,2.3440458927421557
